<?xml version="1.0" encoding="UTF-8" standalone="no"?>
<!-- Created with Inkscape (http://www.inkscape.org/) -->

<svg
   xmlns:dc="http://purl.org/dc/elements/1.1/"
   xmlns:cc="http://creativecommons.org/ns#"
   xmlns:rdf="http://www.w3.org/1999/02/22-rdf-syntax-ns#"
   xmlns:svg="http://www.w3.org/2000/svg"
   xmlns="http://www.w3.org/2000/svg"
   xmlns:sodipodi="http://sodipodi.sourceforge.net/DTD/sodipodi-0.dtd"
   xmlns:inkscape="http://www.inkscape.org/namespaces/inkscape"
   width="670.09003"
   height="170"
   id="svg2"
   version="1.1"
   inkscape:version="0.48.4 r9939"
   sodipodi:docname="3zeilig_links_en.svg">
  <defs
     id="defs4">
    <inkscape:perspective
       sodipodi:type="inkscape:persp3d"
       inkscape:vp_x="0 : 526.18109 : 1"
       inkscape:vp_y="0 : 1000 : 0"
       inkscape:vp_z="744.09448 : 526.18109 : 1"
       inkscape:persp3d-origin="372.04724 : 350.78739 : 1"
       id="perspective2657" />
    <clipPath
       clipPathUnits="userSpaceOnUse"
       id="clipPath2665">
      <path
         d="m 0,1190.55 841.89,0 L 841.89,0 0,0 0,1190.55 z"
         id="path2667"
         inkscape:connector-curvature="0" />
    </clipPath>
    <inkscape:perspective
       id="perspective10"
       inkscape:persp3d-origin="372.04724 : 350.78739 : 1"
       inkscape:vp_z="744.09448 : 526.18109 : 1"
       inkscape:vp_y="0 : 1000 : 0"
       inkscape:vp_x="0 : 526.18109 : 1"
       sodipodi:type="inkscape:persp3d" />
  </defs>
  <sodipodi:namedview
     id="base"
     pagecolor="#ffffff"
     bordercolor="#666666"
     borderopacity="1.0"
     inkscape:pageopacity="0.0"
     inkscape:pageshadow="2"
     inkscape:zoom="1.4"
     inkscape:cx="295.03421"
     inkscape:cy="59.993013"
     inkscape:document-units="px"
     inkscape:current-layer="layer1"
     showgrid="false"
     inkscape:window-width="1600"
     inkscape:window-height="838"
     inkscape:window-x="-8"
     inkscape:window-y="-8"
     inkscape:window-maximized="1" />
  <metadata
     id="metadata7">
    <rdf:RDF>
      <cc:Work
         rdf:about="">
        <dc:format>image/svg+xml</dc:format>
        <dc:type
           rdf:resource="http://purl.org/dc/dcmitype/StillImage" />
        <dc:title />
      </cc:Work>
    </rdf:RDF>
  </metadata>
  <g
     inkscape:label="Ebene 1"
     inkscape:groupmode="layer"
     id="layer1"
     transform="translate(0,-882.36218)">
    <g
       id="layer1-9"
       inkscape:label="Layer 1"
       transform="matrix(0.35393939,0,0,0.35393939,499.79301,905.5156)">
      <g
         id="g3794">
        <g
           id="g2669"
           transform="matrix(4.4940907,0,0,-4.2641912,215.28368,197.63517)"
           style="fill:#daeaba;fill-opacity:1">
          <path
             d="m 0,0 c 0,0 -1.549,-8.988 -1.986,-12.123 -0.278,-1.998 -2.369,-2.714 -4.285,-1.045 -2.52,2.2 -36.063,33.028 -36.063,33.028 0,0 -6.689,7.524 3.135,10.764 9.822,3.239 50.056,14.63 50.056,14.63 1.483,0.438 2.723,0.438 4.389,-0.313 2.955,-1.333 11.182,-4.494 11.182,-4.494 L -20.076,25.607 C -21.967,24.98 -26.033,22.054 -21.852,18.083 -17.672,14.112 0,0 0,0"
             style="fill:#daeaba;fill-opacity:1;fill-rule:nonzero;stroke:none"
             id="path2671"
             inkscape:connector-curvature="0" />
        </g>
        <g
           id="g2673"
           transform="matrix(4.4940907,0,0,-4.2641912,168.26242,146.15061)"
           style="fill:#84b819;fill-opacity:1">
          <path
             d="m 0,0 -8.986,7.42 c 0,0 -4.285,2.926 5.433,5.852 9.719,2.926 42.639,13.847 42.639,13.847 0,0 10.973,2.612 7.838,-10.764 C 43.789,2.978 36.264,-29 35.951,-30.254 c -0.314,-1.254 -0.627,-4.495 -3.972,-6.793 -3.344,-2.299 -9.51,-5.957 -9.51,-5.957 0,0 9.844,46.514 9.927,46.923 0.733,3.553 0.315,8.256 -6.687,5.748 C 18.707,7.159 0,0 0,0"
             style="fill:#84b819;fill-opacity:1;fill-rule:nonzero;stroke:none"
             id="path2675"
             inkscape:connector-curvature="0" />
        </g>
        <g
           id="g2677"
           transform="matrix(4.4940907,0,0,-4.2641912,240.70307,133.95118)"
           style="fill:#a9cd5e;fill-opacity:1">
          <path
             d="m 0,0 c 0,0 -3.266,-20.318 -4.205,-25.904 -0.832,-4.955 -2.611,-8.988 -8.881,-3.972 -6.271,5.017 -33.441,30.829 -33.441,30.829 l 0,-9.928 c -0.006,-1.333 0.185,-2.524 1.566,-3.97 2.199,-2.303 37.35,-36.113 38.039,-36.785 4.494,-4.389 9.824,-4.182 11.809,5.224 2.566,12.155 9.22,44.715 9.22,45.342 0,0.627 0.733,5.018 -3.658,3.449 C 6.061,2.717 0,0 0,0"
             style="fill:#a9cd5e;fill-opacity:1;fill-rule:nonzero;stroke:none"
             id="path2679"
             inkscape:connector-curvature="0" />
        </g>
      </g>
    </g>
    <flowRoot
       xml:space="preserve"
       id="flowRoot3024"
       style="font-size:48px;font-style:normal;font-weight:normal;line-height:125%;letter-spacing:0px;word-spacing:0px;fill:#84b819;fill-opacity:1;stroke:none;font-family:Sans"
       transform="translate(60.396677,887.62822)"><flowRegion
         id="flowRegion3026"><rect
           id="rect3028"
           width="239.91122"
           height="80.307129"
           x="52.527931"
           y="6.3492212"
           style="font-size:48px;fill:#84b819;fill-opacity:1" /></flowRegion><flowPara
         id="flowPara3030"
         style="font-size:48px;font-style:normal;font-variant:normal;font-weight:normal;font-stretch:normal;fill:#84b819;fill-opacity:1;font-family:Akkurat-Bold;-inkscape-font-specification:Akkurat-Bold">SFB 876</flowPara></flowRoot>    <flowRoot
       xml:space="preserve"
       id="flowRoot3032"
       style="font-size:22px;font-style:normal;font-weight:normal;line-height:125%;letter-spacing:0px;word-spacing:0px;fill:#000000;fill-opacity:1;stroke:none;font-family:Sans"
       transform="translate(-125.12305,890.73219)"><flowRegion
         id="flowRegion3034"><rect
           id="rect3036"
           width="585"
           height="170"
           x="11.428572"
           y="13.790753" /></flowRegion><flowPara
         style="font-size:36px;font-style:normal;font-variant:normal;font-weight:normal;font-stretch:normal;text-align:end;letter-spacing:0.23px;text-anchor:end;font-family:Akkurat;-inkscape-font-specification:Akkurat"
         id="flowPara3240">Providing </flowPara><flowPara
         style="font-size:36px;font-style:normal;font-variant:normal;font-weight:normal;font-stretch:normal;text-align:end;letter-spacing:0.23px;text-anchor:end;font-family:Akkurat;-inkscape-font-specification:Akkurat"
         id="flowPara3250">Information by Resource-Constrained Data Analysis</flowPara></flowRoot>  </g>
</svg>
