%!PS-Adobe-3.0 EPSF-3.0
%%Creator: GIMP PostScript file plugin V 1.17 by Peter Kirchgessner
%%Title: overlay_arrow.eps
%%CreationDate: Mon Jun 11 10:38:56 2018
%%DocumentData: Clean7Bit
%%LanguageLevel: 2
%%Pages: 1
%%BoundingBox: 14 14 361 1458
%%EndComments
%%BeginProlog
% Use own dictionary to avoid conflicts
10 dict begin
%%EndProlog
%%Page: 1 1
% Translate for offset
14.173228346456694 14.173228346456694 translate
% Translate to begin of first scanline
0 1442.9868645032088 translate
345.99685039370081 -1442.9868645032088 scale
% Image geometry
346 1443 8
% Transformation matrix
[ 346 0 0 1443 0 0 ]
% Strings to hold RGB-samples per scanline
/rstr 346 string def
/gstr 346 string def
/bstr 346 string def
{currentfile /ASCII85Decode filter /RunLengthDecode filter rstr readstring pop}
{currentfile /ASCII85Decode filter /RunLengthDecode filter gstr readstring pop}
{currentfile /ASCII85Decode filter /RunLengthDecode filter bstr readstring pop}
true 3
%%BeginData:        86506 ASCII Bytes
colorimage
X8`2!Jbdjl!;ihsJ,~>
X8`2!Jc"!p!;rntJ,~>
X8`1uJb.F`!;EPoJ,~>
X8`2!Jbdjl!;ihsJ,~>
X8`2!Jc"!p!;rntJ,~>
X8`1uJb.F`!;EPoJ,~>
X8`2!Jbdjl!;ihsJ,~>
X8`2!Jc"!p!;rntJ,~>
X8`1uJb.F`!;EPoJ,~>
X8`2!Jbdjl!;ihsJ,~>
X8`2!Jc"!p!;rntJ,~>
X8`1uJb.F`!;EPoJ,~>
X8`2!Jbdjl!;ihsJ,~>
X8`2!Jc"!p!;rntJ,~>
X8`1uJb.F`!;EPoJ,~>
X8`2!Jbdjl!;ihsJ,~>
X8`2!Jc"!p!;rntJ,~>
X8`1uJb.F`!;EPoJ,~>
X8`2!Jbdjl!;ihsJ,~>
X8`2!Jc"!p!;rntJ,~>
X8`1uJb.F`!;EPoJ,~>
X8`2!Jbdjl!;ihsJ,~>
X8`2!Jc"!p!;rntJ,~>
X8`1uJb.F`!;EPoJ,~>
X8`2!Jbdjl!;ihsJ,~>
X8`2!Jc"!p!;rntJ,~>
X8`1uJb.F`!;EPoJ,~>
X8`2!Jbdjl!;ihsJ,~>
X8`2!Jc"!p!;rntJ,~>
X8`1uJb.F`!;EPoJ,~>
X8`2!Jbdjl!;ihsJ,~>
X8`2!Jc"!p!;rntJ,~>
X8`1uJb.F`!;EPoJ,~>
X8`2!Jbdjl!;ihsJ,~>
X8`2!Jc"!p!;rntJ,~>
X8`1uJb.F`!;EPoJ,~>
X8`2!Jbdjl!;ihsJ,~>
X8`2!Jc"!p!;rntJ,~>
X8`1uJb.F`!;EPoJ,~>
X8`2!Jbdjl!;ihsJ,~>
X8`2!Jc"!p!;rntJ,~>
X8`1uJb.F`!;EPoJ,~>
X8`2!Jbdjl!;ihsJ,~>
X8`2!Jc"!p!;rntJ,~>
X8`1uJb.F`!;EPoJ,~>
X8`2!Jbdjl!;ihsJ,~>
X8`2!Jc"!p!;rntJ,~>
X8`1uJb.F`!;EPoJ,~>
X8`2!Jbdjl!;ihsJ,~>
X8`2!Jc"!p!;rntJ,~>
X8`1uJb.F`!;EPoJ,~>
X8`2!Jbdjl!;ihsJ,~>
X8`2!Jc"!p!;rntJ,~>
X8`1uJb.F`!;EPoJ,~>
X8`2!Jbdjl!;ihsJ,~>
X8`2!Jc"!p!;rntJ,~>
X8`1uJb.F`!;EPoJ,~>
X8`2!Jbdjl!;ihsJ,~>
X8`2!Jc"!p!;rntJ,~>
X8`1uJb.F`!;EPoJ,~>
X8`2!Jbdjl!;ihsJ,~>
X8`2!Jc"!p!;rntJ,~>
X8`1uJb.F`!;EPoJ,~>
X8`2!Jbdjl!;ihsJ,~>
X8`2!Jc"!p!;rntJ,~>
X8`1uJb.F`!;EPoJ,~>
X8`2!Jbdjl!;ihsJ,~>
X8`2!Jc"!p!;rntJ,~>
X8`1uJb.F`!;EPoJ,~>
X8`2!Jbdjl!;ihsJ,~>
X8`2!Jc"!p!;rntJ,~>
X8`1uJb.F`!;EPoJ,~>
X8`2!Jbdjl!;ihsJ,~>
X8`2!Jc"!p!;rntJ,~>
X8`1uJb.F`!;EPoJ,~>
X8`2!Jbdjl!;ihsJ,~>
X8`2!Jc"!p!;rntJ,~>
X8`1uJb.F`!;EPoJ,~>
X8`2!Jbdjl!;ihsJ,~>
X8`2!Jc"!p!;rntJ,~>
X8`1uJb.F`!;EPoJ,~>
X8`2!Jbdjl!;ihsJ,~>
X8`2!Jc"!p!;rntJ,~>
X8`1uJb.F`!;EPoJ,~>
X8`2!Jbdjl!;ihsJ,~>
X8`2!Jc"!p!;rntJ,~>
X8`1uJb.F`!;EPoJ,~>
X8`2!Jbdjl!;ihsJ,~>
X8`2!Jc"!p!;rntJ,~>
X8`1uJb.F`!;EPoJ,~>
X8`2!Jbdjl!;ihsJ,~>
X8`2!Jc"!p!;rntJ,~>
X8`1uJb.F`!;EPoJ,~>
X8`2!Jbdjl!;ihsJ,~>
X8`2!Jc"!p!;rntJ,~>
X8`1uJb.F`!;EPoJ,~>
X8`2!Jbdjl!;ihsJ,~>
X8`2!Jc"!p!;rntJ,~>
X8`1uJb.F`!;EPoJ,~>
X8`2!Jbdjl!;ihsJ,~>
X8`2!Jc"!p!;rntJ,~>
X8`1uJb.F`!;EPoJ,~>
X8`2!Jbdjl!;ihsJ,~>
X8`2!Jc"!p!;rntJ,~>
X8`1uJb.F`!;EPoJ,~>
X8`2!Jbdjl!;ihsJ,~>
X8`2!Jc"!p!;rntJ,~>
X8`1uJb.F`!;EPoJ,~>
X8`2!Jbdjl!;ihsJ,~>
X8`2!Jc"!p!;rntJ,~>
X8`1uJb.F`!;EPoJ,~>
X8`2!Jbdjl!;ihsJ,~>
X8`2!Jc"!p!;rntJ,~>
X8`1uJb.F`!;EPoJ,~>
X8`2!Jbdjl!;ihsJ,~>
X8`2!Jc"!p!;rntJ,~>
X8`1uJb.F`!;EPoJ,~>
X8`2!Jbdjl!;ihsJ,~>
X8`2!Jc"!p!;rntJ,~>
X8`1uJb.F`!;EPoJ,~>
X8`2!Jbdjl!;ihsJ,~>
X8`2!Jc"!p!;rntJ,~>
X8`1uJb.F`!;EPoJ,~>
X8`2!Jbdjl!;ihsJ,~>
X8`2!Jc"!p!;rntJ,~>
X8`1uJb.F`!;EPoJ,~>
X8`2!Jbdjl!;ihsJ,~>
X8`2!Jc"!p!;rntJ,~>
X8`1uJb.F`!;EPoJ,~>
X8`2!Jbdjl!;ihsJ,~>
X8`2!Jc"!p!;rntJ,~>
X8`1uJb.F`!;EPoJ,~>
X8`2!Jbdjl!;ihsJ,~>
X8`2!Jc"!p!;rntJ,~>
X8`1uJb.F`!;EPoJ,~>
X8`2!Jbdjl!;ihsJ,~>
X8`2!Jc"!p!;rntJ,~>
X8`1uJb.F`!;EPoJ,~>
X8`2!Jbdjl!;ihsJ,~>
X8`2!Jc"!p!;rntJ,~>
X8`1uJb.F`!;EPoJ,~>
X8`2!Jbdjl!;ihsJ,~>
X8`2!Jc"!p!;rntJ,~>
X8`1uJb.F`!;EPoJ,~>
X8`2!Jbdjl!;ihsJ,~>
X8`2!Jc"!p!;rntJ,~>
X8`1uJb.F`!;EPoJ,~>
X8`2!Jbdjl!;ihsJ,~>
X8`2!Jc"!p!;rntJ,~>
X8`1uJb.F`!;EPoJ,~>
X8`2!Jbdjl!;ihsJ,~>
X8`2!Jc"!p!;rntJ,~>
X8`1uJb.F`!;EPoJ,~>
X8`2!Jbdjl!;ihsJ,~>
X8`2!Jc"!p!;rntJ,~>
X8`1uJb.F`!;EPoJ,~>
X8`2!Jbdjl!;ihsJ,~>
X8`2!Jc"!p!;rntJ,~>
X8`1uJb.F`!;EPoJ,~>
X8`2!Jbdjl!;ihsJ,~>
X8`2!Jc"!p!;rntJ,~>
X8`1uJb.F`!;EPoJ,~>
X8`2!Jbdjl!;ihsJ,~>
X8`2!Jc"!p!;rntJ,~>
X8`1uJb.F`!;EPoJ,~>
X8`2!Jbdjl!;ihsJ,~>
X8`2!Jc"!p!;rntJ,~>
X8`1uJb.F`!;EPoJ,~>
X8`2!Jbdjl!;ihsJ,~>
X8`2!Jc"!p!;rntJ,~>
X8`1uJb.F`!;EPoJ,~>
X8`2!Jbdjl!;ihsJ,~>
X8`2!Jc"!p!;rntJ,~>
X8`1uJb.F`!;EPoJ,~>
X8`2!Jbdjl!;ihsJ,~>
X8`2!Jc"!p!;rntJ,~>
X8`1uJb.F`!;EPoJ,~>
X8`2!Jbdjl!;ihsJ,~>
X8`2!Jc"!p!;rntJ,~>
X8`1uJb.F`!;EPoJ,~>
X8`2!Jbdjl!;ihsJ,~>
X8`2!Jc"!p!;rntJ,~>
X8`1uJb.F`!;EPoJ,~>
X8`2!Jbdjl!;ihsJ,~>
X8`2!Jc"!p!;rntJ,~>
X8`1uJb.F`!;EPoJ,~>
X8`2!Jbdjl!;ihsJ,~>
X8`2!Jc"!p!;rntJ,~>
X8`1uJb.F`!;EPoJ,~>
X8`2!Jbdjl!;ihsJ,~>
X8`2!Jc"!p!;rntJ,~>
X8`1uJb.F`!;EPoJ,~>
X8`2!Jbdjl!;ihsJ,~>
X8`2!Jc"!p!;rntJ,~>
X8`1uJb.F`!;EPoJ,~>
X8`2!Jbdjl!;ihsJ,~>
X8`2!Jc"!p!;rntJ,~>
X8`1uJb.F`!;EPoJ,~>
X8`2!Jbdjl!;ihsJ,~>
X8`2!Jc"!p!;rntJ,~>
X8`1uJb.F`!;EPoJ,~>
X8`2!Jbdjl!;ihsJ,~>
X8`2!Jc"!p!;rntJ,~>
X8`1uJb.F`!;EPoJ,~>
X8`2!Jbdjl!;ihsJ,~>
X8`2!Jc"!p!;rntJ,~>
X8`1uJb.F`!;EPoJ,~>
X8`2!Jbdjl!;ihsJ,~>
X8`2!Jc"!p!;rntJ,~>
X8`1uJb.F`!;EPoJ,~>
X8`2!Jbdjl!;ihsJ,~>
X8`2!Jc"!p!;rntJ,~>
X8`1uJb.F`!;EPoJ,~>
X8`2!Jbdjl!;ihsJ,~>
X8`2!Jc"!p!;rntJ,~>
X8`1uJb.F`!;EPoJ,~>
X8`2!Jbdjl!;ihsJ,~>
X8`2!Jc"!p!;rntJ,~>
X8`1uJb.F`!;EPoJ,~>
X8`2!Jbdjl!;ihsJ,~>
X8`2!Jc"!p!;rntJ,~>
X8`1uJb.F`!;EPoJ,~>
X8`2!Jbdjl!;ihsJ,~>
X8`2!Jc"!p!;rntJ,~>
X8`1uJb.F`!;EPoJ,~>
X8`2!Jbdjl!;ihsJ,~>
X8`2!Jc"!p!;rntJ,~>
X8`1uJb.F`!;EPoJ,~>
X8`2!Jbdjl!;ihsJ,~>
X8`2!Jc"!p!;rntJ,~>
X8`1uJb.F`!;EPoJ,~>
X8`2!Jbdjl!;ihsJ,~>
X8`2!Jc"!p!;rntJ,~>
X8`1uJb.F`!;EPoJ,~>
X8`2!Jbdjl!;ihsJ,~>
X8`2!Jc"!p!;rntJ,~>
X8`1uJb.F`!;EPoJ,~>
X8`2!Jbdjl!;ihsJ,~>
X8`2!Jc"!p!;rntJ,~>
X8`1uJb.F`!;EPoJ,~>
X8`2!Jbdjl!;ihsJ,~>
X8`2!Jc"!p!;rntJ,~>
X8`1uJb.F`!;EPoJ,~>
X8`2!Jbdjl!;ihsJ,~>
X8`2!Jc"!p!;rntJ,~>
X8`1uJb.F`!;EPoJ,~>
X8`2!Jbdjl!;ihsJ,~>
X8`2!Jc"!p!;rntJ,~>
X8`1uJb.F`!;EPoJ,~>
X8`2!Jbdjl!;ihsJ,~>
X8`2!Jc"!p!;rntJ,~>
X8`1uJb.F`!;EPoJ,~>
X8`2!Jbdjl!;ihsJ,~>
X8`2!Jc"!p!;rntJ,~>
X8`1uJb.F`!;EPoJ,~>
X8`2!Jbdjl!;ihsJ,~>
X8`2!Jc"!p!;rntJ,~>
X8`1uJb.F`!;EPoJ,~>
X8`2!Jbdjl!;ihsJ,~>
X8`2!Jc"!p!;rntJ,~>
X8`1uJb.F`!;EPoJ,~>
X8`2!Jbdjl!;ihsJ,~>
X8`2!Jc"!p!;rntJ,~>
X8`1uJb.F`!;EPoJ,~>
X8`2!Jbdjl!;ihsJ,~>
X8`2!Jc"!p!;rntJ,~>
X8`1uJb.F`!;EPoJ,~>
X8`2!Jbdjl!;ihsJ,~>
X8`2!Jc"!p!;rntJ,~>
X8`1uJb.F`!;EPoJ,~>
X8`2!Jbdjl!;ihsJ,~>
X8`2!Jc"!p!;rntJ,~>
X8`1uJb.F`!;EPoJ,~>
X8`2!Jbdjl!;ihsJ,~>
X8`2!Jc"!p!;rntJ,~>
X8`1uJb.F`!;EPoJ,~>
X8`2!Jbdjl!;ihsJ,~>
X8`2!Jc"!p!;rntJ,~>
X8`1uJb.F`!;EPoJ,~>
X8`2!Jbdjl!;ihsJ,~>
X8`2!Jc"!p!;rntJ,~>
X8`1uJb.F`!;EPoJ,~>
X8`2!Jbdjl!;ihsJ,~>
X8`2!Jc"!p!;rntJ,~>
X8`1uJb.F`!;EPoJ,~>
X8`2!Jbdjl!;ihsJ,~>
X8`2!Jc"!p!;rntJ,~>
X8`1uJb.F`!;EPoJ,~>
X8`2!Jbdjl!;ihsJ,~>
X8`2!Jc"!p!;rntJ,~>
X8`1uJb.F`!;EPoJ,~>
X8`2!Jbdjl!;ihsJ,~>
X8`2!Jc"!p!;rntJ,~>
X8`1uJb.F`!;EPoJ,~>
X8`2!Jbdjl!;ihsJ,~>
X8`2!Jc"!p!;rntJ,~>
X8`1uJb.F`!;EPoJ,~>
X8`2!Jbdjl!;ihsJ,~>
X8`2!Jc"!p!;rntJ,~>
X8`1uJb.F`!;EPoJ,~>
X8`2!Jbdjl!;ihsJ,~>
X8`2!Jc"!p!;rntJ,~>
X8`1uJb.F`!;EPoJ,~>
X8`2!Jbdjl!;ihsJ,~>
X8`2!Jc"!p!;rntJ,~>
X8`1uJb.F`!;EPoJ,~>
X8`2!Jbdjl!;ihsJ,~>
X8`2!Jc"!p!;rntJ,~>
X8`1uJb.F`!;EPoJ,~>
X8`2!Jbdjl!;ihsJ,~>
X8`2!Jc"!p!;rntJ,~>
X8`1uJb.F`!;EPoJ,~>
X8`2!Jbdjl!;ihsJ,~>
X8`2!Jc"!p!;rntJ,~>
X8`1uJb.F`!;EPoJ,~>
X8`2!Jbdjl!;ihsJ,~>
X8`2!Jc"!p!;rntJ,~>
X8`1uJb.F`!;EPoJ,~>
X8`2!Jbdjl!;ihsJ,~>
X8`2!Jc"!p!;rntJ,~>
X8`1uJb.F`!;EPoJ,~>
X8`2!Jbdjl!;ihsJ,~>
X8`2!Jc"!p!;rntJ,~>
X8`1uJb.F`!;EPoJ,~>
X8`2!Jbdjl!;ihsJ,~>
X8`2!Jc"!p!;rntJ,~>
X8`1uJb.F`!;EPoJ,~>
X8`2!Jbdjl!;ihsJ,~>
X8`2!Jc"!p!;rntJ,~>
X8`1uJb.F`!;EPoJ,~>
X8`2!Jbdjl!;ihsJ,~>
X8`2!Jc"!p!;rntJ,~>
X8`1uJb.F`!;EPoJ,~>
X8`2!Jbdjl!;ihsJ,~>
X8`2!Jc"!p!;rntJ,~>
X8`1uJb.F`!;EPoJ,~>
X8`2!Jbdjl!;ihsJ,~>
X8`2!Jc"!p!;rntJ,~>
X8`1uJb.F`!;EPoJ,~>
X8`2!Jbdjl!;ihsJ,~>
X8`2!Jc"!p!;rntJ,~>
X8`1uJb.F`!;EPoJ,~>
X8`2!Jbdjl!;ihsJ,~>
X8`2!Jc"!p!;rntJ,~>
X8`1uJb.F`!;EPoJ,~>
X8`2!Jbdjl!;ihsJ,~>
X8`2!Jc"!p!;rntJ,~>
X8`1uJb.F`!;EPoJ,~>
X8`2!Jbdjl!;ihsJ,~>
X8`2!Jc"!p!;rntJ,~>
X8`1uJb.F`!;EPoJ,~>
X8`2!Jbdjl!;ihsJ,~>
X8`2!Jc"!p!;rntJ,~>
X8`1uJb.F`!;EPoJ,~>
X8`2!Jbdjl!;ihsJ,~>
X8`2!Jc"!p!;rntJ,~>
X8`1uJb.F`!;EPoJ,~>
X8`2!Jbdjl!;ihsJ,~>
X8`2!Jc"!p!;rntJ,~>
X8`1uJb.F`!;EPoJ,~>
X8`2!Jbdjl!;ihsJ,~>
X8`2!Jc"!p!;rntJ,~>
X8`1uJb.F`!;EPoJ,~>
X8`2!Jbdjl!;ihsJ,~>
X8`2!Jc"!p!;rntJ,~>
X8`1uJb.F`!;EPoJ,~>
X8`2!Jbdjl!;ihsJ,~>
X8`2!Jc"!p!;rntJ,~>
X8`1uJb.F`!;EPoJ,~>
X8`2!Jbdjl!;ihsJ,~>
X8`2!Jc"!p!;rntJ,~>
X8`1uJb.F`!;EPoJ,~>
X8`2!Jbdjl!;ihsJ,~>
X8`2!Jc"!p!;rntJ,~>
X8`1uJb.F`!;EPoJ,~>
X8`2!Jbdjl!;ihsJ,~>
X8`2!Jc"!p!;rntJ,~>
X8`1uJb.F`!;EPoJ,~>
X8`2!Jbdjl!;ihsJ,~>
X8`2!Jc"!p!;rntJ,~>
X8`1uJb.F`!;EPoJ,~>
X8`2!Jbdjl!;ihsJ,~>
X8`2!Jc"!p!;rntJ,~>
X8`1uJb.F`!;EPoJ,~>
X8`2!Jbdjl!;ihsJ,~>
X8`2!Jc"!p!;rntJ,~>
X8`1uJb.F`!;EPoJ,~>
X8`2!Jbdjl!;ihsJ,~>
X8`2!Jc"!p!;rntJ,~>
X8`1uJb.F`!;EPoJ,~>
X8`2!Jbdjl!;ihsJ,~>
X8`2!Jc"!p!;rntJ,~>
X8`1uJb.F`!;EPoJ,~>
X8`2!Jbdjl!;ihsJ,~>
X8`2!Jc"!p!;rntJ,~>
X8`1uJb.F`!;EPoJ,~>
X8`2!Jbdjl!;ihsJ,~>
X8`2!Jc"!p!;rntJ,~>
X8`1uJb.F`!;EPoJ,~>
X8`2!Jbdjl!;ihsJ,~>
X8`2!Jc"!p!;rntJ,~>
X8`1uJb.F`!;EPoJ,~>
X8`2!Jbdjl!;ihsJ,~>
X8`2!Jc"!p!;rntJ,~>
X8`1uJb.F`!;EPoJ,~>
X8`2!Jbdjl!;ihsJ,~>
X8`2!Jc"!p!;rntJ,~>
X8`1uJb.F`!;EPoJ,~>
X8`2!Jbdjl!;ihsJ,~>
X8`2!Jc"!p!;rntJ,~>
X8`1uJb.F`!;EPoJ,~>
X8`2!Jbdjl!;ihsJ,~>
X8`2!Jc"!p!;rntJ,~>
X8`1uJb.F`!;EPoJ,~>
X8`2!Jbdjl!;ihsJ,~>
X8`2!Jc"!p!;rntJ,~>
X8`1uJb.F`!;EPoJ,~>
X8`2!Jbdjl!;ihsJ,~>
X8`2!Jc"!p!;rntJ,~>
X8`1uJb.F`!;EPoJ,~>
X8`2!Jbdjl!;ihsJ,~>
X8`2!Jc"!p!;rntJ,~>
X8`1uJb.F`!;EPoJ,~>
X8`2!Jbdjl!;ihsJ,~>
X8`2!Jc"!p!;rntJ,~>
X8`1uJb.F`!;EPoJ,~>
X8`2!Jbdjl!;ihsJ,~>
X8`2!Jc"!p!;rntJ,~>
X8`1uJb.F`!;EPoJ,~>
X8`2!Jbdjl!;ihsJ,~>
X8`2!Jc"!p!;rntJ,~>
X8`1uJb.F`!;EPoJ,~>
X8`2!Jbdjl!;ihsJ,~>
X8`2!Jc"!p!;rntJ,~>
X8`1uJb.F`!;EPoJ,~>
X8`2!Jbdjl!;ihsJ,~>
X8`2!Jc"!p!;rntJ,~>
X8`1uJb.F`!;EPoJ,~>
X8`2!Jbdjl!;ihsJ,~>
X8`2!Jc"!p!;rntJ,~>
X8`1uJb.F`!;EPoJ,~>
X8`2!Jbdjl!;ihsJ,~>
X8`2!Jc"!p!;rntJ,~>
X8`1uJb.F`!;EPoJ,~>
X8`2!Jbdjl!;ihsJ,~>
X8`2!Jc"!p!;rntJ,~>
X8`1uJb.F`!;EPoJ,~>
X8`2!Jbdjl!;ihsJ,~>
X8`2!Jc"!p!;rntJ,~>
X8`1uJb.F`!;EPoJ,~>
X8`2!Jbdjl!;ihsJ,~>
X8`2!Jc"!p!;rntJ,~>
X8`1uJb.F`!;EPoJ,~>
X8`2!Jbdjl!;ihsJ,~>
X8`2!Jc"!p!;rntJ,~>
X8`1uJb.F`!;EPoJ,~>
X8`2!Jbdjl!;ihsJ,~>
X8`2!Jc"!p!;rntJ,~>
X8`1uJb.F`!;EPoJ,~>
X8`2!Jbdjl!;ihsJ,~>
X8`2!Jc"!p!;rntJ,~>
X8`1uJb.F`!;EPoJ,~>
X8`2!Jbdjl!;ihsJ,~>
X8`2!Jc"!p!;rntJ,~>
X8`1uJb.F`!;EPoJ,~>
X8`2!Jbdjl!;ihsJ,~>
X8`2!Jc"!p!;rntJ,~>
X8`1uJb.F`!;EPoJ,~>
X8`2!Jbdjl!;ihsJ,~>
X8`2!Jc"!p!;rntJ,~>
X8`1uJb.F`!;EPoJ,~>
X8`2!Jbdjl!;ihsJ,~>
X8`2!Jc"!p!;rntJ,~>
X8`1uJb.F`!;EPoJ,~>
X8`2!Jbdjl!;ihsJ,~>
X8`2!Jc"!p!;rntJ,~>
X8`1uJb.F`!;EPoJ,~>
X8`2!Jbdjl!;ihsJ,~>
X8`2!Jc"!p!;rntJ,~>
X8`1uJb.F`!;EPoJ,~>
X8`2!Jbdjl!;ihsJ,~>
X8`2!Jc"!p!;rntJ,~>
X8`1uJb.F`!;EPoJ,~>
X8`2!Jbdjl!;ihsJ,~>
X8`2!Jc"!p!;rntJ,~>
X8`1uJb.F`!;EPoJ,~>
X8`2!Jbdjl!;ihsJ,~>
X8`2!Jc"!p!;rntJ,~>
X8`1uJb.F`!;EPoJ,~>
X8`2!Jbdjl!;ihsJ,~>
X8`2!Jc"!p!;rntJ,~>
X8`1uJb.F`!;EPoJ,~>
X8`2!Jbdjl!;ihsJ,~>
X8`2!Jc"!p!;rntJ,~>
X8`1uJb.F`!;EPoJ,~>
X8`2!Jbdjl!;ihsJ,~>
X8`2!Jc"!p!;rntJ,~>
X8`1uJb.F`!;EPoJ,~>
X8`2!Jbdjl!;ihsJ,~>
X8`2!Jc"!p!;rntJ,~>
X8`1uJb.F`!;EPoJ,~>
X8`2!Jbdjl!;ihsJ,~>
X8`2!Jc"!p!;rntJ,~>
X8`1uJb.F`!;EPoJ,~>
X8`2!Jbdjl!;ihsJ,~>
X8`2!Jc"!p!;rntJ,~>
X8`1uJb.F`!;EPoJ,~>
X8`2!Jbdjl!;ihsJ,~>
X8`2!Jc"!p!;rntJ,~>
X8`1uJb.F`!;EPoJ,~>
X8`2!Jbdjl!;ihsJ,~>
X8`2!Jc"!p!;rntJ,~>
X8`1uJb.F`!;EPoJ,~>
X8`2!Jbdjl!;ihsJ,~>
X8`2!Jc"!p!;rntJ,~>
X8`1uJb.F`!;EPoJ,~>
X8`2!Jbdjl!;ihsJ,~>
X8`2!Jc"!p!;rntJ,~>
X8`1uJb.F`!;EPoJ,~>
X8`2!Jbdjl!;ihsJ,~>
X8`2!Jc"!p!;rntJ,~>
X8`1uJb.F`!;EPoJ,~>
X8`2!Jbdjl!;ihsJ,~>
X8`2!Jc"!p!;rntJ,~>
X8`1uJb.F`!;EPoJ,~>
X8`2!Jbdjl!;ihsJ,~>
X8`2!Jc"!p!;rntJ,~>
X8`1uJb.F`!;EPoJ,~>
X8`2!Jbdjl!;ihsJ,~>
X8`2!Jc"!p!;rntJ,~>
X8`1uJb.F`!;EPoJ,~>
X8`2!Jbdjl!;ihsJ,~>
X8`2!Jc"!p!;rntJ,~>
X8`1uJb.F`!;EPoJ,~>
X8`2!Jbdjl!;ihsJ,~>
X8`2!Jc"!p!;rntJ,~>
X8`1uJb.F`!;EPoJ,~>
X8`2!Jbdjl!;ihsJ,~>
X8`2!Jc"!p!;rntJ,~>
X8`1uJb.F`!;EPoJ,~>
X8`2!Jbdjl!;ihsJ,~>
X8`2!Jc"!p!;rntJ,~>
X8`1uJb.F`!;EPoJ,~>
X8`2!Jbdjl!;ihsJ,~>
X8`2!Jc"!p!;rntJ,~>
X8`1uJb.F`!;EPoJ,~>
X8`2!Jbdjl!;ihsJ,~>
X8`2!Jc"!p!;rntJ,~>
X8`1uJb.F`!;EPoJ,~>
X8`2!Jbdjl!;ihsJ,~>
X8`2!Jc"!p!;rntJ,~>
X8`1uJb.F`!;EPoJ,~>
X8`2!Jbdjl!;ihsJ,~>
X8`2!Jc"!p!;rntJ,~>
X8`1uJb.F`!;EPoJ,~>
X8`2!Jbdjl!;ihsJ,~>
X8`2!Jc"!p!;rntJ,~>
X8`1uJb.F`!;EPoJ,~>
X8`2!Jbdjl!;ihsJ,~>
X8`2!Jc"!p!;rntJ,~>
X8`1uJb.F`!;EPoJ,~>
X8`2!Jbdjl!;ihsJ,~>
X8`2!Jc"!p!;rntJ,~>
X8`1uJb.F`!;EPoJ,~>
X8`2!Jbdjl!;ihsJ,~>
X8`2!Jc"!p!;rntJ,~>
X8`1uJb.F`!;EPoJ,~>
X8`2!Jbdjl!;ihsJ,~>
X8`2!Jc"!p!;rntJ,~>
X8`1uJb.F`!;EPoJ,~>
X8`2!Jbdjl!;ihsJ,~>
X8`2!Jc"!p!;rntJ,~>
X8`1uJb.F`!;EPoJ,~>
X8`2!Jbdjl!;ihsJ,~>
X8`2!Jc"!p!;rntJ,~>
X8`1uJb.F`!;EPoJ,~>
X8`2!Jbdjl!;ihsJ,~>
X8`2!Jc"!p!;rntJ,~>
X8`1uJb.F`!;EPoJ,~>
X8`2!Jbdjl!;ihsJ,~>
X8`2!Jc"!p!;rntJ,~>
X8`1uJb.F`!;EPoJ,~>
X8`2!Jbdjl!;ihsJ,~>
X8`2!Jc"!p!;rntJ,~>
X8`1uJb.F`!;EPoJ,~>
X8`2!Jbdjl!;ihsJ,~>
X8`2!Jc"!p!;rntJ,~>
X8`1uJb.F`!;EPoJ,~>
X8`2!Jbdjl!;ihsJ,~>
X8`2!Jc"!p!;rntJ,~>
X8`1uJb.F`!;EPoJ,~>
X8`2!Jbdjl!;ihsJ,~>
X8`2!Jc"!p!;rntJ,~>
X8`1uJb.F`!;EPoJ,~>
X8`2!Jbdjl!;ihsJ,~>
X8`2!Jc"!p!;rntJ,~>
X8`1uJb.F`!;EPoJ,~>
X8`2!Jbdjl!;ihsJ,~>
X8`2!Jc"!p!;rntJ,~>
X8`1uJb.F`!;EPoJ,~>
X8`2!Jbdjl!;ihsJ,~>
X8`2!Jc"!p!;rntJ,~>
X8`1uJb.F`!;EPoJ,~>
X8`2!Jbdjl!;ihsJ,~>
X8`2!Jc"!p!;rntJ,~>
X8`1uJb.F`!;EPoJ,~>
X8`2!Jbdjl!;ihsJ,~>
X8`2!Jc"!p!;rntJ,~>
X8`1uJb.F`!;EPoJ,~>
X8`2!Jbdjl!;ihsJ,~>
X8`2!Jc"!p!;rntJ,~>
X8`1uJb.F`!;EPoJ,~>
X8`2!Jbdjl!;ihsJ,~>
X8`2!Jc"!p!;rntJ,~>
X8`1uJb.F`!;EPoJ,~>
X8`2!Jbdjl!;ihsJ,~>
X8`2!Jc"!p!;rntJ,~>
X8`1uJb.F`!;EPoJ,~>
X8`2!Jbdjl!;ihsJ,~>
X8`2!Jc"!p!;rntJ,~>
X8`1uJb.F`!;EPoJ,~>
X8`2!Jbdjl!;ihsJ,~>
X8`2!Jc"!p!;rntJ,~>
X8`1uJb.F`!;EPoJ,~>
X8`2!Jbdjl!;ihsJ,~>
X8`2!Jc"!p!;rntJ,~>
X8`1uJb.F`!;EPoJ,~>
X8`2!Jbdjl!;ihsJ,~>
X8`2!Jc"!p!;rntJ,~>
X8`1uJb.F`!;EPoJ,~>
X8`2!Jbdjl!;ihsJ,~>
X8`2!Jc"!p!;rntJ,~>
X8`1uJb.F`!;EPoJ,~>
X8`2!Jbdjl!;ihsJ,~>
X8`2!Jc"!p!;rntJ,~>
X8`1uJb.F`!;EPoJ,~>
X8`2!Jbdjl!;ihsJ,~>
X8`2!Jc"!p!;rntJ,~>
X8`1uJb.F`!;EPoJ,~>
X8`2!Jbdjl!;ihsJ,~>
X8`2!Jc"!p!;rntJ,~>
X8`1uJb.F`!;EPoJ,~>
X8`2!Jbdjl!;ihsJ,~>
X8`2!Jc"!p!;rntJ,~>
X8`1uJb.F`!;EPoJ,~>
X8`2!Jbdjl!;ihsJ,~>
X8`2!Jc"!p!;rntJ,~>
X8`1uJb.F`!;EPoJ,~>
X8`2!Jbdjl!;ihsJ,~>
X8`2!Jc"!p!;rntJ,~>
X8`1uJb.F`!;EPoJ,~>
X8`2!Jbdjl!;ihsJ,~>
X8`2!Jc"!p!;rntJ,~>
X8`1uJb.F`!;EPoJ,~>
X8`2!Jbdjl!;ihsJ,~>
X8`2!Jc"!p!;rntJ,~>
X8`1uJb.F`!;EPoJ,~>
X8`2!Jbdjl!;ihsJ,~>
X8`2!Jc"!p!;rntJ,~>
X8`1uJb.F`!;EPoJ,~>
X8`2!Jbdjl!;ihsJ,~>
X8`2!Jc"!p!;rntJ,~>
X8`1uJb.F`!;EPoJ,~>
X8`2!Jbdjl!;ihsJ,~>
X8`2!Jc"!p!;rntJ,~>
X8`1uJb.F`!;EPoJ,~>
X8`2!Jbdjl!;ihsJ,~>
X8`2!Jc"!p!;rntJ,~>
X8`1uJb.F`!;EPoJ,~>
X8`2!Jbdjl!;ihsJ,~>
X8`2!Jc"!p!;rntJ,~>
X8`1uJb.F`!;EPoJ,~>
X8`2!Jbdjl!;ihsJ,~>
X8`2!Jc"!p!;rntJ,~>
X8`1uJb.F`!;EPoJ,~>
X8`2!Jbdjl!;ihsJ,~>
X8`2!Jc"!p!;rntJ,~>
X8`1uJb.F`!;EPoJ,~>
X8`2!Jbdjl!;ihsJ,~>
X8`2!Jc"!p!;rntJ,~>
X8`1uJb.F`!;EPoJ,~>
X8`2!Jbdjl!;ihsJ,~>
X8`2!Jc"!p!;rntJ,~>
X8`1uJb.F`!;EPoJ,~>
X8`2!Jbdjl!;ihsJ,~>
X8`2!Jc"!p!;rntJ,~>
X8`1uJb.F`!;EPoJ,~>
X8`2!Jbdjl!;ihsJ,~>
X8`2!Jc"!p!;rntJ,~>
X8`1uJb.F`!;EPoJ,~>
X8`2!Jbdjl!;ihsJ,~>
X8`2!Jc"!p!;rntJ,~>
X8`1uJb.F`!;EPoJ,~>
X8`2!Jbdjl!;ihsJ,~>
X8`2!Jc"!p!;rntJ,~>
X8`1uJb.F`!;EPoJ,~>
X8`2!Jbdjl!;ihsJ,~>
X8`2!Jc"!p!;rntJ,~>
X8`1uJb.F`!;EPoJ,~>
X8`2!Jbdjl!;ihsJ,~>
X8`2!Jc"!p!;rntJ,~>
X8`1uJb.F`!;EPoJ,~>
X8`2!Jbdjl!;ihsJ,~>
X8`2!Jc"!p!;rntJ,~>
X8`1uJb.F`!;EPoJ,~>
X8`2!Jbdjl!;ihsJ,~>
X8`2!Jc"!p!;rntJ,~>
X8`1uJb.F`!;EPoJ,~>
X8`2!Jbdjl!;ihsJ,~>
X8`2!Jc"!p!;rntJ,~>
X8`1uJb.F`!;EPoJ,~>
X8`2!Jbdjl!;ihsJ,~>
X8`2!Jc"!p!;rntJ,~>
X8`1uJb.F`!;EPoJ,~>
X8`2!Jbdjl!;ihsJ,~>
X8`2!Jc"!p!;rntJ,~>
X8`1uJb.F`!;EPoJ,~>
X8`2!Jbdjl!;ihsJ,~>
X8`2!Jc"!p!;rntJ,~>
X8`1uJb.F`!;EPoJ,~>
X8`2!Jbdjl!;ihsJ,~>
X8`2!Jc"!p!;rntJ,~>
X8`1uJb.F`!;EPoJ,~>
X8`2!Jbdjl!;ihsJ,~>
X8`2!Jc"!p!;rntJ,~>
X8`1uJb.F`!;EPoJ,~>
X8`2!Jbdjl!;ihsJ,~>
X8`2!Jc"!p!;rntJ,~>
X8`1uJb.F`!;EPoJ,~>
X8`2!Jbdjl!;ihsJ,~>
X8`2!Jc"!p!;rntJ,~>
X8`1uJb.F`!;EPoJ,~>
X8`2!Jbdjl!;ihsJ,~>
X8`2!Jc"!p!;rntJ,~>
X8`1uJb.F`!;EPoJ,~>
X8`2!Jbdjl!;ihsJ,~>
X8`2!Jc"!p!;rntJ,~>
X8`1uJb.F`!;EPoJ,~>
X8`2!Jbdjl!;ihsJ,~>
X8`2!Jc"!p!;rntJ,~>
X8`1uJb.F`!;EPoJ,~>
X8`2!Jbdjl!;ihsJ,~>
X8`2!Jc"!p!;rntJ,~>
X8`1uJb.F`!;EPoJ,~>
X8`2!Jbdjl!;ihsJ,~>
X8`2!Jc"!p!;rntJ,~>
X8`1uJb.F`!;EPoJ,~>
X8`2!Jbdjl!;ihsJ,~>
X8`2!Jc"!p!;rntJ,~>
X8`1uJb.F`!;EPoJ,~>
X8`2!Jbdjl!;ihsJ,~>
X8`2!Jc"!p!;rntJ,~>
X8`1uJb.F`!;EPoJ,~>
X8`2!Jbdjl!;ihsJ,~>
X8`2!Jc"!p!;rntJ,~>
X8`1uJb.F`!;EPoJ,~>
X8`2!Jbdjl!;ihsJ,~>
X8`2!Jc"!p!;rntJ,~>
X8`1uJb.F`!;EPoJ,~>
X8`2!Jbdjl!;ihsJ,~>
X8`2!Jc"!p!;rntJ,~>
X8`1uJb.F`!;EPoJ,~>
X8`2!Jbdjl!;ihsJ,~>
X8`2!Jc"!p!;rntJ,~>
X8`1uJb.F`!;EPoJ,~>
X8`2!Jbdjl!;ihsJ,~>
X8`2!Jc"!p!;rntJ,~>
X8`1uJb.F`!;EPoJ,~>
X8`2!Jbdjl!;ihsJ,~>
X8`2!Jc"!p!;rntJ,~>
X8`1uJb.F`!;EPoJ,~>
X8`2!Jbdjl!;ihsJ,~>
X8`2!Jc"!p!;rntJ,~>
X8`1uJb.F`!;EPoJ,~>
X8`2!Jbdjl!;ihsJ,~>
X8`2!Jc"!p!;rntJ,~>
X8`1uJb.F`!;EPoJ,~>
X8`2!Jbdjl!;ihsJ,~>
X8`2!Jc"!p!;rntJ,~>
X8`1uJb.F`!;EPoJ,~>
X8`2!Jbdjl!;ihsJ,~>
X8`2!Jc"!p!;rntJ,~>
X8`1uJb.F`!;EPoJ,~>
X8`2!Jbdjl!;ihsJ,~>
X8`2!Jc"!p!;rntJ,~>
X8`1uJb.F`!;EPoJ,~>
X8`2!Jbdjl!;ihsJ,~>
X8`2!Jc"!p!;rntJ,~>
X8`1uJb.F`!;EPoJ,~>
X8`2!Jbdjl!;ihsJ,~>
X8`2!Jc"!p!;rntJ,~>
X8`1uJb.F`!;EPoJ,~>
X8`2!Jbdjl!;ihsJ,~>
X8`2!Jc"!p!;rntJ,~>
X8`1uJb.F`!;EPoJ,~>
X8`2!Jbdjl!;ihsJ,~>
X8`2!Jc"!p!;rntJ,~>
X8`1uJb.F`!;EPoJ,~>
X8`2!Jbdjl!;ihsJ,~>
X8`2!Jc"!p!;rntJ,~>
X8`1uJb.F`!;EPoJ,~>
X8`2!Jbdjl!;ihsJ,~>
X8`2!Jc"!p!;rntJ,~>
X8`1uJb.F`!;EPoJ,~>
X8`2!Jbdjl!;ihsJ,~>
X8`2!Jc"!p!;rntJ,~>
X8`1uJb.F`!;EPoJ,~>
X8`2!Jbdjl!;ihsJ,~>
X8`2!Jc"!p!;rntJ,~>
X8`1uJb.F`!;EPoJ,~>
X8`2!Jbdjl!;ihsJ,~>
X8`2!Jc"!p!;rntJ,~>
X8`1uJb.F`!;EPoJ,~>
X8`2!Jbdjl!;ihsJ,~>
X8`2!Jc"!p!;rntJ,~>
X8`1uJb.F`!;EPoJ,~>
X8`2!Jbdjl!;ihsJ,~>
X8`2!Jc"!p!;rntJ,~>
X8`1uJb.F`!;EPoJ,~>
X8`2!Jbdjl!;ihsJ,~>
X8`2!Jc"!p!;rntJ,~>
X8`1uJb.F`!;EPoJ,~>
X8`2!Jbdjl!;ihsJ,~>
X8`2!Jc"!p!;rntJ,~>
X8`1uJb.F`!;EPoJ,~>
X8`2!Jbdjl!;ihsJ,~>
X8`2!Jc"!p!;rntJ,~>
X8`1uJb.F`!;EPoJ,~>
X8`2!Jbdjl!;ihsJ,~>
X8`2!Jc"!p!;rntJ,~>
X8`1uJb.F`!;EPoJ,~>
X8`2!Jbdjl!;ihsJ,~>
X8`2!Jc"!p!;rntJ,~>
X8`1uJb.F`!;EPoJ,~>
X8`2!Jbdjl!;ihsJ,~>
X8`2!Jc"!p!;rntJ,~>
X8`1uJb.F`!;EPoJ,~>
X8`2!Jbdjl!;ihsJ,~>
X8`2!Jc"!p!;rntJ,~>
X8`1uJb.F`!;EPoJ,~>
X8`2!Jbdjl!;ihsJ,~>
X8`2!Jc"!p!;rntJ,~>
X8`1uJb.F`!;EPoJ,~>
X8`2!Jbdjl!;ihsJ,~>
X8`2!Jc"!p!;rntJ,~>
X8`1uJb.F`!;EPoJ,~>
X8`2!Jbdjl!;ihsJ,~>
X8`2!Jc"!p!;rntJ,~>
X8`1uJb.F`!;EPoJ,~>
X8`2!Jbdjl!;ihsJ,~>
X8`2!Jc"!p!;rntJ,~>
X8`1uJb.F`!;EPoJ,~>
X8`2!Jbdjl!;ihsJ,~>
X8`2!Jc"!p!;rntJ,~>
X8`1uJb.F`!;EPoJ,~>
X8`2!Jbdjl!;ihsJ,~>
X8`2!Jc"!p!;rntJ,~>
X8`1uJb.F`!;EPoJ,~>
X8`2!Jbdjl!;ihsJ,~>
X8`2!Jc"!p!;rntJ,~>
X8`1uJb.F`!;EPoJ,~>
X8`2!Jbdjl!;ihsJ,~>
X8`2!Jc"!p!;rntJ,~>
X8`1uJb.F`!;EPoJ,~>
X8`2!Jbdjl!;ihsJ,~>
X8`2!Jc"!p!;rntJ,~>
X8`1uJb.F`!;EPoJ,~>
X8`2!Jbdjl!;ihsJ,~>
X8`2!Jc"!p!;rntJ,~>
X8`1uJb.F`!;EPoJ,~>
X8`2!Jbdjl!;ihsJ,~>
X8`2!Jc"!p!;rntJ,~>
X8`1uJb.F`!;EPoJ,~>
X8`2!Jbdjl!;ihsJ,~>
X8`2!Jc"!p!;rntJ,~>
X8`1uJb.F`!;EPoJ,~>
X8`2!Jbdjl!;ihsJ,~>
X8`2!Jc"!p!;rntJ,~>
X8`1uJb.F`!;EPoJ,~>
X8`2!Jbdjl!;ihsJ,~>
X8`2!Jc"!p!;rntJ,~>
X8`1uJb.F`!;EPoJ,~>
X8`2!Jbdjl!;ihsJ,~>
X8`2!Jc"!p!;rntJ,~>
X8`1uJb.F`!;EPoJ,~>
X8`2!Jbdjl!;ihsJ,~>
X8`2!Jc"!p!;rntJ,~>
X8`1uJb.F`!;EPoJ,~>
X8`2!Jbdjl!;ihsJ,~>
X8`2!Jc"!p!;rntJ,~>
X8`1uJb.F`!;EPoJ,~>
X8`2!Jbdjl!;ihsJ,~>
X8`2!Jc"!p!;rntJ,~>
X8`1uJb.F`!;EPoJ,~>
X8`2!Jbdjl!;ihsJ,~>
X8`2!Jc"!p!;rntJ,~>
X8`1uJb.F`!;EPoJ,~>
X8`2!Jbdjl!;ihsJ,~>
X8`2!Jc"!p!;rntJ,~>
X8`1uJb.F`!;EPoJ,~>
X8`2!Jbdjl!;ihsJ,~>
X8`2!Jc"!p!;rntJ,~>
X8`1uJb.F`!;EPoJ,~>
X8`2!Jbdjl!;ihsJ,~>
X8`2!Jc"!p!;rntJ,~>
X8`1uJb.F`!;EPoJ,~>
X8`2!Jbdjl!;ihsJ,~>
X8`2!Jc"!p!;rntJ,~>
X8`1uJb.F`!;EPoJ,~>
X8`2!Jbdjl!;ihsJ,~>
X8`2!Jc"!p!;rntJ,~>
X8`1uJb.F`!;EPoJ,~>
X8`2!Jbdjl!;ihsJ,~>
X8`2!Jc"!p!;rntJ,~>
X8`1uJb.F`!;EPoJ,~>
X8`2!Jbdjl!;ihsJ,~>
X8`2!Jc"!p!;rntJ,~>
X8`1uJb.F`!;EPoJ,~>
X8`2!Jbdjl!;ihsJ,~>
X8`2!Jc"!p!;rntJ,~>
X8`1uJb.F`!;EPoJ,~>
X8`2!Jbdjl!;ihsJ,~>
X8`2!Jc"!p!;rntJ,~>
X8`1uJb.F`!;EPoJ,~>
X8`2!Jbdjl!;ihsJ,~>
X8`2!Jc"!p!;rntJ,~>
X8`1uJb.F`!;EPoJ,~>
X8`2!Jbdjl!;ihsJ,~>
X8`2!Jc"!p!;rntJ,~>
X8`1uJb.F`!;EPoJ,~>
X8`2!Jbdjl!;ihsJ,~>
X8`2!Jc"!p!;rntJ,~>
X8`1uJb.F`!;EPoJ,~>
X8`2!Jbdjl!;ihsJ,~>
X8`2!Jc"!p!;rntJ,~>
X8`1uJb.F`!;EPoJ,~>
X8`2!Jbdjl!;ihsJ,~>
X8`2!Jc"!p!;rntJ,~>
X8`1uJb.F`!;EPoJ,~>
X8`2!Jbdjl!;ihsJ,~>
X8`2!Jc"!p!;rntJ,~>
X8`1uJb.F`!;EPoJ,~>
X8`2!Jbdjl!;ihsJ,~>
X8`2!Jc"!p!;rntJ,~>
X8`1uJb.F`!;EPoJ,~>
X8`2!Jbdjl!;ihsJ,~>
X8`2!Jc"!p!;rntJ,~>
X8`1uJb.F`!;EPoJ,~>
X8`2!Jbdjl!;ihsJ,~>
X8`2!Jc"!p!;rntJ,~>
X8`1uJb.F`!;EPoJ,~>
X8`2!Jbdjl!;ihsJ,~>
X8`2!Jc"!p!;rntJ,~>
X8`1uJb.F`!;EPoJ,~>
X8`2!Jbdjl!;ihsJ,~>
X8`2!Jc"!p!;rntJ,~>
X8`1uJb.F`!;EPoJ,~>
X8`2!Jbdjl!;ihsJ,~>
X8`2!Jc"!p!;rntJ,~>
X8`1uJb.F`!;EPoJ,~>
X8`2!Jbdjl!;ihsJ,~>
X8`2!Jc"!p!;rntJ,~>
X8`1uJb.F`!;EPoJ,~>
X8`2!Jbdjl!;ihsJ,~>
X8`2!Jc"!p!;rntJ,~>
X8`1uJb.F`!;EPoJ,~>
X8`2!Jbdjl!;ihsJ,~>
X8`2!Jc"!p!;rntJ,~>
X8`1uJb.F`!;EPoJ,~>
X8`2!Jbdjl!;ihsJ,~>
X8`2!Jc"!p!;rntJ,~>
X8`1uJb.F`!;EPoJ,~>
X8`2!Jbdjl!;ihsJ,~>
X8`2!Jc"!p!;rntJ,~>
X8`1uJb.F`!;EPoJ,~>
X8`2!Jbdjl!;ihsJ,~>
X8`2!Jc"!p!;rntJ,~>
X8`1uJb.F`!;EPoJ,~>
X8`2!Jbdjl!;ihsJ,~>
X8`2!Jc"!p!;rntJ,~>
X8`1uJb.F`!;EPoJ,~>
X8`2!Jbdjl!;ihsJ,~>
X8`2!Jc"!p!;rntJ,~>
X8`1uJb.F`!;EPoJ,~>
X8`2!Jbdjl!;ihsJ,~>
X8`2!Jc"!p!;rntJ,~>
X8`1uJb.F`!;EPoJ,~>
X8`2!Jbdjl!;ihsJ,~>
X8`2!Jc"!p!;rntJ,~>
X8`1uJb.F`!;EPoJ,~>
X8`2!Jbdjl!;ihsJ,~>
X8`2!Jc"!p!;rntJ,~>
X8`1uJb.F`!;EPoJ,~>
X8`2!Jbdjl!;ihsJ,~>
X8`2!Jc"!p!;rntJ,~>
X8`1uJb.F`!;EPoJ,~>
X8`2!Jbdjl!;ihsJ,~>
X8`2!Jc"!p!;rntJ,~>
X8`1uJb.F`!;EPoJ,~>
X8`2!Jbdjl!;ihsJ,~>
X8`2!Jc"!p!;rntJ,~>
X8`1uJb.F`!;EPoJ,~>
X8`2!Jbdjl!;ihsJ,~>
X8`2!Jc"!p!;rntJ,~>
X8`1uJb.F`!;EPoJ,~>
X8`2!Jbdjl!;ihsJ,~>
X8`2!Jc"!p!;rntJ,~>
X8`1uJb.F`!;EPoJ,~>
X8`2!Jbdjl!;ihsJ,~>
X8`2!Jc"!p!;rntJ,~>
X8`1uJb.F`!;EPoJ,~>
X8`2!Jbdjl!;ihsJ,~>
X8`2!Jc"!p!;rntJ,~>
X8`1uJb.F`!;EPoJ,~>
X8`2!Jbdjl!;ihsJ,~>
X8`2!Jc"!p!;rntJ,~>
X8`1uJb.F`!;EPoJ,~>
X8`2!Jbdjl!;ihsJ,~>
X8`2!Jc"!p!;rntJ,~>
X8`1uJb.F`!;EPoJ,~>
X8`2!Jbdjl!;ihsJ,~>
X8`2!Jc"!p!;rntJ,~>
X8`1uJb.F`!;EPoJ,~>
X8`2!Jbdjl!;ihsJ,~>
X8`2!Jc"!p!;rntJ,~>
X8`1uJb.F`!;EPoJ,~>
X8`2!Jbdjl!;ihsJ,~>
X8`2!Jc"!p!;rntJ,~>
X8`1uJb.F`!;EPoJ,~>
X8`2!Jbdjl!;ihsJ,~>
X8`2!Jc"!p!;rntJ,~>
X8`1uJb.F`!;EPoJ,~>
X8`2!Jbdjl!;ihsJ,~>
X8`2!Jc"!p!;rntJ,~>
X8`1uJb.F`!;EPoJ,~>
X8`2!Jbdjl!;ihsJ,~>
X8`2!Jc"!p!;rntJ,~>
X8`1uJb.F`!;EPoJ,~>
X8`2!Jbdjl!;ihsJ,~>
X8`2!Jc"!p!;rntJ,~>
X8`1uJb.F`!;EPoJ,~>
X8`2!Jbdjl!;ihsJ,~>
X8`2!Jc"!p!;rntJ,~>
X8`1uJb.F`!;EPoJ,~>
X8`2!Jbdjl!;ihsJ,~>
X8`2!Jc"!p!;rntJ,~>
X8`1uJb.F`!;EPoJ,~>
X8`2!Jbdjl!;ihsJ,~>
X8`2!Jc"!p!;rntJ,~>
X8`1uJb.F`!;EPoJ,~>
X8`2!Jbdjl!;ihsJ,~>
X8`2!Jc"!p!;rntJ,~>
X8`1uJb.F`!;EPoJ,~>
X8`2!Jbdjl!;ihsJ,~>
X8`2!Jc"!p!;rntJ,~>
X8`1uJb.F`!;EPoJ,~>
X8`2!Jbdjl!;ihsJ,~>
X8`2!Jc"!p!;rntJ,~>
X8`1uJb.F`!;EPoJ,~>
X8`2!Jbdjl!;ihsJ,~>
X8`2!Jc"!p!;rntJ,~>
X8`1uJb.F`!;EPoJ,~>
X8`2!Jbdjl!;ihsJ,~>
X8`2!Jc"!p!;rntJ,~>
X8`1uJb.F`!;EPoJ,~>
X8`2!Jbdjl!;ihsJ,~>
X8`2!Jc"!p!;rntJ,~>
X8`1uJb.F`!;EPoJ,~>
X8`2!Jbdjl!;ihsJ,~>
X8`2!Jc"!p!;rntJ,~>
X8`1uJb.F`!;EPoJ,~>
X8`2!Jbdjl!;ihsJ,~>
X8`2!Jc"!p!;rntJ,~>
X8`1uJb.F`!;EPoJ,~>
X8`2!Jbdjl!;ihsJ,~>
X8`2!Jc"!p!;rntJ,~>
X8`1uJb.F`!;EPoJ,~>
X8`2!Jbdjl!;ihsJ,~>
X8`2!Jc"!p!;rntJ,~>
X8`1uJb.F`!;EPoJ,~>
X8`2!Jbdjl!;ihsJ,~>
X8`2!Jc"!p!;rntJ,~>
X8`1uJb.F`!;EPoJ,~>
X8`2!Jbdjl!;ihsJ,~>
X8`2!Jc"!p!;rntJ,~>
X8`1uJb.F`!;EPoJ,~>
X8`2!Jbdjl!;ihsJ,~>
X8`2!Jc"!p!;rntJ,~>
X8`1uJb.F`!;EPoJ,~>
X8`2!Jbdjl!;ihsJ,~>
X8`2!Jc"!p!;rntJ,~>
X8`1uJb.F`!;EPoJ,~>
X8`2!Jbdjl!;ihsJ,~>
X8`2!Jc"!p!;rntJ,~>
X8`1uJb.F`!;EPoJ,~>
X8`2!Jbdjl!;ihsJ,~>
X8`2!Jc"!p!;rntJ,~>
X8`1uJb.F`!;EPoJ,~>
X8`2!Jbdjl!;ihsJ,~>
X8`2!Jc"!p!;rntJ,~>
X8`1uJb.F`!;EPoJ,~>
X8`2!Jbdjl!;ihsJ,~>
X8`2!Jc"!p!;rntJ,~>
X8`1uJb.F`!;EPoJ,~>
X8`2!Jbdjl!;ihsJ,~>
X8`2!Jc"!p!;rntJ,~>
X8`1uJb.F`!;EPoJ,~>
X8`2!Jbdjl!;ihsJ,~>
X8`2!Jc"!p!;rntJ,~>
X8`1uJb.F`!;EPoJ,~>
X8`2!Jbdjl!;ihsJ,~>
X8`2!Jc"!p!;rntJ,~>
X8`1uJb.F`!;EPoJ,~>
X8`2!Jbdjl!;ihsJ,~>
X8`2!Jc"!p!;rntJ,~>
X8`1uJb.F`!;EPoJ,~>
X8`2!Jbdjl!;ihsJ,~>
X8`2!Jc"!p!;rntJ,~>
X8`1uJb.F`!;EPoJ,~>
X8`2!Jbdjl!;ihsJ,~>
X8`2!Jc"!p!;rntJ,~>
X8`1uJb.F`!;EPoJ,~>
X8`2!Jbdjl!;ihsJ,~>
X8`2!Jc"!p!;rntJ,~>
X8`1uJb.F`!;EPoJ,~>
X8`2!Jbdjl!;ihsJ,~>
X8`2!Jc"!p!;rntJ,~>
X8`1uJb.F`!;EPoJ,~>
X8`2!Jbdjl!;ihsJ,~>
X8`2!Jc"!p!;rntJ,~>
X8`1uJb.F`!;EPoJ,~>
X8`2!Jbdjl!;ihsJ,~>
X8`2!Jc"!p!;rntJ,~>
X8`1uJb.F`!;EPoJ,~>
X8`2!Jbdjl!;ihsJ,~>
X8`2!Jc"!p!;rntJ,~>
X8`1uJb.F`!;EPoJ,~>
X8`2!Jbdjl!;ihsJ,~>
X8`2!Jc"!p!;rntJ,~>
X8`1uJb.F`!;EPoJ,~>
X8`2!Jbdjl!;ihsJ,~>
X8`2!Jc"!p!;rntJ,~>
X8`1uJb.F`!;EPoJ,~>
X8`2!Jbdjl!;ihsJ,~>
X8`2!Jc"!p!;rntJ,~>
X8`1uJb.F`!;EPoJ,~>
X8`2!Jbdjl!;ihsJ,~>
X8`2!Jc"!p!;rntJ,~>
X8`1uJb.F`!;EPoJ,~>
X8`2!Jbdjl!;ihsJ,~>
X8`2!Jc"!p!;rntJ,~>
X8`1uJb.F`!;EPoJ,~>
X8`2!Jbdjl!;ihsJ,~>
X8`2!Jc"!p!;rntJ,~>
X8`1uJb.F`!;EPoJ,~>
X8`2!Jbdjl!;ihsJ,~>
X8`2!Jc"!p!;rntJ,~>
X8`1uJb.F`!;EPoJ,~>
X8`2!Jbdjl!;ihsJ,~>
X8`2!Jc"!p!;rntJ,~>
X8`1uJb.F`!;EPoJ,~>
X8`2!Jbdjl!;ihsJ,~>
X8`2!Jc"!p!;rntJ,~>
X8`1uJb.F`!;EPoJ,~>
X8`2!Jbdjl!;ihsJ,~>
X8`2!Jc"!p!;rntJ,~>
X8`1uJb.F`!;EPoJ,~>
X8`2!Jbdjl!;ihsJ,~>
X8`2!Jc"!p!;rntJ,~>
X8`1uJb.F`!;EPoJ,~>
X8`2!Jbdjl!;ihsJ,~>
X8`2!Jc"!p!;rntJ,~>
X8`1uJb.F`!;EPoJ,~>
X8`2!Jbdjl!;ihsJ,~>
X8`2!Jc"!p!;rntJ,~>
X8`1uJb.F`!;EPoJ,~>
X8`2!Jbdjl!;ihsJ,~>
X8`2!Jc"!p!;rntJ,~>
X8`1uJb.F`!;EPoJ,~>
X8`2!Jbdjl!;ihsJ,~>
X8`2!Jc"!p!;rntJ,~>
X8`1uJb.F`!;EPoJ,~>
X8`2!Jbdjl!;ihsJ,~>
X8`2!Jc"!p!;rntJ,~>
X8`1uJb.F`!;EPoJ,~>
X8`2!Jbdjl!;ihsJ,~>
X8`2!Jc"!p!;rntJ,~>
X8`1uJb.F`!;EPoJ,~>
X8`2!Jbdjl!;ihsJ,~>
X8`2!Jc"!p!;rntJ,~>
X8`1uJb.F`!;EPoJ,~>
X8`2!Jbdjl!;ihsJ,~>
X8`2!Jc"!p!;rntJ,~>
X8`1uJb.F`!;EPoJ,~>
X8`2!Jbdjl!;ihsJ,~>
X8`2!Jc"!p!;rntJ,~>
X8`1uJb.F`!;EPoJ,~>
X8`2!Jbdjl!;ihsJ,~>
X8`2!Jc"!p!;rntJ,~>
X8`1uJb.F`!;EPoJ,~>
X8`2!Jbdjl!;ihsJ,~>
X8`2!Jc"!p!;rntJ,~>
X8`1uJb.F`!;EPoJ,~>
X8`2!Jbdjl!;ihsJ,~>
X8`2!Jc"!p!;rntJ,~>
X8`1uJb.F`!;EPoJ,~>
X8`2!Jbdjl!;ihsJ,~>
X8`2!Jc"!p!;rntJ,~>
X8`1uJb.F`!;EPoJ,~>
X8`2!Jbdjl!;ihsJ,~>
X8`2!Jc"!p!;rntJ,~>
X8`1uJb.F`!;EPoJ,~>
X8`2!Jbdjl!;ihsJ,~>
X8`2!Jc"!p!;rntJ,~>
X8`1uJb.F`!;EPoJ,~>
X8`2!Jbdjl!;ihsJ,~>
X8`2!Jc"!p!;rntJ,~>
X8`1uJb.F`!;EPoJ,~>
X8`2!Jbdjl!;ihsJ,~>
X8`2!Jc"!p!;rntJ,~>
X8`1uJb.F`!;EPoJ,~>
X8`2!Jbdjl!;ihsJ,~>
X8`2!Jc"!p!;rntJ,~>
X8`1uJb.F`!;EPoJ,~>
X8`2!Jbdjl!;ihsJ,~>
X8`2!Jc"!p!;rntJ,~>
X8`1uJb.F`!;EPoJ,~>
X8`2!Jbdjl!;ihsJ,~>
X8`2!Jc"!p!;rntJ,~>
X8`1uJb.F`!;EPoJ,~>
X8`2!Jbdjl!;ihsJ,~>
X8`2!Jc"!p!;rntJ,~>
X8`1uJb.F`!;EPoJ,~>
X8`2!Jbdjl!;ihsJ,~>
X8`2!Jc"!p!;rntJ,~>
X8`1uJb.F`!;EPoJ,~>
X8`2!Jbdjl!;ihsJ,~>
X8`2!Jc"!p!;rntJ,~>
X8`1uJb.F`!;EPoJ,~>
X8`2!Jbdjl!;ihsJ,~>
X8`2!Jc"!p!;rntJ,~>
X8`1uJb.F`!;EPoJ,~>
X8`2!Jbdjl!;ihsJ,~>
X8`2!Jc"!p!;rntJ,~>
X8`1uJb.F`!;EPoJ,~>
X8`2!Jbdjl!;ihsJ,~>
X8`2!Jc"!p!;rntJ,~>
X8`1uJb.F`!;EPoJ,~>
X8`2!Jbdjl!;ihsJ,~>
X8`2!Jc"!p!;rntJ,~>
X8`1uJb.F`!;EPoJ,~>
X8`2!Jbdjl!;ihsJ,~>
X8`2!Jc"!p!;rntJ,~>
X8`1uJb.F`!;EPoJ,~>
X8`2!Jbdjl!;ihsJ,~>
X8`2!Jc"!p!;rntJ,~>
X8`1uJb.F`!;EPoJ,~>
X8`2!Jbdjl!;ihsJ,~>
X8`2!Jc"!p!;rntJ,~>
X8`1uJb.F`!;EPoJ,~>
X8`2!Jbdjl!;ihsJ,~>
X8`2!Jc"!p!;rntJ,~>
X8`1uJb.F`!;EPoJ,~>
X8`2!Jbdjl!;ihsJ,~>
X8`2!Jc"!p!;rntJ,~>
X8`1uJb.F`!;EPoJ,~>
X8`2!Jbdjl!;ihsJ,~>
X8`2!Jc"!p!;rntJ,~>
X8`1uJb.F`!;EPoJ,~>
X8`2!Jbdjl!;ihsJ,~>
X8`2!Jc"!p!;rntJ,~>
X8`1uJb.F`!;EPoJ,~>
X8`2!Jbdjl!;ihsJ,~>
X8`2!Jc"!p!;rntJ,~>
X8`1uJb.F`!;EPoJ,~>
X8`2!Jbdjl!;ihsJ,~>
X8`2!Jc"!p!;rntJ,~>
X8`1uJb.F`!;EPoJ,~>
X8`2!Jbdjl!;ihsJ,~>
X8`2!Jc"!p!;rntJ,~>
X8`1uJb.F`!;EPoJ,~>
X8`2!Jbdjl!;ihsJ,~>
X8`2!Jc"!p!;rntJ,~>
X8`1uJb.F`!;EPoJ,~>
X8`2!Jbdjl!;ihsJ,~>
X8`2!Jc"!p!;rntJ,~>
X8`1uJb.F`!;EPoJ,~>
X8`2!Jbdjl!;ihsJ,~>
X8`2!Jc"!p!;rntJ,~>
X8`1uJb.F`!;EPoJ,~>
X8`2!Jbdjl!;ihsJ,~>
X8`2!Jc"!p!;rntJ,~>
X8`1uJb.F`!;EPoJ,~>
X8`2!Jbdjl!;ihsJ,~>
X8`2!Jc"!p!;rntJ,~>
X8`1uJb.F`!;EPoJ,~>
X8`2!Jbdjl!;ihsJ,~>
X8`2!Jc"!p!;rntJ,~>
X8`1uJb.F`!;EPoJ,~>
X8`2!Jbdjl!;ihsJ,~>
X8`2!Jc"!p!;rntJ,~>
X8`1uJb.F`!;EPoJ,~>
X8`2!Jbdjl!;ihsJ,~>
X8`2!Jc"!p!;rntJ,~>
X8`1uJb.F`!;EPoJ,~>
X8`2!Jbdjl!;ihsJ,~>
X8`2!Jc"!p!;rntJ,~>
X8`1uJb.F`!;EPoJ,~>
X8`2!Jbdjl!;ihsJ,~>
X8`2!Jc"!p!;rntJ,~>
X8`1uJb.F`!;EPoJ,~>
X8`2!Jbdjl!;ihsJ,~>
X8`2!Jc"!p!;rntJ,~>
X8`1uJb.F`!;EPoJ,~>
X8`2!Jbdjl!;ihsJ,~>
X8`2!Jc"!p!;rntJ,~>
X8`1uJb.F`!;EPoJ,~>
X8`2!Jbdjl!;ihsJ,~>
X8`2!Jc"!p!;rntJ,~>
X8`1uJb.F`!;EPoJ,~>
X8`2!Jbdjl!;ihsJ,~>
X8`2!Jc"!p!;rntJ,~>
X8`1uJb.F`!;EPoJ,~>
X8`2!Jbdjl!;ihsJ,~>
X8`2!Jc"!p!;rntJ,~>
X8`1uJb.F`!;EPoJ,~>
X8`2!Jbdjl!;ihsJ,~>
X8`2!Jc"!p!;rntJ,~>
X8`1uJb.F`!;EPoJ,~>
X8`2!Jbdjl!;ihsJ,~>
X8`2!Jc"!p!;rntJ,~>
X8`1uJb.F`!;EPoJ,~>
X8`2!Jbdjl!;ihsJ,~>
X8`2!Jc"!p!;rntJ,~>
X8`1uJb.F`!;EPoJ,~>
X8`2!Jbdjl!;ihsJ,~>
X8`2!Jc"!p!;rntJ,~>
X8`1uJb.F`!;EPoJ,~>
X8`2!Jbdjl!;ihsJ,~>
X8`2!Jc"!p!;rntJ,~>
X8`1uJb.F`!;EPoJ,~>
X8`2!Jbdjl!;ihsJ,~>
X8`2!Jc"!p!;rntJ,~>
X8`1uJb.F`!;EPoJ,~>
X8`2!Jbdjl!;ihsJ,~>
X8`2!Jc"!p!;rntJ,~>
X8`1uJb.F`!;EPoJ,~>
X8`2!Jbdjl!;ihsJ,~>
X8`2!Jc"!p!;rntJ,~>
X8`1uJb.F`!;EPoJ,~>
X8`2!Jbdjl!;ihsJ,~>
X8`2!Jc"!p!;rntJ,~>
X8`1uJb.F`!;EPoJ,~>
X8`2!Jbdjl!;ihsJ,~>
X8`2!Jc"!p!;rntJ,~>
X8`1uJb.F`!;EPoJ,~>
X8`2!Jbdjl!;ihsJ,~>
X8`2!Jc"!p!;rntJ,~>
X8`1uJb.F`!;EPoJ,~>
X8`2!Jbdjl!;ihsJ,~>
X8`2!Jc"!p!;rntJ,~>
X8`1uJb.F`!;EPoJ,~>
X8`2!Jbdjl!;ihsJ,~>
X8`2!Jc"!p!;rntJ,~>
X8`1uJb.F`!;EPoJ,~>
X8`2!Jbdjl!;ihsJ,~>
X8`2!Jc"!p!;rntJ,~>
X8`1uJb.F`!;EPoJ,~>
X8`2!Jbdjl!;ihsJ,~>
X8`2!Jc"!p!;rntJ,~>
X8`1uJb.F`!;EPoJ,~>
X8`2!Jbdjl!;ihsJ,~>
X8`2!Jc"!p!;rntJ,~>
X8`1uJb.F`!;EPoJ,~>
X8`2!Jbdjl!;ihsJ,~>
X8`2!Jc"!p!;rntJ,~>
X8`1uJb.F`!;EPoJ,~>
X8`2!Jbdjl!;ihsJ,~>
X8`2!Jc"!p!;rntJ,~>
X8`1uJb.F`!;EPoJ,~>
X8`2!Jbdjl!;ihsJ,~>
X8`2!Jc"!p!;rntJ,~>
X8`1uJb.F`!;EPoJ,~>
X8`2!Jbdjl!;ihsJ,~>
X8`2!Jc"!p!;rntJ,~>
X8`1uJb.F`!;EPoJ,~>
X8`2!Jbdjl!;ihsJ,~>
X8`2!Jc"!p!;rntJ,~>
X8`1uJb.F`!;EPoJ,~>
X8`2!Jbdjl!;ihsJ,~>
X8`2!Jc"!p!;rntJ,~>
X8`1uJb.F`!;EPoJ,~>
X8`2!Jbdjl!;ihsJ,~>
X8`2!Jc"!p!;rntJ,~>
X8`1uJb.F`!;EPoJ,~>
X8`2!Jbdjl!;ihsJ,~>
X8`2!Jc"!p!;rntJ,~>
X8`1uJb.F`!;EPoJ,~>
X8`2!Jbdjl!;ihsJ,~>
X8`2!Jc"!p!;rntJ,~>
X8`1uJb.F`!;EPoJ,~>
X8`2!Jbdjl!;ihsJ,~>
X8`2!Jc"!p!;rntJ,~>
X8`1uJb.F`!;EPoJ,~>
X8`2!Jbdjl!;ihsJ,~>
X8`2!Jc"!p!;rntJ,~>
X8`1uJb.F`!;EPoJ,~>
X8`2!Jbdjl!;ihsJ,~>
X8`2!Jc"!p!;rntJ,~>
X8`1uJb.F`!;EPoJ,~>
X8`2!Jbdjl!;ihsJ,~>
X8`2!Jc"!p!;rntJ,~>
X8`1uJb.F`!;EPoJ,~>
X8`2!Jbdjl!;ihsJ,~>
X8`2!Jc"!p!;rntJ,~>
X8`1uJb.F`!;EPoJ,~>
X8`2!Jbdjl!;ihsJ,~>
X8`2!Jc"!p!;rntJ,~>
X8`1uJb.F`!;EPoJ,~>
X8`2!Jbdjl!;ihsJ,~>
X8`2!Jc"!p!;rntJ,~>
X8`1uJb.F`!;EPoJ,~>
X8`2!Jbdjl!;ihsJ,~>
X8`2!Jc"!p!;rntJ,~>
X8`1uJb.F`!;EPoJ,~>
X8`2!Jbdjl!;ihsJ,~>
X8`2!Jc"!p!;rntJ,~>
X8`1uJb.F`!;EPoJ,~>
X8`2!Jbdjl!;ihsJ,~>
X8`2!Jc"!p!;rntJ,~>
X8`1uJb.F`!;EPoJ,~>
X8`2!Jbdjl!;ihsJ,~>
X8`2!Jc"!p!;rntJ,~>
X8`1uJb.F`!;EPoJ,~>
X8`2!Jbdjl!;ihsJ,~>
X8`2!Jc"!p!;rntJ,~>
X8`1uJb.F`!;EPoJ,~>
X8`2!Jbdjl!;ihsJ,~>
X8`2!Jc"!p!;rntJ,~>
X8`1uJb.F`!;EPoJ,~>
X8`2!Jbdjl!;ihsJ,~>
X8`2!Jc"!p!;rntJ,~>
X8`1uJb.F`!;EPoJ,~>
X8`2!Jbdjl!;ihsJ,~>
X8`2!Jc"!p!;rntJ,~>
X8`1uJb.F`!;EPoJ,~>
X8`2!Jbdjl!;ihsJ,~>
X8`2!Jc"!p!;rntJ,~>
X8`1uJb.F`!;EPoJ,~>
X8`2!Jbdjl!;ihsJ,~>
X8`2!Jc"!p!;rntJ,~>
X8`1uJb.F`!;EPoJ,~>
X8`2!Jbdjl!;ihsJ,~>
X8`2!Jc"!p!;rntJ,~>
X8`1uJb.F`!;EPoJ,~>
X8`2!Jbdjl!;ihsJ,~>
X8`2!Jc"!p!;rntJ,~>
X8`1uJb.F`!;EPoJ,~>
X8`2!Jbdjl!;ihsJ,~>
X8`2!Jc"!p!;rntJ,~>
X8`1uJb.F`!;EPoJ,~>
X8`2!Jbdjl!;ihsJ,~>
X8`2!Jc"!p!;rntJ,~>
X8`1uJb.F`!;EPoJ,~>
X8`2!Jbdjl!;ihsJ,~>
X8`2!Jc"!p!;rntJ,~>
X8`1uJb.F`!;EPoJ,~>
X8`2!Jbdjl!;ihsJ,~>
X8`2!Jc"!p!;rntJ,~>
X8`1uJb.F`!;EPoJ,~>
X8`2!Jbdjl!;ihsJ,~>
X8`2!Jc"!p!;rntJ,~>
X8`1uJb.F`!;EPoJ,~>
X8`2!Jbdjl!;ihsJ,~>
X8`2!Jc"!p!;rntJ,~>
X8`1uJb.F`!;EPoJ,~>
X8`2!Jbdjl!;ihsJ,~>
X8`2!Jc"!p!;rntJ,~>
X8`1uJb.F`!;EPoJ,~>
X8`2!Jbdjl!;ihsJ,~>
X8`2!Jc"!p!;rntJ,~>
X8`1uJb.F`!;EPoJ,~>
X8`2!Jbdjl!;ihsJ,~>
X8`2!Jc"!p!;rntJ,~>
X8`1uJb.F`!;EPoJ,~>
X8`2!Jbdjl!;ihsJ,~>
X8`2!Jc"!p!;rntJ,~>
X8`1uJb.F`!;EPoJ,~>
X8`2!Jbdjl!;ihsJ,~>
X8`2!Jc"!p!;rntJ,~>
X8`1uJb.F`!;EPoJ,~>
X8`2!Jbdjl!;ihsJ,~>
X8`2!Jc"!p!;rntJ,~>
X8`1uJb.F`!;EPoJ,~>
X8`2!Jbdjl!;ihsJ,~>
X8`2!Jc"!p!;rntJ,~>
X8`1uJb.F`!;EPoJ,~>
X8`2!Jbdjl!;ihsJ,~>
X8`2!Jc"!p!;rntJ,~>
X8`1uJb.F`!;EPoJ,~>
X8`2!Jbdjl!;ihsJ,~>
X8`2!Jc"!p!;rntJ,~>
X8`1uJb.F`!;EPoJ,~>
X8`2!Jbdjl!;ihsJ,~>
X8`2!Jc"!p!;rntJ,~>
X8`1uJb.F`!;EPoJ,~>
X8`2!Jbdjl!;ihsJ,~>
X8`2!Jc"!p!;rntJ,~>
X8`1uJb.F`!;EPoJ,~>
X8`2!Jbdjl!;ihsJ,~>
X8`2!Jc"!p!;rntJ,~>
X8`1uJb.F`!;EPoJ,~>
X8`2!Jbdjl!;ihsJ,~>
X8`2!Jc"!p!;rntJ,~>
X8`1uJb.F`!;EPoJ,~>
X8`2!Jbdjl!;ihsJ,~>
X8`2!Jc"!p!;rntJ,~>
X8`1uJb.F`!;EPoJ,~>
X8`2!Jbdjl!;ihsJ,~>
X8`2!Jc"!p!;rntJ,~>
X8`1uJb.F`!;EPoJ,~>
X8`2!Jbdjl!;ihsJ,~>
X8`2!Jc"!p!;rntJ,~>
X8`1uJb.F`!;EPoJ,~>
X8`2!Jbdjl!;ihsJ,~>
X8`2!Jc"!p!;rntJ,~>
X8`1uJb.F`!;EPoJ,~>
X8`2!Jbdjl!;ihsJ,~>
X8`2!Jc"!p!;rntJ,~>
X8`1uJb.F`!;EPoJ,~>
X8`2!Jbdjl!;ihsJ,~>
X8`2!Jc"!p!;rntJ,~>
X8`1uJb.F`!;EPoJ,~>
X8`2!Jbdjl!;ihsJ,~>
X8`2!Jc"!p!;rntJ,~>
X8`1uJb.F`!;EPoJ,~>
X8`2!Jbdjl!;ihsJ,~>
X8`2!Jc"!p!;rntJ,~>
X8`1uJb.F`!;EPoJ,~>
X8`2!Jbdjl!;ihsJ,~>
X8`2!Jc"!p!;rntJ,~>
X8`1uJb.F`!;EPoJ,~>
X8`2!Jbdjl!;ihsJ,~>
X8`2!Jc"!p!;rntJ,~>
X8`1uJb.F`!;EPoJ,~>
X8`2!Jbdjl!;ihsJ,~>
X8`2!Jc"!p!;rntJ,~>
X8`1uJb.F`!;EPoJ,~>
X8`2!Jbdjl!;ihsJ,~>
X8`2!Jc"!p!;rntJ,~>
X8`1uJb.F`!;EPoJ,~>
X8`2!Jbdjl!;ihsJ,~>
X8`2!Jc"!p!;rntJ,~>
X8`1uJb.F`!;EPoJ,~>
X8`2!Jbdjl!;ihsJ,~>
X8`2!Jc"!p!;rntJ,~>
X8`1uJb.F`!;EPoJ,~>
X8`2!Jbdjl!;ihsJ,~>
X8`2!Jc"!p!;rntJ,~>
X8`1uJb.F`!;EPoJ,~>
X8`2!Jbdjl!;ihsJ,~>
X8`2!Jc"!p!;rntJ,~>
X8`1uJb.F`!;EPoJ,~>
X8`2!Jbdjl!;ihsJ,~>
X8`2!Jc"!p!;rntJ,~>
X8`1uJb.F`!;EPoJ,~>
X8`2!Jbdjl!;ihsJ,~>
X8`2!Jc"!p!;rntJ,~>
X8`1uJb.F`!;EPoJ,~>
X8`2!Jbdjl!;ihsJ,~>
X8`2!Jc"!p!;rntJ,~>
X8`1uJb.F`!;EPoJ,~>
X8`2!Jbdjl!;ihsJ,~>
X8`2!Jc"!p!;rntJ,~>
X8`1uJb.F`!;EPoJ,~>
X8`2!Jbdjl!;ihsJ,~>
X8`2!Jc"!p!;rntJ,~>
X8`1uJb.F`!;EPoJ,~>
X8`2!Jbdjl!;ihsJ,~>
X8`2!Jc"!p!;rntJ,~>
X8`1uJb.F`!;EPoJ,~>
X8`2!Jbdjl!;ihsJ,~>
X8`2!Jc"!p!;rntJ,~>
X8`1uJb.F`!;EPoJ,~>
X8`2!Jbdjl!;ihsJ,~>
X8`2!Jc"!p!;rntJ,~>
X8`1uJb.F`!;EPoJ,~>
X8`2!Jbdjl!;ihsJ,~>
X8`2!Jc"!p!;rntJ,~>
X8`1uJb.F`!;EPoJ,~>
X8`2!Jbdjl!;ihsJ,~>
X8`2!Jc"!p!;rntJ,~>
X8`1uJb.F`!;EPoJ,~>
X8`2!Jbdjl!;ihsJ,~>
X8`2!Jc"!p!;rntJ,~>
X8`1uJb.F`!;EPoJ,~>
X8`2!Jbdjl!;ihsJ,~>
X8`2!Jc"!p!;rntJ,~>
X8`1uJb.F`!;EPoJ,~>
X8`2!Jbdjl!;ihsJ,~>
X8`2!Jc"!p!;rntJ,~>
X8`1uJb.F`!;EPoJ,~>
X8`2!Jbdjl!;ihsJ,~>
X8`2!Jc"!p!;rntJ,~>
X8`1uJb.F`!;EPoJ,~>
X8`2!Jbdjl!;ihsJ,~>
X8`2!Jc"!p!;rntJ,~>
X8`1uJb.F`!;EPoJ,~>
X8`2!Jbdjl!;ihsJ,~>
X8`2!Jc"!p!;rntJ,~>
X8`1uJb.F`!;EPoJ,~>
X8`2!Jbdjl!;ihsJ,~>
X8`2!Jc"!p!;rntJ,~>
X8`1uJb.F`!;EPoJ,~>
X8`2!Jbdjl!;ihsJ,~>
X8`2!Jc"!p!;rntJ,~>
X8`1uJb.F`!;EPoJ,~>
X8`2!Jbdjl!;ihsJ,~>
X8`2!Jc"!p!;rntJ,~>
X8`1uJb.F`!;EPoJ,~>
X8`2!Jbdjl!;ihsJ,~>
X8`2!Jc"!p!;rntJ,~>
X8`1uJb.F`!;EPoJ,~>
X8`2!Jbdjl!;ihsJ,~>
X8`2!Jc"!p!;rntJ,~>
X8`1uJb.F`!;EPoJ,~>
X8`2!Jbdjl!;ihsJ,~>
X8`2!Jc"!p!;rntJ,~>
X8`1uJb.F`!;EPoJ,~>
X8`2!Jbdjl!;ihsJ,~>
X8`2!Jc"!p!;rntJ,~>
X8`1uJb.F`!;EPoJ,~>
X8`2!Jbdjl!;ihsJ,~>
X8`2!Jc"!p!;rntJ,~>
X8`1uJb.F`!;EPoJ,~>
X8`2!Jbdjl!;ihsJ,~>
X8`2!Jc"!p!;rntJ,~>
X8`1uJb.F`!;EPoJ,~>
X8`2!Jbdjl!;ihsJ,~>
X8`2!Jc"!p!;rntJ,~>
X8`1uJb.F`!;EPoJ,~>
X8`2!Jbdjl!;ihsJ,~>
X8`2!Jc"!p!;rntJ,~>
X8`1uJb.F`!;EPoJ,~>
X8`2!Jbdjl!;ihsJ,~>
X8`2!Jc"!p!;rntJ,~>
X8`1uJb.F`!;EPoJ,~>
X8`2!Jbdjl!;ihsJ,~>
X8`2!Jc"!p!;rntJ,~>
X8`1uJb.F`!;EPoJ,~>
X8`2!Jbdjl!;ihsJ,~>
X8`2!Jc"!p!;rntJ,~>
X8`1uJb.F`!;EPoJ,~>
X8`2!Jbdjl!;ihsJ,~>
X8`2!Jc"!p!;rntJ,~>
X8`1uJb.F`!;EPoJ,~>
X8`2!Jbdjl!;ihsJ,~>
X8`2!Jc"!p!;rntJ,~>
X8`1uJb.F`!;EPoJ,~>
X8`2!Jbdjl!;ihsJ,~>
X8`2!Jc"!p!;rntJ,~>
X8`1uJb.F`!;EPoJ,~>
X8`2!Jbdjl!;ihsJ,~>
X8`2!Jc"!p!;rntJ,~>
X8`1uJb.F`!;EPoJ,~>
X8`2!Jbdjl!;ihsJ,~>
X8`2!Jc"!p!;rntJ,~>
X8`1uJb.F`!;EPoJ,~>
X8`2!Jbdjl!;ihsJ,~>
X8`2!Jc"!p!;rntJ,~>
X8`1uJb.F`!;EPoJ,~>
X8`2!Jbdjl!;ihsJ,~>
X8`2!Jc"!p!;rntJ,~>
X8`1uJb.F`!;EPoJ,~>
X8`2!Jbdjl!;ihsJ,~>
X8`2!Jc"!p!;rntJ,~>
X8`1uJb.F`!;EPoJ,~>
X8`2!Jbdjl!;ihsJ,~>
X8`2!Jc"!p!;rntJ,~>
X8`1uJb.F`!;EPoJ,~>
X8`2!Jbdjl!;ihsJ,~>
X8`2!Jc"!p!;rntJ,~>
X8`1uJb.F`!;EPoJ,~>
X8`2!Jbdjl!;ihsJ,~>
X8`2!Jc"!p!;rntJ,~>
X8`1uJb.F`!;EPoJ,~>
X8`2!Jbdjl!;ihsJ,~>
X8`2!Jc"!p!;rntJ,~>
X8`1uJb.F`!;EPoJ,~>
X8`2!Jbdjl!;ihsJ,~>
X8`2!Jc"!p!;rntJ,~>
X8`1uJb.F`!;EPoJ,~>
X8`2!Jbdjl!;ihsJ,~>
X8`2!Jc"!p!;rntJ,~>
X8`1uJb.F`!;EPoJ,~>
X8`2!Jbdjl!;ihsJ,~>
X8`2!Jc"!p!;rntJ,~>
X8`1uJb.F`!;EPoJ,~>
X8`2!Jbdjl!;ihsJ,~>
X8`2!Jc"!p!;rntJ,~>
X8`1uJb.F`!;EPoJ,~>
X8`2!Jbdjl!;ihsJ,~>
X8`2!Jc"!p!;rntJ,~>
X8`1uJb.F`!;EPoJ,~>
X8`2!Jbdjl!;ihsJ,~>
X8`2!Jc"!p!;rntJ,~>
X8`1uJb.F`!;EPoJ,~>
X8`2!Jbdjl!;ihsJ,~>
X8`2!Jc"!p!;rntJ,~>
X8`1uJb.F`!;EPoJ,~>
X8`2!Jbdjl!;ihsJ,~>
X8`2!Jc"!p!;rntJ,~>
X8`1uJb.F`!;EPoJ,~>
X8`2!Jbdjl!;ihsJ,~>
X8`2!Jc"!p!;rntJ,~>
X8`1uJb.F`!;EPoJ,~>
X8`2!Jbdjl!;ihsJ,~>
X8`2!Jc"!p!;rntJ,~>
X8`1uJb.F`!;EPoJ,~>
X8`2!Jbdjl!;ihsJ,~>
X8`2!Jc"!p!;rntJ,~>
X8`1uJb.F`!;EPoJ,~>
X8`2!Jbdjl!;ihsJ,~>
X8`2!Jc"!p!;rntJ,~>
X8`1uJb.F`!;EPoJ,~>
X8`2!Jbdjl!;ihsJ,~>
X8`2!Jc"!p!;rntJ,~>
X8`1uJb.F`!;EPoJ,~>
X8`2!Jbdjl!;ihsJ,~>
X8`2!Jc"!p!;rntJ,~>
X8`1uJb.F`!;EPoJ,~>
X8`2!Jbdjl!;ihsJ,~>
X8`2!Jc"!p!;rntJ,~>
X8`1uJb.F`!;EPoJ,~>
X8`2!Jbdjl!;ihsJ,~>
X8`2!Jc"!p!;rntJ,~>
X8`1uJb.F`!;EPoJ,~>
X8`2!Jbdjl!;ihsJ,~>
X8`2!Jc"!p!;rntJ,~>
X8`1uJb.F`!;EPoJ,~>
X8`2!Jbdjl!;ihsJ,~>
X8`2!Jc"!p!;rntJ,~>
X8`1uJb.F`!;EPoJ,~>
X8`2!Jbdjl!;ihsJ,~>
X8`2!Jc"!p!;rntJ,~>
X8`1uJb.F`!;EPoJ,~>
X8`2!Jbdjl!;ihsJ,~>
X8`2!Jc"!p!;rntJ,~>
X8`1uJb.F`!;EPoJ,~>
X8`2!Jbdjl!;ihsJ,~>
X8`2!Jc"!p!;rntJ,~>
X8`1uJb.F`!;EPoJ,~>
X8`2!Jbdjl!;ihsJ,~>
X8`2!Jc"!p!;rntJ,~>
X8`1uJb.F`!;EPoJ,~>
X8`2!Jbdjl!;ihsJ,~>
X8`2!Jc"!p!;rntJ,~>
X8`1uJb.F`!;EPoJ,~>
X8`2!Jbdjl!;ihsJ,~>
X8`2!Jc"!p!;rntJ,~>
X8`1uJb.F`!;EPoJ,~>
X8`2!Jbdjl!;ihsJ,~>
X8`2!Jc"!p!;rntJ,~>
X8`1uJb.F`!;EPoJ,~>
X8`2!Jbdjl!;ihsJ,~>
X8`2!Jc"!p!;rntJ,~>
X8`1uJb.F`!;EPoJ,~>
X8`2!Jbdjl!;ihsJ,~>
X8`2!Jc"!p!;rntJ,~>
X8`1uJb.F`!;EPoJ,~>
X8`2!Jbdjl!;ihsJ,~>
X8`2!Jc"!p!;rntJ,~>
X8`1uJb.F`!;EPoJ,~>
X8`2!Jbdjl!;ihsJ,~>
X8`2!Jc"!p!;rntJ,~>
X8`1uJb.F`!;EPoJ,~>
X8`2!Jbdjl!;ihsJ,~>
X8`2!Jc"!p!;rntJ,~>
X8`1uJb.F`!;EPoJ,~>
X8`2!Jbdjl!;ihsJ,~>
X8`2!Jc"!p!;rntJ,~>
X8`1uJb.F`!;EPoJ,~>
X8`2!Jbdjl!;ihsJ,~>
X8`2!Jc"!p!;rntJ,~>
X8`1uJb.F`!;EPoJ,~>
X8`2!Jbdjl!;ihsJ,~>
X8`2!Jc"!p!;rntJ,~>
X8`1uJb.F`!;EPoJ,~>
X8`2!Jbdjl!;ihsJ,~>
X8`2!Jc"!p!;rntJ,~>
X8`1uJb.F`!;EPoJ,~>
X8`2!Jbdjl!;ihsJ,~>
X8`2!Jc"!p!;rntJ,~>
X8`1uJb.F`!;EPoJ,~>
X8`2!Jbdjl!;ihsJ,~>
X8`2!Jc"!p!;rntJ,~>
X8`1uJb.F`!;EPoJ,~>
X8`2!Jbdjl!;ihsJ,~>
X8`2!Jc"!p!;rntJ,~>
X8`1uJb.F`!;EPoJ,~>
X8`2!Jbdjl!;ihsJ,~>
X8`2!Jc"!p!;rntJ,~>
X8`1uJb.F`!;EPoJ,~>
X8`2!Jbdjl!;ihsJ,~>
X8`2!Jc"!p!;rntJ,~>
X8`1uJb.F`!;EPoJ,~>
X8`2!Jbdjl!;ihsJ,~>
X8`2!Jc"!p!;rntJ,~>
X8`1uJb.F`!;EPoJ,~>
X8`2!Jbdjl!;ihsJ,~>
X8`2!Jc"!p!;rntJ,~>
X8`1uJb.F`!;EPoJ,~>
X8`2!Jbdjl!;ihsJ,~>
X8`2!Jc"!p!;rntJ,~>
X8`1uJb.F`!;EPoJ,~>
X8`2!Jbdjl!;ihsJ,~>
X8`2!Jc"!p!;rntJ,~>
X8`1uJb.F`!;EPoJ,~>
X8`2!Jbdjl!;ihsJ,~>
X8`2!Jc"!p!;rntJ,~>
X8`1uJb.F`!;EPoJ,~>
X8`2!Jbdjl!;ihsJ,~>
X8`2!Jc"!p!;rntJ,~>
X8`1uJb.F`!;EPoJ,~>
X8`2!Jbdjl!;ihsJ,~>
X8`2!Jc"!p!;rntJ,~>
X8`1uJb.F`!;EPoJ,~>
X8`2!Jbdjl!;ihsJ,~>
X8`2!Jc"!p!;rntJ,~>
X8`1uJb.F`!;EPoJ,~>
X8`2!Jbdjl!;ihsJ,~>
X8`2!Jc"!p!;rntJ,~>
X8`1uJb.F`!;EPoJ,~>
X8`2!Jbdjl!;ihsJ,~>
X8`2!Jc"!p!;rntJ,~>
X8`1uJb.F`!;EPoJ,~>
X8`2!Jbdjl!;ihsJ,~>
X8`2!Jc"!p!;rntJ,~>
X8`1uJb.F`!;EPoJ,~>
X8`2!Jbdjl!;ihsJ,~>
X8`2!Jc"!p!;rntJ,~>
X8`1uJb.F`!;EPoJ,~>
X8`2!Jbdjl!;ihsJ,~>
X8`2!Jc"!p!;rntJ,~>
X8`1uJb.F`!;EPoJ,~>
X8`2!Jbdjl!;ihsJ,~>
X8`2!Jc"!p!;rntJ,~>
X8`1uJb.F`!;EPoJ,~>
X8`2!Jbdjl!;ihsJ,~>
X8`2!Jc"!p!;rntJ,~>
X8`1uJb.F`!;EPoJ,~>
X8`2!Jbdjl!;ihsJ,~>
X8`2!Jc"!p!;rntJ,~>
X8`1uJb.F`!;EPoJ,~>
X8`2!Jbdjl!;ihsJ,~>
X8`2!Jc"!p!;rntJ,~>
X8`1uJb.F`!;EPoJ,~>
X8`2!Jbdjl!;ihsJ,~>
X8`2!Jc"!p!;rntJ,~>
X8`1uJb.F`!;EPoJ,~>
X8`2!Jbdjl!;ihsJ,~>
X8`2!Jc"!p!;rntJ,~>
X8`1uJb.F`!;EPoJ,~>
X8`2!Jbdjl!;ihsJ,~>
X8`2!Jc"!p!;rntJ,~>
X8`1uJb.F`!;EPoJ,~>
X8`2!Jbdjl!;ihsJ,~>
X8`2!Jc"!p!;rntJ,~>
X8`1uJb.F`!;EPoJ,~>
X8`2!Jbdjl!;ihsJ,~>
X8`2!Jc"!p!;rntJ,~>
X8`1uJb.F`!;EPoJ,~>
X8`2!Jbdjl!;ihsJ,~>
X8`2!Jc"!p!;rntJ,~>
X8`1uJb.F`!;EPoJ,~>
X8`2!Jbdjl!;ihsJ,~>
X8`2!Jc"!p!;rntJ,~>
X8`1uJb.F`!;EPoJ,~>
X8`2!Jbdjl!;ihsJ,~>
X8`2!Jc"!p!;rntJ,~>
X8`1uJb.F`!;EPoJ,~>
X8`2!Jbdjl!;ihsJ,~>
X8`2!Jc"!p!;rntJ,~>
X8`1uJb.F`!;EPoJ,~>
X8`2!Jbdjl!;ihsJ,~>
X8`2!Jc"!p!;rntJ,~>
X8`1uJb.F`!;EPoJ,~>
X8`2!Jbdjl!;ihsJ,~>
X8`2!Jc"!p!;rntJ,~>
X8`1uJb.F`!;EPoJ,~>
X8`2!Jbdjl!;ihsJ,~>
X8`2!Jc"!p!;rntJ,~>
X8`1uJb.F`!;EPoJ,~>
X8`2!Jbdjl!;ihsJ,~>
X8`2!Jc"!p!;rntJ,~>
X8`1uJb.F`!;EPoJ,~>
X8`2!Jbdjl!;ihsJ,~>
X8`2!Jc"!p!;rntJ,~>
X8`1uJb.F`!;EPoJ,~>
X8`2!Jbdjl!;ihsJ,~>
X8`2!Jc"!p!;rntJ,~>
X8`1uJb.F`!;EPoJ,~>
X8`2!Jbdjl!;ihsJ,~>
X8`2!Jc"!p!;rntJ,~>
X8`1uJb.F`!;EPoJ,~>
X8`2!Jbdjl!;ihsJ,~>
X8`2!Jc"!p!;rntJ,~>
X8`1uJb.F`!;EPoJ,~>
X8`2!Jbdjl!;ihsJ,~>
X8`2!Jc"!p!;rntJ,~>
X8`1uJb.F`!;EPoJ,~>
X8`2!Jbdjl!;ihsJ,~>
X8`2!Jc"!p!;rntJ,~>
X8`1uJb.F`!;EPoJ,~>
X8`2!Jbdjl!;ihsJ,~>
X8`2!Jc"!p!;rntJ,~>
X8`1uJb.F`!;EPoJ,~>
X8`2!Jbdjl!;ihsJ,~>
X8`2!Jc"!p!;rntJ,~>
X8`1uJb.F`!;EPoJ,~>
X8`2!Jbdjl!;ihsJ,~>
X8`2!Jc"!p!;rntJ,~>
X8`1uJb.F`!;EPoJ,~>
X8`2!Jbdjl!;ihsJ,~>
X8`2!Jc"!p!;rntJ,~>
X8`1uJb.F`!;EPoJ,~>
X8`2!Jbdjl!;ihsJ,~>
X8`2!Jc"!p!;rntJ,~>
X8`1uJb.F`!;EPoJ,~>
X8`2!Jbdjl!;ihsJ,~>
X8`2!Jc"!p!;rntJ,~>
X8`1uJb.F`!;EPoJ,~>
X8`2!Jbdjl!;ihsJ,~>
X8`2!Jc"!p!;rntJ,~>
X8`1uJb.F`!;EPoJ,~>
X8`2!Jbdjl!;ihsJ,~>
X8`2!Jc"!p!;rntJ,~>
X8`1uJb.F`!;EPoJ,~>
X8`2!Jbdjl!;ihsJ,~>
X8`2!Jc"!p!;rntJ,~>
X8`1uJb.F`!;EPoJ,~>
X8`2!Jbdjl!;ihsJ,~>
X8`2!Jc"!p!;rntJ,~>
X8`1uJb.F`!;EPoJ,~>
X8`2!Jbdjl!;ihsJ,~>
X8`2!Jc"!p!;rntJ,~>
X8`1uJb.F`!;EPoJ,~>
X8`2!Jbdjl!;ihsJ,~>
X8`2!Jc"!p!;rntJ,~>
X8`1uJb.F`!;EPoJ,~>
X8`2!Jbdjl!;ihsJ,~>
X8`2!Jc"!p!;rntJ,~>
X8`1uJb.F`!;EPoJ,~>
X8`2!Jbdjl!;ihsJ,~>
X8`2!Jc"!p!;rntJ,~>
X8`1uJb.F`!;EPoJ,~>
X8`2!Jbdjl!;ihsJ,~>
X8`2!Jc"!p!;rntJ,~>
X8`1uJb.F`!;EPoJ,~>
X8`2!Jbdjl!;ihsJ,~>
X8`2!Jc"!p!;rntJ,~>
X8`1uJb.F`!;EPoJ,~>
X8`2!Jbdjl!;ihsJ,~>
X8`2!Jc"!p!;rntJ,~>
X8`1uJb.F`!;EPoJ,~>
X8`2!Jbdjl!;ihsJ,~>
X8`2!Jc"!p!;rntJ,~>
X8`1uJb.F`!;EPoJ,~>
X8`2!Jbdjl!;ihsJ,~>
X8`2!Jc"!p!;rntJ,~>
X8`1uJb.F`!;EPoJ,~>
X8`2!Jbdjl!;ihsJ,~>
X8`2!Jc"!p!;rntJ,~>
X8`1uJb.F`!;EPoJ,~>
X8`2!Jbdjl!;ihsJ,~>
X8`2!Jc"!p!;rntJ,~>
X8`1uJb.F`!;EPoJ,~>
X8`2!Jbdjl!;ihsJ,~>
X8`2!Jc"!p!;rntJ,~>
X8`1uJb.F`!;EPoJ,~>
X8`2!Jbdjl!;ihsJ,~>
X8`2!Jc"!p!;rntJ,~>
X8`1uJb.F`!;EPoJ,~>
X8`2!Jbdjl!;ihsJ,~>
X8`2!Jc"!p!;rntJ,~>
X8`1uJb.F`!;EPoJ,~>
X8`2!Jbdjl!;ihsJ,~>
X8`2!Jc"!p!;rntJ,~>
X8`1uJb.F`!;EPoJ,~>
X8`2!Jbdjl!;ihsJ,~>
X8`2!Jc"!p!;rntJ,~>
X8`1uJb.F`!;EPoJ,~>
X8`2!Jbdjl!;ihsJ,~>
X8`2!Jc"!p!;rntJ,~>
X8`1uJb.F`!;EPoJ,~>
X8`2!Jbdjl!;ihsJ,~>
X8`2!Jc"!p!;rntJ,~>
X8`1uJb.F`!;EPoJ,~>
X8`2!Jbdjl!;ihsJ,~>
X8`2!Jc"!p!;rntJ,~>
X8`1uJb.F`!;EPoJ,~>
X8`2!Jbdjl!;ihsJ,~>
X8`2!Jc"!p!;rntJ,~>
X8`1uJb.F`!;EPoJ,~>
X8`2!Jbdjl!;ihsJ,~>
X8`2!Jc"!p!;rntJ,~>
X8`1uJb.F`!;EPoJ,~>
X8`2!Jbdjl!;ihsJ,~>
X8`2!Jc"!p!;rntJ,~>
X8`1uJb.F`!;EPoJ,~>
X8`2!Jbdjl!;ihsJ,~>
X8`2!Jc"!p!;rntJ,~>
X8`1uJb.F`!;EPoJ,~>
X8`2!Jbdjl!;ihsJ,~>
X8`2!Jc"!p!;rntJ,~>
X8`1uJb.F`!;EPoJ,~>
X8`2!Jbdjl!;ihsJ,~>
X8`2!Jc"!p!;rntJ,~>
X8`1uJb.F`!;EPoJ,~>
X8`2!Jbdjl!;ihsJ,~>
X8`2!Jc"!p!;rntJ,~>
X8`1uJb.F`!;EPoJ,~>
X8`2!Jbdjl!;ihsJ,~>
X8`2!Jc"!p!;rntJ,~>
X8`1uJb.F`!;EPoJ,~>
X8`2!Jbdjl!;ihsJ,~>
X8`2!Jc"!p!;rntJ,~>
X8`1uJb.F`!;EPoJ,~>
X8`2!Jbdjl!;ihsJ,~>
X8`2!Jc"!p!;rntJ,~>
X8`1uJb.F`!;EPoJ,~>
X8`2!Jbdjl!;ihsJ,~>
X8`2!Jc"!p!;rntJ,~>
X8`1uJb.F`!;EPoJ,~>
X8`2!Jbdjl!;ihsJ,~>
X8`2!Jc"!p!;rntJ,~>
X8`1uJb.F`!;EPoJ,~>
X8`2!Jbdjl!;ihsJ,~>
X8`2!Jc"!p!;rntJ,~>
X8`1uJb.F`!;EPoJ,~>
X8`2!Jbdjl!;ihsJ,~>
X8`2!Jc"!p!;rntJ,~>
X8`1uJb.F`!;EPoJ,~>
X8`2!Jbdjl!;ihsJ,~>
X8`2!Jc"!p!;rntJ,~>
X8`1uJb.F`!;EPoJ,~>
X8`2!Jbdjl!;ihsJ,~>
X8`2!Jc"!p!;rntJ,~>
X8`1uJb.F`!;EPoJ,~>
X8`2!Jbdjl!;ihsJ,~>
X8`2!Jc"!p!;rntJ,~>
X8`1uJb.F`!;EPoJ,~>
X8`2!Jbdjl!;ihsJ,~>
X8`2!Jc"!p!;rntJ,~>
X8`1uJb.F`!;EPoJ,~>
X8`2!Jbdjl!;ihsJ,~>
X8`2!Jc"!p!;rntJ,~>
X8`1uJb.F`!;EPoJ,~>
X8`2!Jbdjl!;ihsJ,~>
X8`2!Jc"!p!;rntJ,~>
X8`1uJb.F`!;EPoJ,~>
X8`2!Jbdjl!;ihsJ,~>
X8`2!Jc"!p!;rntJ,~>
X8`1uJb.F`!;EPoJ,~>
X8`2!Jbdjl!;ihsJ,~>
X8`2!Jc"!p!;rntJ,~>
X8`1uJb.F`!;EPoJ,~>
X8`2!Jbdjl!;ihsJ,~>
X8`2!Jc"!p!;rntJ,~>
X8`1uJb.F`!;EPoJ,~>
X8`2!Jbdjl!;ihsJ,~>
X8`2!Jc"!p!;rntJ,~>
X8`1uJb.F`!;EPoJ,~>
X8`2!Jbdjl!;ihsJ,~>
X8`2!Jc"!p!;rntJ,~>
X8`1uJb.F`!;EPoJ,~>
X8`2!Jbdjl!;ihsJ,~>
X8`2!Jc"!p!;rntJ,~>
X8`1uJb.F`!;EPoJ,~>
X8`2!Jbdjl!;ihsJ,~>
X8`2!Jc"!p!;rntJ,~>
X8`1uJb.F`!;EPoJ,~>
X8`2!Jbdjl!;ihsJ,~>
X8`2!Jc"!p!;rntJ,~>
X8`1uJb.F`!;EPoJ,~>
X8`2!Jbdjl!;ihsJ,~>
X8`2!Jc"!p!;rntJ,~>
X8`1uJb.F`!;EPoJ,~>
X8`2!Jbdjl!;ihsJ,~>
X8`2!Jc"!p!;rntJ,~>
X8`1uJb.F`!;EPoJ,~>
X8`2!Jbdjl!;ihsJ,~>
X8`2!Jc"!p!;rntJ,~>
X8`1uJb.F`!;EPoJ,~>
X8`2!Jbdjl!;ihsJ,~>
X8`2!Jc"!p!;rntJ,~>
X8`1uJb.F`!;EPoJ,~>
X8`2!Jbdjl!;ihsJ,~>
X8`2!Jc"!p!;rntJ,~>
X8`1uJb.F`!;EPoJ,~>
X8`2!Jbdjl!;ihsJ,~>
X8`2!Jc"!p!;rntJ,~>
X8`1uJb.F`!;EPoJ,~>
X8`2!Jbdjl!;ihsJ,~>
X8`2!Jc"!p!;rntJ,~>
X8`1uJb.F`!;EPoJ,~>
X8`2!Jbdjl!;ihsJ,~>
X8`2!Jc"!p!;rntJ,~>
X8`1uJb.F`!;EPoJ,~>
X8`2!Jbdjl!;ihsJ,~>
X8`2!Jc"!p!;rntJ,~>
X8`1uJb.F`!;EPoJ,~>
X8`2!Jbdjl!;ihsJ,~>
X8`2!Jc"!p!;rntJ,~>
X8`1uJb.F`!;EPoJ,~>
X8`2!Jbdjl!;ihsJ,~>
X8`2!Jc"!p!;rntJ,~>
X8`1uJb.F`!;EPoJ,~>
X8`2!Jbdjl!;ihsJ,~>
X8`2!Jc"!p!;rntJ,~>
X8`1uJb.F`!;EPoJ,~>
X8`2!Jbdjl!;ihsJ,~>
X8`2!Jc"!p!;rntJ,~>
X8`1uJb.F`!;EPoJ,~>
X8`2!Jbdjl!;ihsJ,~>
X8`2!Jc"!p!;rntJ,~>
X8`1uJb.F`!;EPoJ,~>
X8`2!Jbdjl!;ihsJ,~>
X8`2!Jc"!p!;rntJ,~>
X8`1uJb.F`!;EPoJ,~>
X8`2!Jbdjl!;ihsJ,~>
X8`2!Jc"!p!;rntJ,~>
X8`1uJb.F`!;EPoJ,~>
X8`2!Jbdjl!;ihsJ,~>
X8`2!Jc"!p!;rntJ,~>
X8`1uJb.F`!;EPoJ,~>
X8`2!Jbdjl!;ihsJ,~>
X8`2!Jc"!p!;rntJ,~>
X8`1uJb.F`!;EPoJ,~>
X8`2!Jbdjl!;ihsJ,~>
X8`2!Jc"!p!;rntJ,~>
X8`1uJb.F`!;EPoJ,~>
X8`2!Jbdjl!;ihsJ,~>
X8`2!Jc"!p!;rntJ,~>
X8`1uJb.F`!;EPoJ,~>
X8`2!Jbdjl!;ihsJ,~>
X8`2!Jc"!p!;rntJ,~>
X8`1uJb.F`!;EPoJ,~>
X8`2!Jbdjl!;ihsJ,~>
X8`2!Jc"!p!;rntJ,~>
X8`1uJb.F`!;EPoJ,~>
X8`2!Jbdjl!;ihsJ,~>
X8`2!Jc"!p!;rntJ,~>
X8`1uJb.F`!;EPoJ,~>
X8`2!Jbdjl!;ihsJ,~>
X8`2!Jc"!p!;rntJ,~>
X8`1uJb.F`!;EPoJ,~>
X8`2!Jbdjl!;ihsJ,~>
X8`2!Jc"!p!;rntJ,~>
X8`1uJb.F`!;EPoJ,~>
X8`2!Jbdjl!;ihsJ,~>
X8`2!Jc"!p!;rntJ,~>
X8`1uJb.F`!;EPoJ,~>
X8`2!Jbdjl!;ihsJ,~>
X8`2!Jc"!p!;rntJ,~>
X8`1uJb.F`!;EPoJ,~>
X8`2!Jbdjl!;ihsJ,~>
X8`2!Jc"!p!;rntJ,~>
X8`1uJb.F`!;EPoJ,~>
X8`2!Jbdjl!;ihsJ,~>
X8`2!Jc"!p!;rntJ,~>
X8`1uJb.F`!;EPoJ,~>
X8`2!Jbdjl!;ihsJ,~>
X8`2!Jc"!p!;rntJ,~>
X8`1uJb.F`!;EPoJ,~>
X8`2!Jbdjl!;ihsJ,~>
X8`2!Jc"!p!;rntJ,~>
X8`1uJb.F`!;EPoJ,~>
X8`2!Jbdjl!;ihsJ,~>
X8`2!Jc"!p!;rntJ,~>
X8`1uJb.F`!;EPoJ,~>
X8`2!Jbdjl!;ihsJ,~>
X8`2!Jc"!p!;rntJ,~>
X8`1uJb.F`!;EPoJ,~>
X8`2!Jbdjl!;ihsJ,~>
X8`2!Jc"!p!;rntJ,~>
X8`1uJb.F`!;EPoJ,~>
X8`2!Jbdjl!;ihsJ,~>
X8`2!Jc"!p!;rntJ,~>
X8`1uJb.F`!;EPoJ,~>
X8`2!Jbdjl!;ihsJ,~>
X8`2!Jc"!p!;rntJ,~>
X8`1uJb.F`!;EPoJ,~>
X8`2!Jbdjl!;ihsJ,~>
X8`2!Jc"!p!;rntJ,~>
X8`1uJb.F`!;EPoJ,~>
X8`2!Jbdjl!;ihsJ,~>
X8`2!Jc"!p!;rntJ,~>
X8`1uJb.F`!;EPoJ,~>
X8`2!Jbdjl!;ihsJ,~>
X8`2!Jc"!p!;rntJ,~>
X8`1uJb.F`!;EPoJ,~>
X8`2!Jbdjl!;ihsJ,~>
X8`2!Jc"!p!;rntJ,~>
X8`1uJb.F`!;EPoJ,~>
X8`2!Jbdjl!;ihsJ,~>
X8`2!Jc"!p!;rntJ,~>
X8`1uJb.F`!;EPoJ,~>
X8`2!Jbdjl!;ihsJ,~>
X8`2!Jc"!p!;rntJ,~>
X8`1uJb.F`!;EPoJ,~>
X8`2!Jbdjl!;ihsJ,~>
X8`2!Jc"!p!;rntJ,~>
X8`1uJb.F`!;EPoJ,~>
X8`2!Jbdjl!;ihsJ,~>
X8`2!Jc"!p!;rntJ,~>
X8`1uJb.F`!;EPoJ,~>
X8`2!Jbdjl!;ihsJ,~>
X8`2!Jc"!p!;rntJ,~>
X8`1uJb.F`!;EPoJ,~>
X8`2!Jbdjl!;ihsJ,~>
X8`2!Jc"!p!;rntJ,~>
X8`1uJb.F`!;EPoJ,~>
X8`2!Jbdjl!;ihsJ,~>
X8`2!Jc"!p!;rntJ,~>
X8`1uJb.F`!;EPoJ,~>
X8`2!Jbdjl!;ihsJ,~>
X8`2!Jc"!p!;rntJ,~>
X8`1uJb.F`!;EPoJ,~>
X8`2!Jbdjl!;ihsJ,~>
X8`2!Jc"!p!;rntJ,~>
X8`1uJb.F`!;EPoJ,~>
X8`2!Jbdjl!;ihsJ,~>
X8`2!Jc"!p!;rntJ,~>
X8`1uJb.F`!;EPoJ,~>
X8`2!Jbdjl!;ihsJ,~>
X8`2!Jc"!p!;rntJ,~>
X8`1uJb.F`!;EPoJ,~>
X8`2!Jbdjl!;ihsJ,~>
X8`2!Jc"!p!;rntJ,~>
X8`1uJb.F`!;EPoJ,~>
X8`2!Jbdjl!;ihsJ,~>
X8`2!Jc"!p!;rntJ,~>
X8`1uJb.F`!;EPoJ,~>
X8`2!Jbdjl!;ihsJ,~>
X8`2!Jc"!p!;rntJ,~>
X8`1uJb.F`!;EPoJ,~>
X8`2!Jbdjl!;ihsJ,~>
X8`2!Jc"!p!;rntJ,~>
X8`1uJb.F`!;EPoJ,~>
X8`2!Jbdjl!;ihsJ,~>
X8`2!Jc"!p!;rntJ,~>
X8`1uJb.F`!;EPoJ,~>
X8`2!Jbdjl!;ihsJ,~>
X8`2!Jc"!p!;rntJ,~>
X8`1uJb.F`!;EPoJ,~>
X8`2!Jbdjl!;ihsJ,~>
X8`2!Jc"!p!;rntJ,~>
X8`1uJb.F`!;EPoJ,~>
X8`2!Jbdjl!;ihsJ,~>
X8`2!Jc"!p!;rntJ,~>
X8`1uJb.F`!;EPoJ,~>
X8`2!Jbdjl!;ihsJ,~>
X8`2!Jc"!p!;rntJ,~>
X8`1uJb.F`!;EPoJ,~>
X8`2!Jbdjl!;ihsJ,~>
X8`2!Jc"!p!;rntJ,~>
X8`1uJb.F`!;EPoJ,~>
X8`2!Jbdjl!;ihsJ,~>
X8`2!Jc"!p!;rntJ,~>
X8`1uJb.F`!;EPoJ,~>
X8`2!Jbdjl!;ihsJ,~>
X8`2!Jc"!p!;rntJ,~>
X8`1uJb.F`!;EPoJ,~>
X8`2!Jbdjl!;ihsJ,~>
X8`2!Jc"!p!;rntJ,~>
X8`1uJb.F`!;EPoJ,~>
X8`2!Jbdjl!;ihsJ,~>
X8`2!Jc"!p!;rntJ,~>
X8`1uJb.F`!;EPoJ,~>
X8`2!Jbdjl!;ihsJ,~>
X8`2!Jc"!p!;rntJ,~>
X8`1uJb.F`!;EPoJ,~>
X8`2!Jbdjl!;ihsJ,~>
X8`2!Jc"!p!;rntJ,~>
X8`1uJb.F`!;EPoJ,~>
X8`2!Jbdjl!;ihsJ,~>
X8`2!Jc"!p!;rntJ,~>
X8`1uJb.F`!;EPoJ,~>
X8`2!Jbdjl!;ihsJ,~>
X8`2!Jc"!p!;rntJ,~>
X8`1uJb.F`!;EPoJ,~>
X8`2!Jbdjl!;ihsJ,~>
X8`2!Jc"!p!;rntJ,~>
X8`1uJb.F`!;EPoJ,~>
X8`2!Jbdjl!;ihsJ,~>
X8`2!Jc"!p!;rntJ,~>
X8`1uJb.F`!;EPoJ,~>
X8`2!Jbdjl!;ihsJ,~>
X8`2!Jc"!p!;rntJ,~>
X8`1uJb.F`!;EPoJ,~>
X8`2!Jbdjl!;ihsJ,~>
X8`2!Jc"!p!;rntJ,~>
X8`1uJb.F`!;EPoJ,~>
X8`2!Jbdjl!;ihsJ,~>
X8`2!Jc"!p!;rntJ,~>
X8`1uJb.F`!;EPoJ,~>
X8`2!Jbdjl!;ihsJ,~>
X8`2!Jc"!p!;rntJ,~>
X8`1uJb.F`!;EPoJ,~>
X8`2!Jbdjl!;ihsJ,~>
X8`2!Jc"!p!;rntJ,~>
X8`1uJb.F`!;EPoJ,~>
X8`2!Jbdjl!;ihsJ,~>
X8`2!Jc"!p!;rntJ,~>
X8`1uJb.F`!;EPoJ,~>
X8`2!Jbdjl!;ihsJ,~>
X8`2!Jc"!p!;rntJ,~>
X8`1uJb.F`!;EPoJ,~>
X8`2!Jbdjl!;ihsJ,~>
X8`2!Jc"!p!;rntJ,~>
X8`1uJb.F`!;EPoJ,~>
X8`2!Jbdjl!;ihsJ,~>
X8`2!Jc"!p!;rntJ,~>
X8`1uJb.F`!;EPoJ,~>
X8`2!Jbdjl!;ihsJ,~>
X8`2!Jc"!p!;rntJ,~>
X8`1uJb.F`!;EPoJ,~>
X8`2!Jbdjl!;ihsJ,~>
X8`2!Jc"!p!;rntJ,~>
X8`1uJb.F`!;EPoJ,~>
X8`2!Jbdjl!;ihsJ,~>
X8`2!Jc"!p!;rntJ,~>
X8`1uJb.F`!;EPoJ,~>
X8`2!Jbdjl!;ihsJ,~>
X8`2!Jc"!p!;rntJ,~>
X8`1uJb.F`!;EPoJ,~>
X8`2!Jbdjl!;ihsJ,~>
X8`2!Jc"!p!;rntJ,~>
X8`1uJb.F`!;EPoJ,~>
X8`2!Jbdjl!;ihsJ,~>
X8`2!Jc"!p!;rntJ,~>
X8`1uJb.F`!;EPoJ,~>
X8`2!Jbdjl!;ihsJ,~>
X8`2!Jc"!p!;rntJ,~>
X8`1uJb.F`!;EPoJ,~>
X8`2!Jbdjl!;ihsJ,~>
X8`2!Jc"!p!;rntJ,~>
X8`1uJb.F`!;EPoJ,~>
X8`2!Jbdjl!;ihsJ,~>
X8`2!Jc"!p!;rntJ,~>
X8`1uJb.F`!;EPoJ,~>
X8`2!Jbdjl!;ihsJ,~>
X8`2!Jc"!p!;rntJ,~>
X8`1uJb.F`!;EPoJ,~>
X8`2!Jbdjl!;ihsJ,~>
X8`2!Jc"!p!;rntJ,~>
X8`1uJb.F`!;EPoJ,~>
X8`2!Jbdjl!;ihsJ,~>
X8`2!Jc"!p!;rntJ,~>
X8`1uJb.F`!;EPoJ,~>
X8`2!Jbdjl!;ihsJ,~>
X8`2!Jc"!p!;rntJ,~>
X8`1uJb.F`!;EPoJ,~>
X8`2!Jbdjl!;ihsJ,~>
X8`2!Jc"!p!;rntJ,~>
X8`1uJb.F`!;EPoJ,~>
X8`2!Jbdjl!;ihsJ,~>
X8`2!Jc"!p!;rntJ,~>
X8`1uJb.F`!;EPoJ,~>
X8`2!Jbdjl!;ihsJ,~>
X8`2!Jc"!p!;rntJ,~>
X8`1uJb.F`!;EPoJ,~>
X8`2!Jbdjl!;ihsJ,~>
X8`2!Jc"!p!;rntJ,~>
X8`1uJb.F`!;EPoJ,~>
X8`2!Jbdjl!;ihsJ,~>
X8`2!Jc"!p!;rntJ,~>
X8`1uJb.F`!;EPoJ,~>
X8`2!Jbdjl!;ihsJ,~>
X8`2!Jc"!p!;rntJ,~>
X8`1uJb.F`!;EPoJ,~>
X8`2!Jbdjl!;ihsJ,~>
X8`2!Jc"!p!;rntJ,~>
X8`1uJb.F`!;EPoJ,~>
X8`2!Jbdjl!;ihsJ,~>
X8`2!Jc"!p!;rntJ,~>
X8`1uJb.F`!;EPoJ,~>
X8`2!Jbdjl!;ihsJ,~>
X8`2!Jc"!p!;rntJ,~>
X8`1uJb.F`!;EPoJ,~>
X8`2!Jbdjl!;ihsJ,~>
X8`2!Jc"!p!;rntJ,~>
X8`1uJb.F`!;EPoJ,~>
X8`2!Jbdjl!;ihsJ,~>
X8`2!Jc"!p!;rntJ,~>
X8`1uJb.F`!;EPoJ,~>
X8`2!Jbdjl!;ihsJ,~>
X8`2!Jc"!p!;rntJ,~>
X8`1uJb.F`!;EPoJ,~>
X8`2!Jbdjl!;ihsJ,~>
X8`2!Jc"!p!;rntJ,~>
X8`1uJb.F`!;EPoJ,~>
X8`2!Jbdjl!;ihsJ,~>
X8`2!Jc"!p!;rntJ,~>
X8`1uJb.F`!;EPoJ,~>
X8`2!Jbdjl!;ihsJ,~>
X8`2!Jc"!p!;rntJ,~>
X8`1uJb.F`!;EPoJ,~>
X8`2!Jbdjl!;ihsJ,~>
X8`2!Jc"!p!;rntJ,~>
X8`1uJb.F`!;EPoJ,~>
X8`2!Jbdjl!;ihsJ,~>
X8`2!Jc"!p!;rntJ,~>
X8`1uJb.F`!;EPoJ,~>
X8`2!Jbdjl!;ihsJ,~>
X8`2!Jc"!p!;rntJ,~>
X8`1uJb.F`!;EPoJ,~>
X8`2!Jbdjl!;ihsJ,~>
X8`2!Jc"!p!;rntJ,~>
X8`1uJb.F`!;EPoJ,~>
X8`2!Jbdjl!;ihsJ,~>
X8`2!Jc"!p!;rntJ,~>
X8`1uJb.F`!;EPoJ,~>
X8`2!Jbdjl!;ihsJ,~>
X8`2!Jc"!p!;rntJ,~>
X8`1uJb.F`!;EPoJ,~>
X8`2!Jbdjl!;ihsJ,~>
X8`2!Jc"!p!;rntJ,~>
X8`1uJb.F`!;EPoJ,~>
X8`2!Jbdjl!;ihsJ,~>
X8`2!Jc"!p!;rntJ,~>
X8`1uJb.F`!;EPoJ,~>
X8`2!Jbdjl!;ihsJ,~>
X8`2!Jc"!p!;rntJ,~>
X8`1uJb.F`!;EPoJ,~>
X8`2!Jbdjl!;ihsJ,~>
X8`2!Jc"!p!;rntJ,~>
X8`1uJb.F`!;EPoJ,~>
X8`2!Jbdjl!;ihsJ,~>
X8`2!Jc"!p!;rntJ,~>
X8`1uJb.F`!;EPoJ,~>
X8`2!Jbdjl!;ihsJ,~>
X8`2!Jc"!p!;rntJ,~>
X8`1uJb.F`!;EPoJ,~>
X8`2!Jbdjl!;ihsJ,~>
X8`2!Jc"!p!;rntJ,~>
X8`1uJb.F`!;EPoJ,~>
X8`2!Jbdjl!;ihsJ,~>
X8`2!Jc"!p!;rntJ,~>
X8`1uJb.F`!;EPoJ,~>
X8`2!Jbdjl!;ihsJ,~>
X8`2!Jc"!p!;rntJ,~>
X8`1uJb.F`!;EPoJ,~>
X8`2!Jbdjl!;ihsJ,~>
X8`2!Jc"!p!;rntJ,~>
X8`1uJb.F`!;EPoJ,~>
X8`2!Jbdjl!;ihsJ,~>
X8`2!Jc"!p!;rntJ,~>
X8`1uJb.F`!;EPoJ,~>
X8`2!Jbdjl!;ihsJ,~>
X8`2!Jc"!p!;rntJ,~>
X8`1uJb.F`!;EPoJ,~>
X8`2!Jbdjl!;ihsJ,~>
X8`2!Jc"!p!;rntJ,~>
X8`1uJb.F`!;EPoJ,~>
X8`2!Jbdjl!;ihsJ,~>
X8`2!Jc"!p!;rntJ,~>
X8`1uJb.F`!;EPoJ,~>
X8`2!Jbdjl!;ihsJ,~>
X8`2!Jc"!p!;rntJ,~>
X8`1uJb.F`!;EPoJ,~>
X8`2!Jbdjl!;ihsJ,~>
X8`2!Jc"!p!;rntJ,~>
X8`1uJb.F`!;EPoJ,~>
X8`2!Jbdjl!;ihsJ,~>
X8`2!Jc"!p!;rntJ,~>
X8`1uJb.F`!;EPoJ,~>
X8`2!Jbdjl!;ihsJ,~>
X8`2!Jc"!p!;rntJ,~>
X8`1uJb.F`!;EPoJ,~>
X8`2!Jbdjl!;ihsJ,~>
X8`2!Jc"!p!;rntJ,~>
X8`1uJb.F`!;EPoJ,~>
X8`2!Jbdjl!;ihsJ,~>
X8`2!Jc"!p!;rntJ,~>
X8`1uJb.F`!;EPoJ,~>
X8`2!Jbdjl!;ihsJ,~>
X8`2!Jc"!p!;rntJ,~>
X8`1uJb.F`!;EPoJ,~>
X8`2!Jbdjl!;ihsJ,~>
X8`2!Jc"!p!;rntJ,~>
X8`1uJb.F`!;EPoJ,~>
X8`2!Jbdjl!;ihsJ,~>
X8`2!Jc"!p!;rntJ,~>
X8`1uJb.F`!;EPoJ,~>
X8`2!Jbdjl!;ihsJ,~>
X8`2!Jc"!p!;rntJ,~>
X8`1uJb.F`!;EPoJ,~>
X8`2!Jbdjl!;ihsJ,~>
X8`2!Jc"!p!;rntJ,~>
X8`1uJb.F`!;EPoJ,~>
X8`2!Jbdjl!;ihsJ,~>
X8`2!Jc"!p!;rntJ,~>
X8`1uJb.F`!;EPoJ,~>
X8`2!Jbdjl!;ihsJ,~>
X8`2!Jc"!p!;rntJ,~>
X8`1uJb.F`!;EPoJ,~>
X8`2!Jbdjl!;ihsJ,~>
X8`2!Jc"!p!;rntJ,~>
X8`1uJb.F`!;EPoJ,~>
X8`2!Jbdjl!;ihsJ,~>
X8`2!Jc"!p!;rntJ,~>
X8`1uJb.F`!;EPoJ,~>
X8`2!Jbdjl!;ihsJ,~>
X8`2!Jc"!p!;rntJ,~>
X8`1uJb.F`!;EPoJ,~>
X8`2!Jbdjl!;ihsJ,~>
X8`2!Jc"!p!;rntJ,~>
X8`1uJb.F`!;EPoJ,~>
X8`2!Jbdjl!;ihsJ,~>
X8`2!Jc"!p!;rntJ,~>
X8`1uJb.F`!;EPoJ,~>
X8`2!Jbdjl!;ihsJ,~>
X8`2!Jc"!p!;rntJ,~>
X8`1uJb.F`!;EPoJ,~>
X8`2!Jbdjl!;ihsJ,~>
X8`2!Jc"!p!;rntJ,~>
X8`1uJb.F`!;EPoJ,~>
X8`2!Jbdjl!;ihsJ,~>
X8`2!Jc"!p!;rntJ,~>
X8`1uJb.F`!;EPoJ,~>
X8`2!Jbdjl!;ihsJ,~>
X8`2!Jc"!p!;rntJ,~>
X8`1uJb.F`!;EPoJ,~>
X8`2!Jbdjl!;ihsJ,~>
X8`2!Jc"!p!;rntJ,~>
X8`1uJb.F`!;EPoJ,~>
X8`2!Jbdjl!;ihsJ,~>
X8`2!Jc"!p!;rntJ,~>
X8`1uJb.F`!;EPoJ,~>
X8`2!Jbdjl!;ihsJ,~>
X8`2!Jc"!p!;rntJ,~>
X8`1uJb.F`!;EPoJ,~>
X8`2!Jbdjl!;ihsJ,~>
X8`2!Jc"!p!;rntJ,~>
X8`1uJb.F`!;EPoJ,~>
X8`2!Jbdjl!;ihsJ,~>
X8`2!Jc"!p!;rntJ,~>
X8`1uJb.F`!;EPoJ,~>
X8`2!Jbdjl!;ihsJ,~>
X8`2!Jc"!p!;rntJ,~>
X8`1uJb.F`!;EPoJ,~>
X8`2!Jbdjl!;ihsJ,~>
X8`2!Jc"!p!;rntJ,~>
X8`1uJb.F`!;EPoJ,~>
X8`2!Jbdjl!;ihsJ,~>
X8`2!Jc"!p!;rntJ,~>
X8`1uJb.F`!;EPoJ,~>
X8`2!Jbdjl!;ihsJ,~>
X8`2!Jc"!p!;rntJ,~>
X8`1uJb.F`!;EPoJ,~>
X8`2!Jbdjl!;ihsJ,~>
X8`2!Jc"!p!;rntJ,~>
X8`1uJb.F`!;EPoJ,~>
X8`2!Jbdjl!;ihsJ,~>
X8`2!Jc"!p!;rntJ,~>
X8`1uJb.F`!;EPoJ,~>
X8`2!Jbdjl!;ihsJ,~>
X8`2!Jc"!p!;rntJ,~>
X8`1uJb.F`!;EPoJ,~>
X8`2!Jbdjl!;ihsJ,~>
X8`2!Jc"!p!;rntJ,~>
X8`1uJb.F`!;EPoJ,~>
X8`2!Jbdjl!;ihsJ,~>
X8`2!Jc"!p!;rntJ,~>
X8`1uJb.F`!;EPoJ,~>
X8`2!Jbdjl!;ihsJ,~>
X8`2!Jc"!p!;rntJ,~>
X8`1uJb.F`!;EPoJ,~>
X8`2!Jbdjl!;ihsJ,~>
X8`2!Jc"!p!;rntJ,~>
X8`1uJb.F`!;EPoJ,~>
X8`2!Jbdjl!;ihsJ,~>
X8`2!Jc"!p!;rntJ,~>
X8`1uJb.F`!;EPoJ,~>
X8`2!Jbdjl!;ihsJ,~>
X8`2!Jc"!p!;rntJ,~>
X8`1uJb.F`!;EPoJ,~>
X8`2!Jbdjl!;ihsJ,~>
X8`2!Jc"!p!;rntJ,~>
X8`1uJb.F`!;EPoJ,~>
X8`2!Jbdjl!;ihsJ,~>
X8`2!Jc"!p!;rntJ,~>
X8`1uJb.F`!;EPoJ,~>
X8`2!Jbdjl!;ihsJ,~>
X8`2!Jc"!p!;rntJ,~>
X8`1uJb.F`!;EPoJ,~>
X8`2!Jbdjl!;ihsJ,~>
X8`2!Jc"!p!;rntJ,~>
X8`1uJb.F`!;EPoJ,~>
X8`2!Jbdjl!;ihsJ,~>
X8`2!Jc"!p!;rntJ,~>
X8`1uJb.F`!;EPoJ,~>
X8`2!Jbdjl!;ihsJ,~>
X8`2!Jc"!p!;rntJ,~>
X8`1uJb.F`!;EPoJ,~>
X8`2!Jbdjl!;ihsJ,~>
X8`2!Jc"!p!;rntJ,~>
X8`1uJb.F`!;EPoJ,~>
X8`2!Jbdjl!;ihsJ,~>
X8`2!Jc"!p!;rntJ,~>
X8`1uJb.F`!;EPoJ,~>
X8`2!Jbdjl!;ihsJ,~>
X8`2!Jc"!p!;rntJ,~>
X8`1uJb.F`!;EPoJ,~>
X8`2!Jbdjl!;ihsJ,~>
X8`2!Jc"!p!;rntJ,~>
X8`1uJb.F`!;EPoJ,~>
X8`2!Jbdjl!;ihsJ,~>
X8`2!Jc"!p!;rntJ,~>
X8`1uJb.F`!;EPoJ,~>
X8`2!Jbdjl!;ihsJ,~>
X8`2!Jc"!p!;rntJ,~>
X8`1uJb.F`!;EPoJ,~>
X8`2!Jbdjl!;ihsJ,~>
X8`2!Jc"!p!;rntJ,~>
X8`1uJb.F`!;EPoJ,~>
X8`2!Jbdjl!;ihsJ,~>
X8`2!Jc"!p!;rntJ,~>
X8`1uJb.F`!;EPoJ,~>
X8`2!Jbdjl!;ihsJ,~>
X8`2!Jc"!p!;rntJ,~>
X8`1uJb.F`!;EPoJ,~>
X8`2!Jbdjl!;ihsJ,~>
X8`2!Jc"!p!;rntJ,~>
X8`1uJb.F`!;EPoJ,~>
X8`2!Jbdjl!;ihsJ,~>
X8`2!Jc"!p!;rntJ,~>
X8`1uJb.F`!;EPoJ,~>
X8`2!Jbdjl!;ihsJ,~>
X8`2!Jc"!p!;rntJ,~>
X8`1uJb.F`!;EPoJ,~>
X8`2!Jbdjl!;ihsJ,~>
X8`2!Jc"!p!;rntJ,~>
X8`1uJb.F`!;EPoJ,~>
X8`2!Jbdjl!;ihsJ,~>
X8`2!Jc"!p!;rntJ,~>
X8`1uJb.F`!;EPoJ,~>
X8`2!Jbdjl!;ihsJ,~>
X8`2!Jc"!p!;rntJ,~>
X8`1uJb.F`!;EPoJ,~>
X8`2!Jbdjl!;ihsJ,~>
X8`2!Jc"!p!;rntJ,~>
X8`1uJb.F`!;EPoJ,~>
X8`2!Jbdjl!;ihsJ,~>
X8`2!Jc"!p!;rntJ,~>
X8`1uJb.F`!;EPoJ,~>
X8`2!Jbdjl!;ihsJ,~>
X8`2!Jc"!p!;rntJ,~>
X8`1uJb.F`!;EPoJ,~>
X8`2!Jbdjl!;ihsJ,~>
X8`2!Jc"!p!;rntJ,~>
X8`1uJb.F`!;EPoJ,~>
X8`2!Jbdjl!;ihsJ,~>
X8`2!Jc"!p!;rntJ,~>
X8`1uJb.F`!;EPoJ,~>
X8`2!Jbdjl!;ihsJ,~>
X8`2!Jc"!p!;rntJ,~>
X8`1uJb.F`!;EPoJ,~>
X8`2!Jbdjl!;ihsJ,~>
X8`2!Jc"!p!;rntJ,~>
X8`1uJb.F`!;EPoJ,~>
X8`2!Jbdjl!;ihsJ,~>
X8`2!Jc"!p!;rntJ,~>
X8`1uJb.F`!;EPoJ,~>
X8`2!Jbdjl!;ihsJ,~>
X8`2!Jc"!p!;rntJ,~>
X8`1uJb.F`!;EPoJ,~>
X8`2!Jbdjl!;ihsJ,~>
X8`2!Jc"!p!;rntJ,~>
X8`1uJb.F`!;EPoJ,~>
X8`2!Jbdjl!;ihsJ,~>
X8`2!Jc"!p!;rntJ,~>
X8`1uJb.F`!;EPoJ,~>
X8`2!Jbdjl!;ihsJ,~>
X8`2!Jc"!p!;rntJ,~>
X8`1uJb.F`!;EPoJ,~>
X8`2!Jbdjl!;ihsJ,~>
X8`2!Jc"!p!;rntJ,~>
X8`1uJb.F`!;EPoJ,~>
X8`2!Jbdjl!;ihsJ,~>
X8`2!Jc"!p!;rntJ,~>
X8`1uJb.F`!;EPoJ,~>
X8`2!Jbdjl!;ihsJ,~>
X8`2!Jc"!p!;rntJ,~>
X8`1uJb.F`!;EPoJ,~>
X8`2!Jbdjl!;ihsJ,~>
X8`2!Jc"!p!;rntJ,~>
X8`1uJb.F`!;EPoJ,~>
X8`2!Jbdjl!;ihsJ,~>
X8`2!Jc"!p!;rntJ,~>
X8`1uJb.F`!;EPoJ,~>
X8`2!Jbdjl!;ihsJ,~>
X8`2!Jc"!p!;rntJ,~>
X8`1uJb.F`!;EPoJ,~>
X8`2!Jbdjl!;ihsJ,~>
X8`2!Jc"!p!;rntJ,~>
X8`1uJb.F`!;EPoJ,~>
X8`2!Jbdjl!;ihsJ,~>
X8`2!Jc"!p!;rntJ,~>
X8`1uJb.F`!;EPoJ,~>
X8`2!Jbdjl!;ihsJ,~>
X8`2!Jc"!p!;rntJ,~>
X8`1uJb.F`!;EPoJ,~>
X8`2!Jbdjl!;ihsJ,~>
X8`2!Jc"!p!;rntJ,~>
X8`1uJb.F`!;EPoJ,~>
X8`2!Jbdjl!;ihsJ,~>
X8`2!Jc"!p!;rntJ,~>
X8`1uJb.F`!;EPoJ,~>
X8`2!Jbdjl!;ihsJ,~>
X8`2!Jc"!p!;rntJ,~>
X8`1uJb.F`!;EPoJ,~>
X8`2!Jbdjl!;ihsJ,~>
X8`2!Jc"!p!;rntJ,~>
X8`1uJb.F`!;EPoJ,~>
X8`2!Jbdjl!;ihsJ,~>
X8`2!Jc"!p!;rntJ,~>
X8`1uJb.F`!;EPoJ,~>
X8`2!Jbdjl!;ihsJ,~>
X8`2!Jc"!p!;rntJ,~>
X8`1uJb.F`!;EPoJ,~>
X8`2!Jbdjl!;ihsJ,~>
X8`2!Jc"!p!;rntJ,~>
X8`1uJb.F`!;EPoJ,~>
X8`2!Jbdjl!;ihsJ,~>
X8`2!Jc"!p!;rntJ,~>
X8`1uJb.F`!;EPoJ,~>
X8`2!Jbdjl!;ihsJ,~>
X8`2!Jc"!p!;rntJ,~>
X8`1uJb.F`!;EPoJ,~>
X8`2!Jbdjl!;ihsJ,~>
X8`2!Jc"!p!;rntJ,~>
X8`1uJb.F`!;EPoJ,~>
X8`2!Jbdjl!;ihsJ,~>
X8`2!Jc"!p!;rntJ,~>
X8`1uJb.F`!;EPoJ,~>
X8`2!Jbdjl!;ihsJ,~>
X8`2!Jc"!p!;rntJ,~>
X8`1uJb.F`!;EPoJ,~>
X8`2!Jbdjl!;ihsJ,~>
X8`2!Jc"!p!;rntJ,~>
X8`1uJb.F`!;EPoJ,~>
X8`2!Jbdjl!;ihsJ,~>
X8`2!Jc"!p!;rntJ,~>
X8`1uJb.F`!;EPoJ,~>
X8`2!Jbdjl!;ihsJ,~>
X8`2!Jc"!p!;rntJ,~>
X8`1uJb.F`!;EPoJ,~>
X8`2!Jbdjl!;ihsJ,~>
X8`2!Jc"!p!;rntJ,~>
X8`1uJb.F`!;EPoJ,~>
X8`2!Jbdjl!;ihsJ,~>
X8`2!Jc"!p!;rntJ,~>
X8`1uJb.F`!;EPoJ,~>
X8`2!Jbdjl!;ihsJ,~>
X8`2!Jc"!p!;rntJ,~>
X8`1uJb.F`!;EPoJ,~>
X8`2!Jbdjl!;ihsJ,~>
X8`2!Jc"!p!;rntJ,~>
X8`1uJb.F`!;EPoJ,~>
X8`2!Jbdjl!;ihsJ,~>
X8`2!Jc"!p!;rntJ,~>
X8`1uJb.F`!;EPoJ,~>
X8`2!Jbdjl!;ihsJ,~>
X8`2!Jc"!p!;rntJ,~>
X8`1uJb.F`!;EPoJ,~>
X8`2!Jbdjl!;ihsJ,~>
X8`2!Jc"!p!;rntJ,~>
X8`1uJb.F`!;EPoJ,~>
X8`2!Jbdjl!;ihsJ,~>
X8`2!Jc"!p!;rntJ,~>
X8`1uJb.F`!;EPoJ,~>
X8`2!Jbdjl!;ihsJ,~>
X8`2!Jc"!p!;rntJ,~>
X8`1uJb.F`!;EPoJ,~>
X8`2!Jbdjl!;ihsJ,~>
X8`2!Jc"!p!;rntJ,~>
X8`1uJb.F`!;EPoJ,~>
X8`2!Jbdjl!;ihsJ,~>
X8`2!Jc"!p!;rntJ,~>
X8`1uJb.F`!;EPoJ,~>
X8`2!Jbdjl!;ihsJ,~>
X8`2!Jc"!p!;rntJ,~>
X8`1uJb.F`!;EPoJ,~>
X8`2!Jbdjl!;ihsJ,~>
X8`2!Jc"!p!;rntJ,~>
X8`1uJb.F`!;EPoJ,~>
X8`2!Jbdjl!;ihsJ,~>
X8`2!Jc"!p!;rntJ,~>
X8`1uJb.F`!;EPoJ,~>
X8`2!Jbdjl!;ihsJ,~>
X8`2!Jc"!p!;rntJ,~>
X8`1uJb.F`!;EPoJ,~>
X8`2!Jbdjl!;ihsJ,~>
X8`2!Jc"!p!;rntJ,~>
X8`1uJb.F`!;EPoJ,~>
X8`2!Jbdjl!;ihsJ,~>
X8`2!Jc"!p!;rntJ,~>
X8`1uJb.F`!;EPoJ,~>
X8`2!Jbdjl!;ihsJ,~>
X8`2!Jc"!p!;rntJ,~>
X8`1uJb.F`!;EPoJ,~>
X8`2!Jbdjl!;ihsJ,~>
X8`2!Jc"!p!;rntJ,~>
X8`1uJb.F`!;EPoJ,~>
X8`2!Jbdjl!;ihsJ,~>
X8`2!Jc"!p!;rntJ,~>
X8`1uJb.F`!;EPoJ,~>
X8`2!Jbdjl!;ihsJ,~>
X8`2!Jc"!p!;rntJ,~>
X8`1uJb.F`!;EPoJ,~>
X8`2!Jbdjl!;ihsJ,~>
X8`2!Jc"!p!;rntJ,~>
X8`1uJb.F`!;EPoJ,~>
X8`2!Jbdjl!;ihsJ,~>
X8`2!Jc"!p!;rntJ,~>
X8`1uJb.F`!;EPoJ,~>
X8`2!Jbdjl!;ihsJ,~>
X8`2!Jc"!p!;rntJ,~>
X8`1uJb.F`!;EPoJ,~>
X8`2!Jbdjl!;ihsJ,~>
X8`2!Jc"!p!;rntJ,~>
X8`1uJb.F`!;EPoJ,~>
X8`2!Jbdjl!;ihsJ,~>
X8`2!Jc"!p!;rntJ,~>
X8`1uJb.F`!;EPoJ,~>
X8`2!Jbdjl!;ihsJ,~>
X8`2!Jc"!p!;rntJ,~>
X8`1uJb.F`!;EPoJ,~>
X8`2!Jbdjl!;ihsJ,~>
X8`2!Jc"!p!;rntJ,~>
X8`1uJb.F`!;EPoJ,~>
X8`2!Jbdjl!;ihsJ,~>
X8`2!Jc"!p!;rntJ,~>
X8`1uJb.F`!;EPoJ,~>
X8`2!Jbdjl!;ihsJ,~>
X8`2!Jc"!p!;rntJ,~>
X8`1uJb.F`!;EPoJ,~>
X8`2!Jbdjl!;ihsJ,~>
X8`2!Jc"!p!;rntJ,~>
X8`1uJb.F`!;EPoJ,~>
X8`2!Jbdjl!;ihsJ,~>
X8`2!Jc"!p!;rntJ,~>
X8`1uJb.F`!;EPoJ,~>
X8`2!Jbdjl!;ihsJ,~>
X8`2!Jc"!p!;rntJ,~>
X8`1uJb.F`!;EPoJ,~>
X8`2!Jbdjl!;ihsJ,~>
X8`2!Jc"!p!;rntJ,~>
X8`1uJb.F`!;EPoJ,~>
X8`2!Jbdjl!;ihsJ,~>
X8`2!Jc"!p!;rntJ,~>
X8`1uJb.F`!;EPoJ,~>
X8`2!Jbdjl!;ihsJ,~>
X8`2!Jc"!p!;rntJ,~>
X8`1uJb.F`!;EPoJ,~>
X8`2!Jbdjl!;ihsJ,~>
X8`2!Jc"!p!;rntJ,~>
X8`1uJb.F`!;EPoJ,~>
X8`2!Jbdjl!;ihsJ,~>
X8`2!Jc"!p!;rntJ,~>
X8`1uJb.F`!;EPoJ,~>
X8`2!Jbdjl!;ihsJ,~>
X8`2!Jc"!p!;rntJ,~>
X8`1uJb.F`!;EPoJ,~>
X8`2!Jbdjl!;ihsJ,~>
X8`2!Jc"!p!;rntJ,~>
X8`1uJb.F`!;EPoJ,~>
X8`2!Jbdjl!;ihsJ,~>
X8`2!Jc"!p!;rntJ,~>
X8`1uJb.F`!;EPoJ,~>
X8`2!Jbdjl!;ihsJ,~>
X8`2!Jc"!p!;rntJ,~>
X8`1uJb.F`!;EPoJ,~>
X8`2!Jbdjl!;ihsJ,~>
X8`2!Jc"!p!;rntJ,~>
X8`1uJb.F`!;EPoJ,~>
X8`2!Jbdjl!;ihsJ,~>
X8`2!Jc"!p!;rntJ,~>
X8`1uJb.F`!;EPoJ,~>
X8`2!Jbdjl!;ihsJ,~>
X8`2!Jc"!p!;rntJ,~>
X8`1uJb.F`!;EPoJ,~>
X8`2!Jbdjl!;ihsJ,~>
X8`2!Jc"!p!;rntJ,~>
X8`1uJb.F`!;EPoJ,~>
X8`2!Jbdjl!;ihsJ,~>
X8`2!Jc"!p!;rntJ,~>
X8`1uJb.F`!;EPoJ,~>
X8`2!Jbdjl!;ihsJ,~>
X8`2!Jc"!p!;rntJ,~>
X8`1uJb.F`!;EPoJ,~>
X8`2!Jbdjl!;ihsJ,~>
X8`2!Jc"!p!;rntJ,~>
X8`1uJb.F`!;EPoJ,~>
X8`2!Jbdjl!;ihsJ,~>
X8`2!Jc"!p!;rntJ,~>
X8`1uJb.F`!;EPoJ,~>
X8`2!Jbdjl!;ihsJ,~>
X8`2!Jc"!p!;rntJ,~>
X8`1uJb.F`!;EPoJ,~>
X8`2!Jbdjl!;ihsJ,~>
X8`2!Jc"!p!;rntJ,~>
X8`1uJb.F`!;EPoJ,~>
X8`2!Jbdjl!;ihsJ,~>
X8`2!Jc"!p!;rntJ,~>
X8`1uJb.F`!;EPoJ,~>
X8`2!Jbdjl!;ihsJ,~>
X8`2!Jc"!p!;rntJ,~>
X8`1uJb.F`!;EPoJ,~>
X8`2!Jbdjl!;ihsJ,~>
X8`2!Jc"!p!;rntJ,~>
X8`1uJb.F`!;EPoJ,~>
X8`2!Jbdjl!;ihsJ,~>
X8`2!Jc"!p!;rntJ,~>
X8`1uJb.F`!;EPoJ,~>
X8`2!Jbdjl!;ihsJ,~>
X8`2!Jc"!p!;rntJ,~>
X8`1uJb.F`!;EPoJ,~>
X8`2!Jbdjl!;ihsJ,~>
X8`2!Jc"!p!;rntJ,~>
X8`1uJb.F`!;EPoJ,~>
X8`2!Jbdjl!;ihsJ,~>
X8`2!Jc"!p!;rntJ,~>
X8`1uJb.F`!;EPoJ,~>
X8`2!Jbdjl!;ihsJ,~>
X8`2!Jc"!p!;rntJ,~>
X8`1uJb.F`!;EPoJ,~>
X8`2!Jbdjl!;ihsJ,~>
X8`2!Jc"!p!;rntJ,~>
X8`1uJb.F`!;EPoJ,~>
X8`2!Jbdjl!;ihsJ,~>
X8`2!Jc"!p!;rntJ,~>
X8`1uJb.F`!;EPoJ,~>
X8`2!Jbdjl!;ihsJ,~>
X8`2!Jc"!p!;rntJ,~>
X8`1uJb.F`!;EPoJ,~>
X8`2!Jbdjl!;ihsJ,~>
X8`2!Jc"!p!;rntJ,~>
X8`1uJb.F`!;EPoJ,~>
X8`2!Jbdjl!;ihsJ,~>
X8`2!Jc"!p!;rntJ,~>
X8`1uJb.F`!;EPoJ,~>
X8`2!Jbdjl!;ihsJ,~>
X8`2!Jc"!p!;rntJ,~>
X8`1uJb.F`!;EPoJ,~>
X8`2!Jbdjl!;ihsJ,~>
X8`2!Jc"!p!;rntJ,~>
X8`1uJb.F`!;EPoJ,~>
X8`2!Jbdjl!;ihsJ,~>
X8`2!Jc"!p!;rntJ,~>
X8`1uJb.F`!;EPoJ,~>
X8`2!Jbdjl!;ihsJ,~>
X8`2!Jc"!p!;rntJ,~>
X8`1uJb.F`!;EPoJ,~>
X8`2!Jbdjl!;ihsJ,~>
X8`2!Jc"!p!;rntJ,~>
X8`1uJb.F`!;EPoJ,~>
X8`2!Jbdjl!;ihsJ,~>
X8`2!Jc"!p!;rntJ,~>
X8`1uJb.F`!;EPoJ,~>
X8`2!Jbdjl!;ihsJ,~>
X8`2!Jc"!p!;rntJ,~>
X8`1uJb.F`!;EPoJ,~>
X8`2!Jbdjl!;ihsJ,~>
X8`2!Jc"!p!;rntJ,~>
X8`1uJb.F`!;EPoJ,~>
X8`2!Jbdjl!;ihsJ,~>
X8`2!Jc"!p!;rntJ,~>
X8`1uJb.F`!;EPoJ,~>
X8`2!Jbdjl!;ihsJ,~>
X8`2!Jc"!p!;rntJ,~>
X8`1uJb.F`!;EPoJ,~>
X8`2!Jbdjl!;ihsJ,~>
X8`2!Jc"!p!;rntJ,~>
X8`1uJb.F`!;EPoJ,~>
X8`2!Jbdjl!;ihsJ,~>
X8`2!Jc"!p!;rntJ,~>
X8`1uJb.F`!;EPoJ,~>
X8`2!Jbdjl!;ihsJ,~>
X8`2!Jc"!p!;rntJ,~>
X8`1uJb.F`!;EPoJ,~>
X8`2!Jbdjl!;ihsJ,~>
X8`2!Jc"!p!;rntJ,~>
X8`1uJb.F`!;EPoJ,~>
X8`2!Jbdjl!;ihsJ,~>
X8`2!Jc"!p!;rntJ,~>
X8`1uJb.F`!;EPoJ,~>
X8`2!Jbdjl!;ihsJ,~>
X8`2!Jc"!p!;rntJ,~>
X8`1uJb.F`!;EPoJ,~>
X8`2!Jbdjl!;ihsJ,~>
X8`2!Jc"!p!;rntJ,~>
X8`1uJb.F`!;EPoJ,~>
X8`2!Jbdjl!;ihsJ,~>
X8`2!Jc"!p!;rntJ,~>
X8`1uJb.F`!;EPoJ,~>
X8`2!Jbdjl!;ihsJ,~>
X8`2!Jc"!p!;rntJ,~>
X8`1uJb.F`!;EPoJ,~>
X8`2!Jbdjl!;ihsJ,~>
X8`2!Jc"!p!;rntJ,~>
X8`1uJb.F`!;EPoJ,~>
X8`2!Jbdjl!;ihsJ,~>
X8`2!Jc"!p!;rntJ,~>
X8`1uJb.F`!;EPoJ,~>
X8`2!Jbdjl!;ihsJ,~>
X8`2!Jc"!p!;rntJ,~>
X8`1uJb.F`!;EPoJ,~>
X8`2!Jbdjl!;ihsJ,~>
X8`2!Jc"!p!;rntJ,~>
X8`1uJb.F`!;EPoJ,~>
X8`2!Jbdjl!;ihsJ,~>
X8`2!Jc"!p!;rntJ,~>
X8`1uJb.F`!;EPoJ,~>
X8`2!Jbdjl!;ihsJ,~>
X8`2!Jc"!p!;rntJ,~>
X8`1uJb.F`!;EPoJ,~>
X8`2!Jbdjl!;ihsJ,~>
X8`2!Jc"!p!;rntJ,~>
X8`1uJb.F`!;EPoJ,~>
X8`2!Jbdjl!;ihsJ,~>
X8`2!Jc"!p!;rntJ,~>
X8`1uJb.F`!;EPoJ,~>
X8`2!Jbdjl!;ihsJ,~>
X8`2!Jc"!p!;rntJ,~>
X8`1uJb.F`!;EPoJ,~>
X8`2!Jbdjl!;ihsJ,~>
X8`2!Jc"!p!;rntJ,~>
X8`1uJb.F`!;EPoJ,~>
X8`2!Jbdjl!;ihsJ,~>
X8`2!Jc"!p!;rntJ,~>
X8`1uJb.F`!;EPoJ,~>
X8`2!Jbdjl!;ihsJ,~>
X8`2!Jc"!p!;rntJ,~>
X8`1uJb.F`!;EPoJ,~>
X8`2!Jbdjl!;ihsJ,~>
X8`2!Jc"!p!;rntJ,~>
X8`1uJb.F`!;EPoJ,~>
X8`2!Jbdjl!;ihsJ,~>
X8`2!Jc"!p!;rntJ,~>
X8`1uJb.F`!;EPoJ,~>
X8`2!Jbdjl!;ihsJ,~>
X8`2!Jc"!p!;rntJ,~>
X8`1uJb.F`!;EPoJ,~>
X8`2!Jbdjl!;ihsJ,~>
X8`2!Jc"!p!;rntJ,~>
X8`1uJb.F`!;EPoJ,~>
X8`2!Jbdjl!;ihsJ,~>
X8`2!Jc"!p!;rntJ,~>
X8`1uJb.F`!;EPoJ,~>
X8`2!Jbdjl!;ihsJ,~>
X8`2!Jc"!p!;rntJ,~>
X8`1uJb.F`!;EPoJ,~>
X8`2!Jbdjl!;ihsJ,~>
X8`2!Jc"!p!;rntJ,~>
X8`1uJb.F`!;EPoJ,~>
X8`2!Jbdjl!;ihsJ,~>
X8`2!Jc"!p!;rntJ,~>
X8`1uJb.F`!;EPoJ,~>
X8`2!Jbdjl!;ihsJ,~>
X8`2!Jc"!p!;rntJ,~>
X8`1uJb.F`!;EPoJ,~>
X8`2!Jbdjl!;ihsJ,~>
X8`2!Jc"!p!;rntJ,~>
X8`1uJb.F`!;EPoJ,~>
X8`2!Jbdjl!;ihsJ,~>
X8`2!Jc"!p!;rntJ,~>
X8`1uJb.F`!;EPoJ,~>
X8`2!Jbdjl!;ihsJ,~>
X8`2!Jc"!p!;rntJ,~>
X8`1uJb.F`!;EPoJ,~>
X8`2!Jbdjl!;ihsJ,~>
X8`2!Jc"!p!;rntJ,~>
X8`1uJb.F`!;EPoJ,~>
X8`2!Jbdjl!;ihsJ,~>
X8`2!Jc"!p!;rntJ,~>
X8`1uJb.F`!;EPoJ,~>
X8`2!Jbdjl!;ihsJ,~>
X8`2!Jc"!p!;rntJ,~>
X8`1uJb.F`!;EPoJ,~>
X8`2!Jbdjl!;ihsJ,~>
X8`2!Jc"!p!;rntJ,~>
X8`1uJb.F`!;EPoJ,~>
X8`2!Jbdjl!;ihsJ,~>
X8`2!Jc"!p!;rntJ,~>
X8`1uJb.F`!;EPoJ,~>
X8`2!Jbdjl!;ihsJ,~>
X8`2!Jc"!p!;rntJ,~>
X8`1uJb.F`!;EPoJ,~>
X8`2!Jbdjl!;ihsJ,~>
X8`2!Jc"!p!;rntJ,~>
X8`1uJb.F`!;EPoJ,~>
X8`2!Jbdjl!;ihsJ,~>
X8`2!Jc"!p!;rntJ,~>
X8`1uJb.F`!;EPoJ,~>
X8`2!Jbdjl!;ihsJ,~>
X8`2!Jc"!p!;rntJ,~>
X8`1uJb.F`!;EPoJ,~>
X8`2!Jbdjl!;ihsJ,~>
X8`2!Jc"!p!;rntJ,~>
X8`1uJb.F`!;EPoJ,~>
X8`2!Jbdjl!;ihsJ,~>
X8`2!Jc"!p!;rntJ,~>
X8`1uJb.F`!;EPoJ,~>
X8`2!Jbdjl!;ihsJ,~>
X8`2!Jc"!p!;rntJ,~>
X8`1uJb.F`!;EPoJ,~>
X8`2!Jbdjl!;ihsJ,~>
X8`2!Jc"!p!;rntJ,~>
X8`1uJb.F`!;EPoJ,~>
X8`2!Jbdjl!;ihsJ,~>
X8`2!Jc"!p!;rntJ,~>
X8`1uJb.F`!;EPoJ,~>
X8`2!Jbdjl!;ihsJ,~>
X8`2!Jc"!p!;rntJ,~>
X8`1uJb.F`!;EPoJ,~>
X8`2!Jbdjl!;ihsJ,~>
X8`2!Jc"!p!;rntJ,~>
X8`1uJb.F`!;EPoJ,~>
X8`2!Jbdjl!;ihsJ,~>
X8`2!Jc"!p!;rntJ,~>
X8`1uJb.F`!;EPoJ,~>
X8`2!Jbdjl!;ihsJ,~>
X8`2!Jc"!p!;rntJ,~>
X8`1uJb.F`!;EPoJ,~>
X8`2!Jbdjl!;ihsJ,~>
X8`2!Jc"!p!;rntJ,~>
X8`1uJb.F`!;EPoJ,~>
X8`2!Jbdjl!;ihsJ,~>
X8`2!Jc"!p!;rntJ,~>
X8`1uJb.F`!;EPoJ,~>
X8`2!Jbdjl!;ihsJ,~>
X8`2!Jc"!p!;rntJ,~>
X8`1uJb.F`!;EPoJ,~>
X8`2!Jbdjl!;ihsJ,~>
X8`2!Jc"!p!;rntJ,~>
X8`1uJb.F`!;EPoJ,~>
X8`2!Jbdjl!;ihsJ,~>
X8`2!Jc"!p!;rntJ,~>
X8`1uJb.F`!;EPoJ,~>
X8`2!Jbdjl!;ihsJ,~>
X8`2!Jc"!p!;rntJ,~>
X8`1uJb.F`!;EPoJ,~>
X8`2!Jbdjl!;ihsJ,~>
X8`2!Jc"!p!;rntJ,~>
X8`1uJb.F`!;EPoJ,~>
X8`2!Jbdjl!;ihsJ,~>
X8`2!Jc"!p!;rntJ,~>
X8`1uJb.F`!;EPoJ,~>
X8`2!Jbdjl!;ihsJ,~>
X8`2!Jc"!p!;rntJ,~>
X8`1uJb.F`!;EPoJ,~>
X8`2!Jbdjl!;ihsJ,~>
X8`2!Jc"!p!;rntJ,~>
X8`1uJb.F`!;EPoJ,~>
X8`2!Jbdjl!;ihsJ,~>
X8`2!Jc"!p!;rntJ,~>
X8`1uJb.F`!;EPoJ,~>
X8`2!Jbdjl!;ihsJ,~>
X8`2!Jc"!p!;rntJ,~>
X8`1uJb.F`!;EPoJ,~>
X8`2!Jbdjl!;ihsJ,~>
X8`2!Jc"!p!;rntJ,~>
X8`1uJb.F`!;EPoJ,~>
X8`2!Jbdjl!;ihsJ,~>
X8`2!Jc"!p!;rntJ,~>
X8`1uJb.F`!;EPoJ,~>
X8`2!Jbdjl!;ihsJ,~>
X8`2!Jc"!p!;rntJ,~>
X8`1uJb.F`!;EPoJ,~>
X8`2!Jbdjl!;ihsJ,~>
X8`2!Jc"!p!;rntJ,~>
X8`1uJb.F`!;EPoJ,~>
X8`2!Jbdjl!;ihsJ,~>
X8`2!Jc"!p!;rntJ,~>
X8`1uJb.F`!;EPoJ,~>
X8`2!Jbdjl!;ihsJ,~>
X8`2!Jc"!p!;rntJ,~>
X8`1uJb.F`!;EPoJ,~>
X8`2!Jbdjl!;ihsJ,~>
X8`2!Jc"!p!;rntJ,~>
X8`1uJb.F`!;EPoJ,~>
X8`2!Jbdjl!;ihsJ,~>
X8`2!Jc"!p!;rntJ,~>
X8`1uJb.F`!;EPoJ,~>
X8`2!Jbdjl!;ihsJ,~>
X8`2!Jc"!p!;rntJ,~>
X8`1uJb.F`!;EPoJ,~>
X8`2!Jbdjl!;ihsJ,~>
X8`2!Jc"!p!;rntJ,~>
X8`1uJb.F`!;EPoJ,~>
X8`2!Jbdjl!;ihsJ,~>
X8`2!Jc"!p!;rntJ,~>
X8`1uJb.F`!;EPoJ,~>
X8`2!Jbdjl!;ihsJ,~>
X8`2!Jc"!p!;rntJ,~>
X8`1uJb.F`!;EPoJ,~>
X8`2!Jbdjl!;ihsJ,~>
X8`2!Jc"!p!;rntJ,~>
X8`1uJb.F`!;EPoJ,~>
X8`2!Jbdjl!;ihsJ,~>
X8`2!Jc"!p!;rntJ,~>
X8`1uJb.F`!;EPoJ,~>
X8`2!Jbdjl!;ihsJ,~>
X8`2!Jc"!p!;rntJ,~>
X8`1uJb.F`!;EPoJ,~>
X8`2!Jbdjl!;ihsJ,~>
X8`2!Jc"!p!;rntJ,~>
X8`1uJb.F`!;EPoJ,~>
X8`2!Jbdjl!;ihsJ,~>
X8`2!Jc"!p!;rntJ,~>
X8`1uJb.F`!;EPoJ,~>
X8`2!Jbdjl!;ihsJ,~>
X8`2!Jc"!p!;rntJ,~>
X8`1uJb.F`!;EPoJ,~>
X8`2!Jbdjl!;ihsJ,~>
X8`2!Jc"!p!;rntJ,~>
X8`1uJb.F`!;EPoJ,~>
X8`2!Jbdjl!;ihsJ,~>
X8`2!Jc"!p!;rntJ,~>
X8`1uJb.F`!;EPoJ,~>
X8`2!Jbdjl!;ihsJ,~>
X8`2!Jc"!p!;rntJ,~>
X8`1uJb.F`!;EPoJ,~>
X8`2!Jbdjl!;ihsJ,~>
X8`2!Jc"!p!;rntJ,~>
X8`1uJb.F`!;EPoJ,~>
X8`2!Jbdjl!;ihsJ,~>
X8`2!Jc"!p!;rntJ,~>
X8`1uJb.F`!;EPoJ,~>
X8`2!Jbdjl!;ihsJ,~>
X8`2!Jc"!p!;rntJ,~>
X8`1uJb.F`!;EPoJ,~>
X8`2!Jbdjl!;ihsJ,~>
X8`2!Jc"!p!;rntJ,~>
X8`1uJb.F`!;EPoJ,~>
X8`2!Jbdjl!;ihsJ,~>
X8`2!Jc"!p!;rntJ,~>
X8`1uJb.F`!;EPoJ,~>
X8`2!Jbdjl!;ihsJ,~>
X8`2!Jc"!p!;rntJ,~>
X8`1uJb.F`!;EPoJ,~>
X8`2!Jbdjl!;ihsJ,~>
X8`2!Jc"!p!;rntJ,~>
X8`1uJb.F`!;EPoJ,~>
X8`2!Jbdjl!;ihsJ,~>
X8`2!Jc"!p!;rntJ,~>
X8`1uJb.F`!;EPoJ,~>
X8`2!Jbdjl!;ihsJ,~>
X8`2!Jc"!p!;rntJ,~>
X8`1uJb.F`!;EPoJ,~>
X8`2!Jbdjl!;ihsJ,~>
X8`2!Jc"!p!;rntJ,~>
X8`1uJb.F`!;EPoJ,~>
X8`2!Jbdjl!;ihsJ,~>
X8`2!Jc"!p!;rntJ,~>
X8`1uJb.F`!;EPoJ,~>
X8`2!Jbdjl!;ihsJ,~>
X8`2!Jc"!p!;rntJ,~>
X8`1uJb.F`!;EPoJ,~>
X8`2!Jbdjl!;ihsJ,~>
X8`2!Jc"!p!;rntJ,~>
X8`1uJb.F`!;EPoJ,~>
X8`2!Jbdjl!;ihsJ,~>
X8`2!Jc"!p!;rntJ,~>
X8`1uJb.F`!;EPoJ,~>
X8`2!Jbdjl!;ihsJ,~>
X8`2!Jc"!p!;rntJ,~>
X8`1uJb.F`!;EPoJ,~>
X8`2!Jbdjl!;ihsJ,~>
X8`2!Jc"!p!;rntJ,~>
X8`1uJb.F`!;EPoJ,~>
X8`2!Jbdjl!;ihsJ,~>
X8`2!Jc"!p!;rntJ,~>
X8`1uJb.F`!;EPoJ,~>
X8`2!Jbdjl!;ihsJ,~>
X8`2!Jc"!p!;rntJ,~>
X8`1uJb.F`!;EPoJ,~>
X8`2!Jbdjl!;ihsJ,~>
X8`2!Jc"!p!;rntJ,~>
X8`1uJb.F`!;EPoJ,~>
X8`2!Jbdjl!;ihsJ,~>
X8`2!Jc"!p!;rntJ,~>
X8`1uJb.F`!;EPoJ,~>
X8`2!Jbdjl!;ihsJ,~>
X8`2!Jc"!p!;rntJ,~>
X8`1uJb.F`!;EPoJ,~>
X8`2!Jbdjl!;ihsJ,~>
X8`2!Jc"!p!;rntJ,~>
X8`1uJb.F`!;EPoJ,~>
X8`2!Jbdjl!;ihsJ,~>
X8`2!Jc"!p!;rntJ,~>
X8`1uJb.F`!;EPoJ,~>
X8`2!Jbdjl!;ihsJ,~>
X8`2!Jc"!p!;rntJ,~>
X8`1uJb.F`!;EPoJ,~>
X8`2!Jbdjl!;ihsJ,~>
X8`2!Jc"!p!;rntJ,~>
X8`1uJb.F`!;EPoJ,~>
X8`2!Jbdjl!;ihsJ,~>
X8`2!Jc"!p!;rntJ,~>
X8`1uJb.F`!;EPoJ,~>
X8`2!Jbdjl!;ihsJ,~>
X8`2!Jc"!p!;rntJ,~>
X8`1uJb.F`!;EPoJ,~>
X8`2!Jbdjl!;ihsJ,~>
X8`2!Jc"!p!;rntJ,~>
X8`1uJb.F`!;EPoJ,~>
X8`2!Jbdjl!;ihsJ,~>
X8`2!Jc"!p!;rntJ,~>
X8`1uJb.F`!;EPoJ,~>
X8`2!Jbdjl!;ihsJ,~>
X8`2!Jc"!p!;rntJ,~>
X8`1uJb.F`!;EPoJ,~>
X8`2!Jbdjl!;ihsJ,~>
X8`2!Jc"!p!;rntJ,~>
X8`1uJb.F`!;EPoJ,~>
X8`2!Jbdjl!;ihsJ,~>
X8`2!Jc"!p!;rntJ,~>
X8`1uJb.F`!;EPoJ,~>
X8`2!Jbdjl!;ihsJ,~>
X8`2!Jc"!p!;rntJ,~>
X8`1uJb.F`!;EPoJ,~>
X8`2!Jbdjl!;ihsJ,~>
X8`2!Jc"!p!;rntJ,~>
X8`1uJb.F`!;EPoJ,~>
X8`2!Jbdjl!;ihsJ,~>
X8`2!Jc"!p!;rntJ,~>
X8`1uJb.F`!;EPoJ,~>
X8`2!Jbdjl!;ihsJ,~>
X8`2!Jc"!p!;rntJ,~>
X8`1uJb.F`!;EPoJ,~>
X8`2!Jbdjl!;ihsJ,~>
X8`2!Jc"!p!;rntJ,~>
X8`1uJb.F`!;EPoJ,~>
X8`2!Jbdjl!;ihsJ,~>
X8`2!Jc"!p!;rntJ,~>
X8`1uJb.F`!;EPoJ,~>
X8`2!Jbdjl!;ihsJ,~>
X8`2!Jc"!p!;rntJ,~>
X8`1uJb.F`!;EPoJ,~>
X8`2!Jbdjl!;ihsJ,~>
X8`2!Jc"!p!;rntJ,~>
X8`1uJb.F`!;EPoJ,~>
X8`2!Jbdjl!;ihsJ,~>
X8`2!Jc"!p!;rntJ,~>
X8`1uJb.F`!;EPoJ,~>
X8`2!Jbdjl!;ihsJ,~>
X8`2!Jc"!p!;rntJ,~>
X8`1uJb.F`!;EPoJ,~>
X8`2!Jbdjl!;ihsJ,~>
X8`2!Jc"!p!;rntJ,~>
X8`1uJb.F`!;EPoJ,~>
X8`2!Jbdjl!;ihsJ,~>
X8`2!Jc"!p!;rntJ,~>
X8`1uJb.F`!;EPoJ,~>
X8`2!Jbdjl!;ihsJ,~>
X8`2!Jc"!p!;rntJ,~>
X8`1uJb.F`!;EPoJ,~>
X8`2!Jbdjl!;ihsJ,~>
X8`2!Jc"!p!;rntJ,~>
X8`1uJb.F`!;EPoJ,~>
X8`2!Jbdjl!;ihsJ,~>
X8`2!Jc"!p!;rntJ,~>
X8`1uJb.F`!;EPoJ,~>
X8`2!Jbdjl!;ihsJ,~>
X8`2!Jc"!p!;rntJ,~>
X8`1uJb.F`!;EPoJ,~>
X8`2!Jbdjl!;ihsJ,~>
X8`2!Jc"!p!;rntJ,~>
X8`1uJb.F`!;EPoJ,~>
X8`2!Jbdjl!;ihsJ,~>
X8`2!Jc"!p!;rntJ,~>
X8`1uJb.F`!;EPoJ,~>
X8`2!Jbdjl!;ihsJ,~>
X8`2!Jc"!p!;rntJ,~>
X8`1uJb.F`!;EPoJ,~>
X8`2!Jbdjl!;ihsJ,~>
X8`2!Jc"!p!;rntJ,~>
X8`1uJb.F`!;EPoJ,~>
X8`2!Jbdjl!;ihsJ,~>
X8`2!Jc"!p!;rntJ,~>
X8`1uJb.F`!;EPoJ,~>
X8`2!Jbdjl!;ihsJ,~>
X8`2!Jc"!p!;rntJ,~>
X8`1uJb.F`!;EPoJ,~>
X8`2!Jbdjl!;ihsJ,~>
X8`2!Jc"!p!;rntJ,~>
X8`1uJb.F`!;EPoJ,~>
X8`2!Jbdjl!;ihsJ,~>
X8`2!Jc"!p!;rntJ,~>
X8`1uJb.F`!;EPoJ,~>
X8`2!Jbdjl!;ihsJ,~>
X8`2!Jc"!p!;rntJ,~>
X8`1uJb.F`!;EPoJ,~>
X8`2!Jbdjl!;ihsJ,~>
X8`2!Jc"!p!;rntJ,~>
X8`1uJb.F`!;EPoJ,~>
X8`2!Jbdjl!;ihsJ,~>
X8`2!Jc"!p!;rntJ,~>
X8`1uJb.F`!;EPoJ,~>
X8`2!Jbdjl!;ihsJ,~>
X8`2!Jc"!p!;rntJ,~>
X8`1uJb.F`!;EPoJ,~>
X8`2!Jbdjl!;ihsJ,~>
X8`2!Jc"!p!;rntJ,~>
X8`1uJb.F`!;EPoJ,~>
X8`2!Jbdjl!;ihsJ,~>
X8`2!Jc"!p!;rntJ,~>
X8`1uJb.F`!;EPoJ,~>
X8`2!Jbdjl!;ihsJ,~>
X8`2!Jc"!p!;rntJ,~>
X8`1uJb.F`!;EPoJ,~>
X8`2!Jbdjl!;ihsJ,~>
X8`2!Jc"!p!;rntJ,~>
X8`1uJb.F`!;EPoJ,~>
X8`2!Jbdjl!;ihsJ,~>
X8`2!Jc"!p!;rntJ,~>
X8`1uJb.F`!;EPoJ,~>
X8`2!Jbdjl!;ihsJ,~>
X8`2!Jc"!p!;rntJ,~>
X8`1uJb.F`!;EPoJ,~>
X8`2!Jbdjl!;ihsJ,~>
X8`2!Jc"!p!;rntJ,~>
X8`1uJb.F`!;EPoJ,~>
X8`2!Jbdjl!;ihsJ,~>
X8`2!Jc"!p!;rntJ,~>
X8`1uJb.F`!;EPoJ,~>
X8`2!Jbdjl!;ihsJ,~>
X8`2!Jc"!p!;rntJ,~>
X8`1uJb.F`!;EPoJ,~>
X8`2!Jbdjl!;ihsJ,~>
X8`2!Jc"!p!;rntJ,~>
X8`1uJb.F`!;EPoJ,~>
X8`2!Jbdjl!;ihsJ,~>
X8`2!Jc"!p!;rntJ,~>
X8`1uJb.F`!;EPoJ,~>
X8`2!Jbdjl!;ihsJ,~>
X8`2!Jc"!p!;rntJ,~>
X8`1uJb.F`!;EPoJ,~>
X8`2!Jbdjl!;ihsJ,~>
X8`2!Jc"!p!;rntJ,~>
X8`1uJb.F`!;EPoJ,~>
X8`2!Jbdjl!;ihsJ,~>
X8`2!Jc"!p!;rntJ,~>
X8`1uJb.F`!;EPoJ,~>
X8`2!Jbdjl!;ihsJ,~>
X8`2!Jc"!p!;rntJ,~>
X8`1uJb.F`!;EPoJ,~>
X8`2!Jbdjl!;ihsJ,~>
X8`2!Jc"!p!;rntJ,~>
X8`1uJb.F`!;EPoJ,~>
X8`2!Jbdjl!;ihsJ,~>
X8`2!Jc"!p!;rntJ,~>
X8`1uJb.F`!;EPoJ,~>
X8`2!Jbdjl!;ihsJ,~>
X8`2!Jc"!p!;rntJ,~>
X8`1uJb.F`!;EPoJ,~>
X8`2!Jbdjl!;ihsJ,~>
X8`2!Jc"!p!;rntJ,~>
X8`1uJb.F`!;EPoJ,~>
X8`2!Jbdjl!;ihsJ,~>
X8`2!Jc"!p!;rntJ,~>
X8`1uJb.F`!;EPoJ,~>
X8`2!Jbdjl!;ihsJ,~>
X8`2!Jc"!p!;rntJ,~>
X8`1uJb.F`!;EPoJ,~>
X8`2!Jbdjl!;ihsJ,~>
X8`2!Jc"!p!;rntJ,~>
X8`1uJb.F`!;EPoJ,~>
X8`2!Jbdjl!;ihsJ,~>
X8`2!Jc"!p!;rntJ,~>
X8`1uJb.F`!;EPoJ,~>
X8`2!Jbdjl!;ihsJ,~>
X8`2!Jc"!p!;rntJ,~>
X8`1uJb.F`!;EPoJ,~>
X8`2!Jbdjl!;ihsJ,~>
X8`2!Jc"!p!;rntJ,~>
X8`1uJb.F`!;EPoJ,~>
X8`2!Jbdjl!;ihsJ,~>
X8`2!Jc"!p!;rntJ,~>
X8`1uJb.F`!;EPoJ,~>
X8`2!Jbdjl!;ihsJ,~>
X8`2!Jc"!p!;rntJ,~>
X8`1uJb.F`!;EPoJ,~>
X8`2!Jbdjl!;ihsJ,~>
X8`2!Jc"!p!;rntJ,~>
X8`1uJb.F`!;EPoJ,~>
X8`2!Jbdjl!;ihsJ,~>
X8`2!Jc"!p!;rntJ,~>
X8`1uJb.F`!;EPoJ,~>
X8`2!Jbdjl!;ihsJ,~>
X8`2!Jc"!p!;rntJ,~>
X8`1uJb.F`!;EPoJ,~>
X8`2!Jbdjl!;ihsJ,~>
X8`2!Jc"!p!;rntJ,~>
X8`1uJb.F`!;EPoJ,~>
X8`2!Jbdjl!;ihsJ,~>
X8`2!Jc"!p!;rntJ,~>
X8`1uJb.F`!;EPoJ,~>
X8`2!Jbdjl!;ihsJ,~>
X8`2!Jc"!p!;rntJ,~>
X8`1uJb.F`!;EPoJ,~>
X8`2!Jbdjl!;ihsJ,~>
X8`2!Jc"!p!;rntJ,~>
X8`1uJb.F`!;EPoJ,~>
X8`2!Jbdjl!;ihsJ,~>
X8`2!Jc"!p!;rntJ,~>
X8`1uJb.F`!;EPoJ,~>
X8`2!Jbdjl!;ihsJ,~>
X8`2!Jc"!p!;rntJ,~>
X8`1uJb.F`!;EPoJ,~>
X8`2!Jbdjl!;ihsJ,~>
X8`2!Jc"!p!;rntJ,~>
X8`1uJb.F`!;EPoJ,~>
X8`2!Jbdjl!;ihsJ,~>
X8`2!Jc"!p!;rntJ,~>
X8`1uJb.F`!;EPoJ,~>
X8`2!Jbdjl!;ihsJ,~>
X8`2!Jc"!p!;rntJ,~>
X8`1uJb.F`!;EPoJ,~>
X8`2!Jbdjl!;ihsJ,~>
X8`2!Jc"!p!;rntJ,~>
X8`1uJb.F`!;EPoJ,~>
X8`2!Jbdjl!;ihsJ,~>
X8`2!Jc"!p!;rntJ,~>
X8`1uJb.F`!;EPoJ,~>
X8`2!Jbdjl!;ihsJ,~>
X8`2!Jc"!p!;rntJ,~>
X8`1uJb.F`!;EPoJ,~>
X8`2!Jbdjl!;ihsJ,~>
X8`2!Jc"!p!;rntJ,~>
X8`1uJb.F`!;EPoJ,~>
X8`2!Jbdjl!;ihsJ,~>
X8`2!Jc"!p!;rntJ,~>
X8`1uJb.F`!;EPoJ,~>
X8`2!Jbdjl!;ihsJ,~>
X8`2!Jc"!p!;rntJ,~>
X8`1uJb.F`!;EPoJ,~>
X8`2!Jbdjl!;ihsJ,~>
X8`2!Jc"!p!;rntJ,~>
X8`1uJb.F`!;EPoJ,~>
X8`2!Jbdjl!;ihsJ,~>
X8`2!Jc"!p!;rntJ,~>
X8`1uJb.F`!;EPoJ,~>
X8`2!Jbdjl!;ihsJ,~>
X8`2!Jc"!p!;rntJ,~>
X8`1uJb.F`!;EPoJ,~>
X8`2!Jbdjl!;ihsJ,~>
X8`2!Jc"!p!;rntJ,~>
X8`1uJb.F`!;EPoJ,~>
X8`2!Jbdjl!;ihsJ,~>
X8`2!Jc"!p!;rntJ,~>
X8`1uJb.F`!;EPoJ,~>
X8`2!Jbdjl!;ihsJ,~>
X8`2!Jc"!p!;rntJ,~>
X8`1uJb.F`!;EPoJ,~>
X8`2!Jbdjl!;ihsJ,~>
X8`2!Jc"!p!;rntJ,~>
X8`1uJb.F`!;EPoJ,~>
X8`2!Jbdjl!;ihsJ,~>
X8`2!Jc"!p!;rntJ,~>
X8`1uJb.F`!;EPoJ,~>
X8`2!Jbdjl!;ihsJ,~>
X8`2!Jc"!p!;rntJ,~>
X8`1uJb.F`!;EPoJ,~>
X8`2!Jbdjl!;ihsJ,~>
X8`2!Jc"!p!;rntJ,~>
X8`1uJb.F`!;EPoJ,~>
X8`2!Jbdjl!;ihsJ,~>
X8`2!Jc"!p!;rntJ,~>
X8`1uJb.F`!;EPoJ,~>
X8`2!Jbdjl!;ihsJ,~>
X8`2!Jc"!p!;rntJ,~>
X8`1uJb.F`!;EPoJ,~>
X8`2!Jbdjl!;ihsJ,~>
X8`2!Jc"!p!;rntJ,~>
X8`1uJb.F`!;EPoJ,~>
X8`2!Jbdjl!;ihsJ,~>
X8`2!Jc"!p!;rntJ,~>
X8`1uJb.F`!;EPoJ,~>
X8`2!Jbdjl!;ihsJ,~>
X8`2!Jc"!p!;rntJ,~>
X8`1uJb.F`!;EPoJ,~>
X8`2!Jbdjl!;ihsJ,~>
X8`2!Jc"!p!;rntJ,~>
X8`1uJb.F`!;EPoJ,~>
X8`2!Jbdjl!;ihsJ,~>
X8`2!Jc"!p!;rntJ,~>
X8`1uJb.F`!;EPoJ,~>
X8`2!Jbdjl!;ihsJ,~>
X8`2!Jc"!p!;rntJ,~>
X8`1uJb.F`!;EPoJ,~>
X8`2!Jbdjl!;ihsJ,~>
X8`2!Jc"!p!;rntJ,~>
X8`1uJb.F`!;EPoJ,~>
X8`2!Jbdjl!;ihsJ,~>
X8`2!Jc"!p!;rntJ,~>
X8`1uJb.F`!;EPoJ,~>
X8`2!Jbdjl!;ihsJ,~>
X8`2!Jc"!p!;rntJ,~>
X8`1uJb.F`!;EPoJ,~>
X8`2!Jbdjl!;ihsJ,~>
X8`2!Jc"!p!;rntJ,~>
X8`1uJb.F`!;EPoJ,~>
X8`2!Jbdjl!;ihsJ,~>
X8`2!Jc"!p!;rntJ,~>
X8`1uJb.F`!;EPoJ,~>
X8`2!Jbdjl!;ihsJ,~>
X8`2!Jc"!p!;rntJ,~>
X8`1uJb.F`!;EPoJ,~>
X8`2!Jbdjl!;ihsJ,~>
X8`2!Jc"!p!;rntJ,~>
X8`1uJb.F`!;EPoJ,~>
X8`2!Jbdjl!;ihsJ,~>
X8`2!Jc"!p!;rntJ,~>
X8`1uJb.F`!;EPoJ,~>
X8`2!Jbdjl!;ihsJ,~>
X8`2!Jc"!p!;rntJ,~>
X8`1uJb.F`!;EPoJ,~>
X8`2!Jbdjl!;ihsJ,~>
X8`2!Jc"!p!;rntJ,~>
X8`1uJb.F`!;EPoJ,~>
X8`2!Jbdjl!;ihsJ,~>
X8`2!Jc"!p!;rntJ,~>
X8`1uJb.F`!;EPoJ,~>
X8`2!Jbdjl!;ihsJ,~>
X8`2!Jc"!p!;rntJ,~>
X8`1uJb.F`!;EPoJ,~>
X8`2!Jbdjl!;ihsJ,~>
X8`2!Jc"!p!;rntJ,~>
X8`1uJb.F`!;EPoJ,~>
X8`2!Jbdjl!;ihsJ,~>
X8`2!Jc"!p!;rntJ,~>
X8`1uJb.F`!;EPoJ,~>
X8`2!Jbdjl!;ihsJ,~>
X8`2!Jc"!p!;rntJ,~>
X8`1uJb.F`!;EPoJ,~>
X8`2!Jbdjl!;ihsJ,~>
X8`2!Jc"!p!;rntJ,~>
X8`1uJb.F`!;EPoJ,~>
X8`2!Jbdjl!;ihsJ,~>
X8`2!Jc"!p!;rntJ,~>
X8`1uJb.F`!;EPoJ,~>
X8`2!Jbdjl!;ihsJ,~>
X8`2!Jc"!p!;rntJ,~>
X8`1uJb.F`!;EPoJ,~>
X8`2!Jbdjl!;ihsJ,~>
X8`2!Jc"!p!;rntJ,~>
X8`1uJb.F`!;EPoJ,~>
X8`2!Jbdjl!;ihsJ,~>
X8`2!Jc"!p!;rntJ,~>
X8`1uJb.F`!;EPoJ,~>
X8`2!Jbdjl!;ihsJ,~>
X8`2!Jc"!p!;rntJ,~>
X8`1uJb.F`!;EPoJ,~>
X8`2!Jbdjl!;ihsJ,~>
X8`2!Jc"!p!;rntJ,~>
X8`1uJb.F`!;EPoJ,~>
X8`2!Jbdjl!;ihsJ,~>
X8`2!Jc"!p!;rntJ,~>
X8`1uJb.F`!;EPoJ,~>
X8`2!Jbdjl!;ihsJ,~>
X8`2!Jc"!p!;rntJ,~>
X8`1uJb.F`!;EPoJ,~>
X8`2!Jbdjl!;ihsJ,~>
X8`2!Jc"!p!;rntJ,~>
X8`1uJb.F`!;EPoJ,~>
X8`2!Jbdjl!;ihsJ,~>
X8`2!Jc"!p!;rntJ,~>
X8`1uJb.F`!;EPoJ,~>
X8`2!Jbdjl!;ihsJ,~>
X8`2!Jc"!p!;rntJ,~>
X8`1uJb.F`!;EPoJ,~>
X8`2!Jbdjl!;ihsJ,~>
X8`2!Jc"!p!;rntJ,~>
X8`1uJb.F`!;EPoJ,~>
X8`2!Jbdjl!;ihsJ,~>
X8`2!Jc"!p!;rntJ,~>
X8`1uJb.F`!;EPoJ,~>
X8`2!Jbdjl!;ihsJ,~>
X8`2!Jc"!p!;rntJ,~>
X8`1uJb.F`!;EPoJ,~>
X8`2!Jbdjl!;ihsJ,~>
X8`2!Jc"!p!;rntJ,~>
X8`1uJb.F`!;EPoJ,~>
X8`2!Jbdjl!;ihsJ,~>
X8`2!Jc"!p!;rntJ,~>
X8`1uJb.F`!;EPoJ,~>
X8`2!Jbdjl!;ihsJ,~>
X8`2!Jc"!p!;rntJ,~>
X8`1uJb.F`!;EPoJ,~>
X8`2!Jbdjl!;ihsJ,~>
X8`2!Jc"!p!;rntJ,~>
X8`1uJb.F`!;EPoJ,~>
X8`2!Jbdjl!;ihsJ,~>
X8`2!Jc"!p!;rntJ,~>
X8`1uJb.F`!;EPoJ,~>
X8`2!Jbdjl!;ihsJ,~>
X8`2!Jc"!p!;rntJ,~>
X8`1uJb.F`!;EPoJ,~>
X8`2!Jbdjl!;ihsJ,~>
X8`2!Jc"!p!;rntJ,~>
X8`1uJb.F`!;EPoJ,~>
X8`2!Jbdjl!;ihsJ,~>
X8`2!Jc"!p!;rntJ,~>
X8`1uJb.F`!;EPoJ,~>
X8`2!Jbdjl!;ihsJ,~>
X8`2!Jc"!p!;rntJ,~>
X8`1uJb.F`!;EPoJ,~>
X8`2!Jbdjl!;ihsJ,~>
X8`2!Jc"!p!;rntJ,~>
X8`1uJb.F`!;EPoJ,~>
X8`2!Jbdjl!;ihsJ,~>
X8`2!Jc"!p!;rntJ,~>
X8`1uJb.F`!;EPoJ,~>
X8`2!Jbdjl!;ihsJ,~>
X8`2!Jc"!p!;rntJ,~>
X8`1uJb.F`!;EPoJ,~>
X8`2!Jbdjl!;ihsJ,~>
X8`2!Jc"!p!;rntJ,~>
X8`1uJb.F`!;EPoJ,~>
X8`2!Jbdjl!;ihsJ,~>
X8`2!Jc"!p!;rntJ,~>
X8`1uJb.F`!;EPoJ,~>
X8`2!Jbdjl!;ihsJ,~>
X8`2!Jc"!p!;rntJ,~>
X8`1uJb.F`!;EPoJ,~>
X8`2!Jbdjl!;ihsJ,~>
X8`2!Jc"!p!;rntJ,~>
X8`1uJb.F`!;EPoJ,~>
X8`2!Jbdjl!;ihsJ,~>
X8`2!Jc"!p!;rntJ,~>
X8`1uJb.F`!;EPoJ,~>
X8`2!Jbdjl!;ihsJ,~>
X8`2!Jc"!p!;rntJ,~>
X8`1uJb.F`!;EPoJ,~>
X8`2!Jbdjl!;ihsJ,~>
X8`2!Jc"!p!;rntJ,~>
X8`1uJb.F`!;EPoJ,~>
X8`2!Jbdjl!;ihsJ,~>
X8`2!Jc"!p!;rntJ,~>
X8`1uJb.F`!;EPoJ,~>
X8`2!Jbdjl!;ihsJ,~>
X8`2!Jc"!p!;rntJ,~>
X8`1uJb.F`!;EPoJ,~>
X8`2!Jbdjl!;ihsJ,~>
X8`2!Jc"!p!;rntJ,~>
X8`1uJb.F`!;EPoJ,~>
X8`2!Jbdjl!;ihsJ,~>
X8`2!Jc"!p!;rntJ,~>
X8`1uJb.F`!;EPoJ,~>
X8`2!Jbdjl!;ihsJ,~>
X8`2!Jc"!p!;rntJ,~>
X8`1uJb.F`!;EPoJ,~>
X8`2!Jbdjl!;ihsJ,~>
X8`2!Jc"!p!;rntJ,~>
X8`1uJb.F`!;EPoJ,~>
X8`2!Jbdjl!;ihsJ,~>
X8`2!Jc"!p!;rntJ,~>
X8`1uJb.F`!;EPoJ,~>
X8`2!Jbdjl!;ihsJ,~>
X8`2!Jc"!p!;rntJ,~>
X8`1uJb.F`!;EPoJ,~>
X8`2!Jbdjl!;ihsJ,~>
X8`2!Jc"!p!;rntJ,~>
X8`1uJb.F`!;EPoJ,~>
X8`2!Jbdjl!;ihsJ,~>
X8`2!Jc"!p!;rntJ,~>
X8`1uJb.F`!;EPoJ,~>
X8`2!Jbdjl!;ihsJ,~>
X8`2!Jc"!p!;rntJ,~>
X8`1uJb.F`!;EPoJ,~>
X8`2!Jbdjl!;ihsJ,~>
X8`2!Jc"!p!;rntJ,~>
X8`1uJb.F`!;EPoJ,~>
X8`2!Jbdjl!;ihsJ,~>
X8`2!Jc"!p!;rntJ,~>
X8`1uJb.F`!;EPoJ,~>
X8`2!Jbdjl!;ihsJ,~>
X8`2!Jc"!p!;rntJ,~>
X8`1uJb.F`!;EPoJ,~>
X8`2!Jbdjl!;ihsJ,~>
X8`2!Jc"!p!;rntJ,~>
X8`1uJb.F`!;EPoJ,~>
X8`2!Jbdjl!;ihsJ,~>
X8`2!Jc"!p!;rntJ,~>
X8`1uJb.F`!;EPoJ,~>
X8`2!Jbdjl!;ihsJ,~>
X8`2!Jc"!p!;rntJ,~>
X8`1uJb.F`!;EPoJ,~>
X8`2!Jbdjl!;ihsJ,~>
X8`2!Jc"!p!;rntJ,~>
X8`1uJb.F`!;EPoJ,~>
X8`2!Jbdjl!;ihsJ,~>
X8`2!Jc"!p!<&tuJ,~>
X8`1uJb.F`!;EPoJ,~>
!<'"r!;_9BeG60BJ,~>
!<23[`Vff7Jc!soXS`(sJ,~>
!;ikl!;1p7eFTd9!;M'~>
!WW%Jq18@Aq#LGF~>
!WW+LqgnXFqZ6WpJ,~>
!WVqGo7?M6o)\L`J,~>
s8N)rJbalmXSMnrJ,~>
s8N)tJbt#qXnr1ts8RT~>
s8N)oJb+HaXn)Vds8RT~>
rr2uqJbalmY5/(sJ,~>
rr2usJbt#qYPS=trr7K~>
rr2unJb+HaYO_bdrr7K~>
rVllpJbalmYke7tJ,~>
rVllrJbt#qZ24P!rVqB~>
rVllmJb+HaZ1@tfrVqB~>
r;QcoJbalmZMFFuJ,~>
r;QcqJbt#qZhjb#r;V9~>
r;QclJb+HaZh"1hr;V9~>
qu6ZnJbalm[/'V!J,~>
qu6ZpJbt#q[JKt%qu;0~>
qu6ZkJb+Ha[IXCjqu;0~>
qYpQmJbalm[e]e"J,~>
qYpQoJbt#q\,-1'qYu'~>
qYpQjJb+Ha\+9UlqYu'~>
q>UHlJbalm\G>t#J,~>
q>UHnJbt#q\bcC)q>Ys~>
q>UHiJb+Ha\aognq>Ys~>
q#:?kJbalm](u.$J,~>
q#:?mJbt#q]DDU+q#>j~>
q#:?hJb+Ha]CQ$pq#>j~>
p\t6jJbalm]_V=%J,~>
p\t6lJbt#q^&%g-p]#a~>
p\t6gJb+Ha^%26rp]#a~>
pAY-iJbalm^A7L&J,~>
pAY-kJbt#q^\\$/pA]X~>
pAY-fJb+Ha^[hHtpA]X~>
p&>$hJbalm_"m['J,~>
p&>$jJbt#q_>=61p&BO~>
p&>$eJb+Ha_=I[!p&BO~>
o`"pgJbalm_YNj(J,~>
o`"piJbt#q_tsH3o`'F~>
o`"pdJb+Ha_t*m#o`'F~>
oD\gfJbalm`;0$)J,~>
oD\ghJbt#q`VTZ5oDa=~>
oD\gcJb+Ha`Ua*%oDa=~>
o)A^eJbalm`qf3*J,~>
o)A^gJbt#qa85l7o)F4~>
o)A^bJb+Haa7B<'o)F4~>
nc&UdJbalmaSGB+J,~>
nc&UfJbt#qanl)9nc++~>
nc&UaJb+Haan#N)nc++~>
nG`LcJbalmb5(Q,J,~>
nG`LeJbt#qbPM;;nGe"~>
nG`L`Jb+HabOY`+nGe"~>
n,ECbJbalmbk^`-J,~>
n,ECdJbt#qc2.M=n,In~>
n,EC_Jb+Hac1:r-n,In~>
mf*:aJbalmcM?o.J,~>
mf*:cJbt#qchd_?mf.e~>
mf*:^Jb+Hacgq//mf.e~>
mJd1`Jbalmd/!)/J,~>
mJd1bJbt#qdJEqAmJh\~>
mJd1]Jb+HadIRA1mJh\~>
m/I(_JbalmdeW80J,~>
m/I(aJbt#qe,'.Cm/MS~>
m/I(\Jb+Hae+3S3m/MS~>
li-t^JbalmeG8G1J,~>
li-t`Jbt#qeb]@Eli2J~>
li-t[Jb+Haeaie5li2J~>
lMgk]Jbalmf(nV2J,~>
lMgk_Jbt#qfD>RGlMlA~>
lMgkZJb+HafCK"7lMlA~>
l2Lb\Jbalmf_Oe3J,~>
l2Lb^Jbt#qg%tdIl2Q8~>
l2LbYJb+Hag%,49l2Q8~>
kl1Y[JbalmgA0t4J,~>
kl1Y]Jbt#qg\V!Kkl6/~>
kl1YXJb+Hag[bF;kl6/~>
kPkPZJbalmh"g.5J,~>
kPkP\Jbt#qh>73MkPp&~>
kPkPWJb+Hah=CX=kPp&~>
k5PGYJbalmhYH=6J,~>
k5PG[Jbt#qhtmEOk5Tr~>
k5PGVJb+Haht$j?k5Tr~>
jo5>XJbalmi;)L7J,~>
jo5>ZJbt#qiVNWQjo9i~>
jo5>UJb+HaiU['Ajo9i~>
jSo5WJbalmiq_[8J,~>
jSo5YJbt#qj8/iSjSs`~>
jSo5TJb+Haj7<9CjSs`~>
j8T,VJbalmjS@j9J,~>
j8T,XJbt#qjnf&Uj8XW~>
j8T,SJb+HajmrKEj8XW~>
ir9#UJbalmk5"$:J,~>
ir9#WJbt#qkPG8Wir=N~>
ir9#RJb+HakOS]Gir=N~>
iVroTJbalmkkX3;J,~>
iVroVJbt#ql2(JYiW"E~>
iVroQJb+Hal14oIiW"E~>
i;WfSJbalmlM9B<J,~>
i;WfUJbt#qlh^\[i;\<~>
i;WfPJb+Halgk,Ki;\<~>
hu<]RJbalmm.oQ=J,~>
hu<]TJbt#qmJ?n]huA3~>
hu<]OJb+HamIL>MhuA3~>
hZ!TQJbalmmeP`>J,~>
hZ!TSJbt#qn,!+_hZ&*~>
hZ!TNJb+Han+-POhZ&*~>
h>[KPJbalmnG1o?J,~>
h>[KRJbt#qnbW=ah>`!~>
h>[KMJb+HanacbQh>`!~>
h#@BOJbalmo(h)@J,~>
h#@BQJbt#qoD8Och#Dm~>
h#@BLJb+HaoCDtSh#Dm~>
g]%9NJbalmo_I8AJ,~>
g]%9PJbt#qp%naeg])d~>
g]%9KJb+Hap%&1Ug])d~>
gA_0MJbalmpA*GBJ,~>
gA_0OJbt#qp\OsggAc[~>
gA_0JJb+Hap[\CWgAc[~>
g&D'LJbalmq"`VCJ,~>
g&D'NJbt#qq>10ig&HR~>
g&D'IJb+Haq==UYg&HR~>
f`(sKJbalmqYAeDJ,~>
f`(sMJbt#qqtgBkf`-I~>
f`(sHJb+Haqssg[f`-I~>
fDbjJJbalmr;"tEJ,~>
fDbjLJbt#qrVHTmfDg@~>
fDbjGJb+HarUU$]fDg@~>
f)GaIJbalmrqY.FJ,~>
f)GaKJbt#qs8)fof)L7~>
f)GaFJb+Has766_f)L7~>
ec,XHJbalm!;Y1FJ,~>
ec,XJJbt#q!;tCIJ,~>
ec,XEJb+Ha!;+hAJ,~>
eGfOGJbaoneGk%~>
eGfOIJbt)s!;t@HJ,~>
eGfODJb+Nc!;+e@J,~>
e,KFFJbaupe,Op~>
e,KFHJbt/u!;t=GJ,~>
e,KFCJb+Te!;+b?J,~>
df0=EJbb&rdf4g~>
df0=GJbt6"!;t:FJ,~>
df0=BJb+Zg!;+_>J,~>
dJj4DJbb,tdJn^~>
dJj4FJbt<$!;t7EJ,~>
dJj4AJb+`i!;+\=J,~>
d/O+CJbb3!d/SU~>
d/O+EJbtB&!;t4DJ,~>
d/O+@Jb+fk!;+Y<J,~>
ci4"BJbb9#ci8L~>
ci4"DJbtH(!;t1CJ,~>
ci4"?Jb+lm!;+V;J,~>
cMmnAJbb?%cMrC~>
cMmnCJbtN*!;t.BJ,~>
cMmn>Jb+ro!;+S:J,~>
c2Re@JbbE'c2W:~>
c2ReBJbtT,!;t+AJ,~>
c2Re=Jb,#q!;+P9J,~>
bl7\?JbbK)bl<1~>
bl7\AJbtZ.!;t(@J,~>
bl7\<Jb,)s!;+M8J,~>
bPqS>JbbQ+bQ!(~>
bPqS@Jbt`0!;t%?J,~>
bPqS;Jb,/u!;+J7J,~>
b5VJ=JbbW-b5Zt~>
b5VJ?Jbtf2!;t">J,~>
b5VJ:Jb,6"!;+G6J,~>
ao;A<Jbb]/ao?k~>
ao;A>Jbtl4!;st=J,~>
ao;A9Jb,<$!;+D5J,~>
aSu8;Jbbc1aT$b~>
aSu8=Jbtr6!;sq<J,~>
aSu88Jb,B&!;+A4J,~>
a8Z/:Jbbi3a8^Y~>
a8Z/<Jbu#8!;sn;J,~>
a8Z/7Jb,H(!;+>3J,~>
`r?&9Jbbo5`rCP~>
`r?&;Jbu):!;sk:J,~>
`r?&6Jb,N*!;+;2J,~>
`W#r8Jbbu7`W(G~>
`W#r:Jbu/<!;sh9J,~>
`W#r5Jb,T,!;+81J,~>
`;]i7Jbc&9`;b>~>
`;]i9Jbu5>!;se8J,~>
`;]i4Jb,Z.!;+50J,~>
_uB`6Jbc,;_uG5~>
_uB`8Jbu;@!;sb7J,~>
_uB`3Jb,`0!;+2/J,~>
_Z'W5Jbc2=_Z,,~>
_Z'W7JbuAB!;s_6J,~>
_Z'W2Jb,f2!;+/.J,~>
_>aN4Jbc8?_>f#~>
_>aN6JbuGD!;s\5J,~>
_>aN1Jb,l4!;+,-J,~>
_#FE3Jbc>A_#Jo~>
_#FE5JbuMF!;sY4J,~>
_#FE0Jb,r6!;+),J,~>
^]+<2JbcDC^]/f~>
^]+<4JbuSH!;sV3J,~>
^]+</Jb-#8!;+&+J,~>
^Ae31JbcJE^Ai]~>
^Ae33JbuYJ!;sS2J,~>
^Ae3.Jb-):!;+#*J,~>
^&J*0JbcPG^&NT~>
^&J*2Jbu_L!;sP1J,~>
^&J*-Jb-/<!;*u)J,~>
]`/!/JbcVI]`3K~>
]`/!1JbueN!;sM0J,~>
]`/!,Jb-5>!;*r(J,~>
]Dhm.Jbc\K]DmB~>
]Dhm0JbukP!;sJ/J,~>
]Dhm+Jb-;@!;*o'J,~>
])Md-JbcbM])R9~>
])Md/JbuqR!;sG.J,~>
])Md*Jb-AB!;*l&J,~>
\c2[,JbchO\c70~>
\c2[.Jc!"T!;sD-J,~>
\c2[)Jb-GD!;*i%J,~>
\GlR+JbcnQ\Gq'~>
\GlR-Jc!(V!;sA,J,~>
\GlR(Jb-MF!;*f$J,~>
\,QI*JbctS\,Us~>
\,QI,Jc!.X!;s>+J,~>
\,QI'Jb-SH!;*c#J,~>
[f6@)Jbd%U[f:j~>
[f6@+Jc!4Z!;s;*J,~>
[f6@&Jb-YJ!;*`"J,~>
[Jp7(Jbd+W[Jta~>
[Jp7*Jc!:\!;s8)J,~>
[Jp7%Jb-_L!;*]!J,~>
[/U.'Jbd1Y[/YX~>
[/U.)Jc!@^!;s5(J,~>
[/U.$Jb-eN!;*YuJ,~>
Zi:%&Jbd7[Zi>O~>
Zi:%(Jc!F`!;s2'J,~>
Zi:%#Jb-kP!;*VtJ,~>
ZMsq%Jbd=]ZN#F~>
ZMsq'Jc!Lb!;s/&J,~>
ZMsq"Jb-qR!;*SsJ,~>
Z2Xh$JbdC_Z2]=~>
Z2Xh&Jc!Rd!;s,%J,~>
Z2Xh!Jb."T!;*PrJ,~>
Yl=_#JbdIaYlB4~>
Yl=_%Jc!Xf!;s)$J,~>
Yl=^uJb.(V!;*MqJ,~>
YQ"V"JbdOcYQ'+~>
YQ"V$Jc!^h!;s&#J,~>
YQ"UtJb..X!;*JpJ,~>
Y5\M!JbdUeY5a"~>
Y5\M#Jc!dj!;s#"J,~>
Y5\LsJb.4Z!;*GoJ,~>
XoACuJbd[gXoEn~>
XoAD"Jc!jl!;ru!J,~>
XoACrJb.:\!;*DnJ,~>
XT&:tJbdaiXT*e~>
XT&;!Jc!pn!;rquJ,~>
XT&:qJb.@^!;*AmJ,~>
X8`1sJbdgkX8d\~>
X8`1uJc"!p!;rntJ,~>
X8`1pJb.F`!;*>lJ,~>
WrE(rJbdmmWrIS~>
WrE(tJc"'r!;rksJ,~>
WrE(oJb.Lb!;*;kJ,~>
WW)tqJbdsoWW.J~>
WW)tsJc"-t!;rhrJ,~>
WW)tnJb.Rd!;*8jJ,~>
W;ckpJbe$qW;hA~>
W;ckrJc"4!!;reqJ,~>
W;ckmJb.Xf!;*5iJ,~>
VuHboJbe*sVuM8~>
VuHbqJc":#!;rbpJ,~>
VuHblJb.^h!;*2hJ,~>
VZ-YnJbe0uVZ2/~>
VZ-YpJc"@%!;r_oJ,~>
VZ-YkJb.dj!;*/gJ,~>
V>gPmJbe7"V>l&~>
V>gPoJc"F'!;r\nJ,~>
V>gPjJb.jl!;*,fJ,~>
V#LGlJbe=$V#Pr~>
V#LGnJc"L)!;rYmJ,~>
V#LGiJb.pn!;*)eJ,~>
U]1>kJbeC&U]5i~>
U]1>mJc"R+!;rVlJ,~>
U]1>hJb/!p!;*&dJ,~>
UAk5jJbeI(UAo`~>
UAk5lJc"X-!;rSkJ,~>
UAk5gJb/'r!;*#cJ,~>
U&P,iJbeO*U&TW~>
U&P,kJc"^/!;rPjJ,~>
U&P,fJb/-t!;)ubJ,~>
T`5#hJbeU,T`9N~>
T`5#jJc"d1!;rMiJ,~>
T`5#eJb/4!!;)raJ,~>
TDnogJbe[.TDsE~>
TDnoiJc"j3!;rJhJ,~>
TDnodJb/:#!;)o`J,~>
T)SffJbea0T)X<~>
T)SfhJc"p5!;rGgJ,~>
T)SfcJb/@%!;)l_J,~>
Sc8]eJbeg2Sc=3~>
Sc8]gJc#!7!;rDfJ,~>
Sc8]bJb/F'!;)i^J,~>
SGrTdJbem4SH"*~>
SGrTfJc#'9!;rAeJ,~>
SGrTaJb/L)!;)f]J,~>
S,WKcJbes6S,\!~>
S,WKeJc#-;!;r>dJ,~>
S,WK`Jb/R+!;)c\J,~>
Rf<BbJbf$8Rf@m~>
Rf<BdJc#3=!;r;cJ,~>
Rf<B_Jb/X-!;)`[J,~>
RK!9aJbf*:RK%d~>
RK!9cJc#9?!;r8bJ,~>
RK!9^Jb/^/!;)]ZJ,~>
R/[0`Jbf0<R/_[~>
R/[0bJc#?A!;r5aJ,~>
R/[0]Jb/d1!;)ZYJ,~>
Qi@'_Jbf6>QiDR~>
Qi@'aJc#EC!;r2`J,~>
Qi@'\Jb/j3!;)WXJ,~>
QN$s^Jbf<@QN)I~>
QN$s`Jc#KE!;r/_J,~>
QN$s[Jb/p5!;)TWJ,~>
Q2^j]Jb]<AQ2c@~>
Q2^j_JboHFQ2c@~>
Q2^jZJb&m6Q2c@~>
PlCa\K)(Z2J,~>
PlCa^KDPZHPlH7~>
PlCaYKC]*8PlH7~>
PQ(X[K_^i3J,~>
PQ(X]L&1lJPQ-.~>
PQ(XXL%><:PQ-.~>
P5bOZLA@#4J,~>
P5bO\L\h)LP5g%~>
P5bOWL[tN<P5g%~>
OoGFYM#!25J,~>
OoGF[M>I;NOoKq~>
OoGFVM=U`>OoKq~>
OT,=XMYWA6J,~>
OT,=ZMu*MPOT0h~>
OT,=UMt6r@OT0h~>
O8f4WN;8P7J,~>
O8f4YNV`_RO8j_~>
O8f4TNUm/BO8j_~>
NrK+VNqn_8J,~>
NrK+XO8AqTNrOV~>
NrK+SO7NADNrOV~>
NW0"UOSOn9J,~>
NW0"WOo#.VNW4M~>
NW0"ROn/SFNW4M~>
N;inTP51(:J,~>
N;inVPPY@XN;nD~>
N;inQPOeeHN;nD~>
MuNeSPkg7;J,~>
MuNeUQ2:RZMuS;~>
MuNePQ1G"JMuS;~>
MZ3\RQMHF<J,~>
MZ3\TQhpd\MZ82~>
MZ3\OQh(4LMZ82~>
M>mSQR/)U=J,~>
M>mSSRJR!^M>r)~>
M>mSNRI^FNM>r)~>
M#RJPRe_d>J,~>
M#RJRS,33`M#Vu~>
M#RJMS+?XPM#Vu~>
L]7AOSG@s?J,~>
L]7AQSbiEbL];l~>
L]7ALSaujRL];l~>
LAq8NT)"-@J,~>
LAq8PTDJWdLAuc~>
LAq8KTCW'TLAuc~>
L&V/MT_X<AJ,~>
L&V/OU&+ifL&ZZ~>
L&V/JU%89VL&ZZ~>
K`;&LUA9KBJ,~>
K`;&NU\b&hK`?Q~>
K`;&IU[nKXK`?Q~>
KDtrKV"oZCJ,~>
KDtrMV>C8jKE$H~>
KDtrHV=O]ZKE$H~>
K)YiJVYPiDJ,~>
K)YiLVu$JlK)^?~>
K)YiGVt0o\K)^?~>
Jc>`IW;2#EJ,~>
Jc>`KWVZ\nJcC6~>
Jc>`FWUg,^JcC6~>
Jc>cNql9ICrrE(L~>
Jc>cNrN#eqr.4kJs*t~>
Jc>cNpoEudoR[#Bs*t~>
JcGcM!;iknJcGcMJ,~>
JcGcM!<'%s!;qEJs8RT~>
JcGcM!;N\f!;(jBs8RT~>
JcG`L!;iqpJcG`LJ,~>
JcG`L!<'+u!;qEJrr7K~>
JcG`L!;Nbh!;(jBrr7K~>
JcG]K!;j"rJcG]KJ,~>
JcG]K!<'2"!;qEJrVqB~>
JcG]K!;Nhj!;(jBrVqB~>
JcGZJ!;j(tJcGZJJ,~>
JcGZJ!<'8$!;qEJr;V9~>
JcGZJ!;Nnl!;(jBr;V9~>
JcGWI!;j/!JcGWIJ,~>
JcGWI!<'>&!;qEJqu;0~>
JcGWI!;Ntn!;(jBqu;0~>
JcGTH!;j5#JcGTHJ,~>
JcGTH!<'D(!;qEJqYu'~>
JcGTH!;O%p!;(jBqYu'~>
JcGQG!;j;%JcGQGJ,~>
JcGQG!<'J*!;qEJq>Ys~>
JcGQG!;O+r!;(jBq>Ys~>
JcGNF!;jA'JcGNFJ,~>
JcGNF!<'P,!;qEJq#>j~>
JcGNF!;O1t!;(jBq#>j~>
JcGKE!;jG)JcGKEJ,~>
JcGKE!<'V.!;qEJp]#a~>
JcGKE!;O8!!;(jBp]#a~>
JcGHD!;jM+JcGHDJ,~>
JcGHD!<'\0!;qEJpA]X~>
JcGHD!;O>#!;(jBpA]X~>
JcGEC!;jS-JcGECJ,~>
JcGEC!<'b2!;qEJp&BO~>
JcGEC!;OD%!;(jBp&BO~>
JcGBB!;jY/JcGBBJ,~>
JcGBB!<'h4!;qEJo`'F~>
JcGBB!;OJ'!;(jBo`'F~>
JcG?A!;j_1JcG?AJ,~>
JcG?A!<'n6!;qEJoDa=~>
JcG?A!;OP)!;(jBoDa=~>
JcG<@!;je3JcG<@J,~>
JcG<@!<'t8!;qEJo)F4~>
JcG<@!;OV+!;(jBo)F4~>
JcG9?!;jk5JcG9?J,~>
JcG9?!<(%:!;qEJnc++~>
JcG9?!;O\-!;(jBnc++~>
JcG6>!;jq7JcG6>J,~>
JcG6>!<(+<!;qEJnGe"~>
JcG6>!;Ob/!;(jBnGe"~>
JcG3=!;k"9JcG3=J,~>
JcG3=!<(1>!;qEJn,In~>
JcG3=!;Oh1!;(jBn,In~>
JcG0<!;k(;JcG0<J,~>
JcG0<!<(7@!;qEJmf.e~>
JcG0<!;On3!;(jBmf.e~>
JcG-;!;k.=JcG-;J,~>
JcG-;!<(=B!;qEJmJh\~>
JcG-;!;Ot5!;(jBmJh\~>
JcG*:!;k4?JcG*:J,~>
JcG*:!<(CD!;qEJm/MS~>
JcG*:!;P%7!;(jBm/MS~>
JcG'9!;k:AJcG'9J,~>
JcG'9!<(IF!;qEJli2J~>
JcG'9!;P+9!;(jBli2J~>
JcG$8!;k@CJcG$8J,~>
JcG$8!<(OH!;qEJlMlA~>
JcG$8!;P1;!;(jBlMlA~>
JcG!7!;kFEJcG!7J,~>
JcG!7!<(UJ!;qEJl2Q8~>
JcG!7!;P7=!;(jBl2Q8~>
JcFs6!;kLGJcFs6J,~>
JcFs6!<([L!;qEJkl6/~>
JcFs6!;P=?!;(jBkl6/~>
JcFp5!;kRIJcFp5J,~>
JcFp5!<(aN!;qEJkPp&~>
JcFp5!;PCA!;(jBkPp&~>
JcFm4!;kXKJcFm4J,~>
JcFm4!<(gP!;qEJk5Tr~>
JcFm4!;PIC!;(jBk5Tr~>
JcFj3!;k^MJcFj3J,~>
JcFj3!<(mR!;qEJjo9i~>
JcFj3!;POE!;(jBjo9i~>
JcFg2!;kdOJcFg2J,~>
JcFg2!<(sT!;qEJjSs`~>
JcFg2!;PUG!;(jBjSs`~>
JcFd1!;kjQJcFd1J,~>
JcFd1!<)$V!;qEJj8XW~>
JcFd1!;P[I!;(jBj8XW~>
JcFa0!;kpSJcFa0J,~>
JcFa0!<)*X!;qEJir=N~>
JcFa0!;PaK!;(jBir=N~>
JcF^/!;l!UJcF^/J,~>
JcF^/!<)0Z!;qEJiW"E~>
JcF^/!;PgM!;(jBiW"E~>
JcF[.!;l'WJcF[.J,~>
JcF[.!<)6\!;qEJi;\<~>
JcF[.!;PmO!;(jBi;\<~>
JcFX-!;l-YJcFX-J,~>
JcFX-!<)<^!;qEJhuA3~>
JcFX-!;PsQ!;(jBhuA3~>
JcFU,!;l3[JcFU,J,~>
JcFU,!<)B`!;qEJhZ&*~>
JcFU,!;Q$S!;(jBhZ&*~>
JcFR+!;l9]JcFR+J,~>
JcFR+!<)Hb!;qEJh>`!~>
JcFR+!;Q*U!;(jBh>`!~>
JcFO*!;l?_JcFO*J,~>
JcFO*!<)Nd!;qEJh#Dm~>
JcFO*!;Q0W!;(jBh#Dm~>
JcFL)!;lEaJcFL)J,~>
JcFL)!<)Tf!;qEJg])d~>
JcFL)!;Q6Y!;(jBg])d~>
JcFI(!;lKcJcFI(J,~>
JcFI(!<)Zh!;qEJgAc[~>
JcFI(!;Q<[!;(jBgAc[~>
JcFF'!;lQeJcFF'J,~>
JcFF'!<)`j!;qEJg&HR~>
JcFF'!;QB]!;(jBg&HR~>
JcFC&!;lWgJcFC&J,~>
JcFC&!<)fl!;qEJf`-I~>
JcFC&!;QH_!;(jBf`-I~>
JcF@%!;l]iJcF@%J,~>
JcF@%!<)ln!;qEJfDg@~>
JcF@%!;QNa!;(jBfDg@~>
JcF=$!;lckJcF=$J,~>
JcF=$"9&,or.4n!s*t~>
JcF=$"8MKZoR[%ns*t~>
JcF:#!W2\Ds4.."~>
JcF:#!WDqIs4.."~>
JcF:#!Vl;<s4.."~>
%%EndData
showpage
%%Trailer
end
%%EOF
