<?xml version="1.0" encoding="utf-8" standalone="no"?>
<!DOCTYPE svg PUBLIC "-//W3C//DTD SVG 1.1//EN"
  "http://www.w3.org/Graphics/SVG/1.1/DTD/svg11.dtd">
<!-- Created with matplotlib (http://matplotlib.org/) -->
<svg height="287.512pt" version="1.1" viewBox="0 0 414.785625 287.512" width="414.785625pt" xmlns="http://www.w3.org/2000/svg" xmlns:xlink="http://www.w3.org/1999/xlink">
 <defs>
  <style type="text/css">
*{stroke-linecap:butt;stroke-linejoin:round;}
  </style>
 </defs>
 <g id="figure_1">
  <g id="patch_1">
   <path d="M 0 287.512 
L 414.785625 287.512 
L 414.785625 0 
L 0 0 
z
" style="fill:#ffffff;"/>
  </g>
  <g id="axes_1">
   <g id="patch_2">
    <path d="M 46.965625 276.812 
L 404.085625 276.812 
L 404.085625 10.7 
L 46.965625 10.7 
z
" style="fill:#ffffff;"/>
   </g>
   <g id="matplotlib.axis_1"/>
   <g id="matplotlib.axis_2">
    <g id="ytick_1">
     <g id="line2d_1">
      <defs>
       <path d="M 0 0 
L -3.5 0 
" id="m1b04260655" style="stroke:#000000;stroke-width:0.8;"/>
      </defs>
      <g>
       <use style="stroke:#000000;stroke-width:0.8;" x="46.965625" xlink:href="#m1b04260655" y="258.363615"/>
      </g>
     </g>
     <g id="text_1">
      <!-- 300 -->
      <defs>
       <path d="M 40.578125 39.3125 
Q 47.65625 37.796875 51.625 33 
Q 55.609375 28.21875 55.609375 21.1875 
Q 55.609375 10.40625 48.1875 4.484375 
Q 40.765625 -1.421875 27.09375 -1.421875 
Q 22.515625 -1.421875 17.65625 -0.515625 
Q 12.796875 0.390625 7.625 2.203125 
L 7.625 11.71875 
Q 11.71875 9.328125 16.59375 8.109375 
Q 21.484375 6.890625 26.8125 6.890625 
Q 36.078125 6.890625 40.9375 10.546875 
Q 45.796875 14.203125 45.796875 21.1875 
Q 45.796875 27.640625 41.28125 31.265625 
Q 36.765625 34.90625 28.71875 34.90625 
L 20.21875 34.90625 
L 20.21875 43.015625 
L 29.109375 43.015625 
Q 36.375 43.015625 40.234375 45.921875 
Q 44.09375 48.828125 44.09375 54.296875 
Q 44.09375 59.90625 40.109375 62.90625 
Q 36.140625 65.921875 28.71875 65.921875 
Q 24.65625 65.921875 20.015625 65.03125 
Q 15.375 64.15625 9.8125 62.3125 
L 9.8125 71.09375 
Q 15.4375 72.65625 20.34375 73.4375 
Q 25.25 74.21875 29.59375 74.21875 
Q 40.828125 74.21875 47.359375 69.109375 
Q 53.90625 64.015625 53.90625 55.328125 
Q 53.90625 49.265625 50.4375 45.09375 
Q 46.96875 40.921875 40.578125 39.3125 
z
" id="DejaVuSans-33"/>
       <path d="M 31.78125 66.40625 
Q 24.171875 66.40625 20.328125 58.90625 
Q 16.5 51.421875 16.5 36.375 
Q 16.5 21.390625 20.328125 13.890625 
Q 24.171875 6.390625 31.78125 6.390625 
Q 39.453125 6.390625 43.28125 13.890625 
Q 47.125 21.390625 47.125 36.375 
Q 47.125 51.421875 43.28125 58.90625 
Q 39.453125 66.40625 31.78125 66.40625 
z
M 31.78125 74.21875 
Q 44.046875 74.21875 50.515625 64.515625 
Q 56.984375 54.828125 56.984375 36.375 
Q 56.984375 17.96875 50.515625 8.265625 
Q 44.046875 -1.421875 31.78125 -1.421875 
Q 19.53125 -1.421875 13.0625 8.265625 
Q 6.59375 17.96875 6.59375 36.375 
Q 6.59375 54.828125 13.0625 64.515625 
Q 19.53125 74.21875 31.78125 74.21875 
z
" id="DejaVuSans-30"/>
      </defs>
      <g transform="translate(20.878125 262.162834)scale(0.1 -0.1)">
       <use xlink:href="#DejaVuSans-33"/>
       <use x="63.623047" xlink:href="#DejaVuSans-30"/>
       <use x="127.246094" xlink:href="#DejaVuSans-30"/>
      </g>
     </g>
    </g>
    <g id="ytick_2">
     <g id="line2d_2">
      <g>
       <use style="stroke:#000000;stroke-width:0.8;" x="46.965625" xlink:href="#m1b04260655" y="205.427072"/>
      </g>
     </g>
     <g id="text_2">
      <!-- 400 -->
      <defs>
       <path d="M 37.796875 64.3125 
L 12.890625 25.390625 
L 37.796875 25.390625 
z
M 35.203125 72.90625 
L 47.609375 72.90625 
L 47.609375 25.390625 
L 58.015625 25.390625 
L 58.015625 17.1875 
L 47.609375 17.1875 
L 47.609375 0 
L 37.796875 0 
L 37.796875 17.1875 
L 4.890625 17.1875 
L 4.890625 26.703125 
z
" id="DejaVuSans-34"/>
      </defs>
      <g transform="translate(20.878125 209.226291)scale(0.1 -0.1)">
       <use xlink:href="#DejaVuSans-34"/>
       <use x="63.623047" xlink:href="#DejaVuSans-30"/>
       <use x="127.246094" xlink:href="#DejaVuSans-30"/>
      </g>
     </g>
    </g>
    <g id="ytick_3">
     <g id="line2d_3">
      <g>
       <use style="stroke:#000000;stroke-width:0.8;" x="46.965625" xlink:href="#m1b04260655" y="152.49053"/>
      </g>
     </g>
     <g id="text_3">
      <!-- 500 -->
      <defs>
       <path d="M 10.796875 72.90625 
L 49.515625 72.90625 
L 49.515625 64.59375 
L 19.828125 64.59375 
L 19.828125 46.734375 
Q 21.96875 47.46875 24.109375 47.828125 
Q 26.265625 48.1875 28.421875 48.1875 
Q 40.625 48.1875 47.75 41.5 
Q 54.890625 34.8125 54.890625 23.390625 
Q 54.890625 11.625 47.5625 5.09375 
Q 40.234375 -1.421875 26.90625 -1.421875 
Q 22.3125 -1.421875 17.546875 -0.640625 
Q 12.796875 0.140625 7.71875 1.703125 
L 7.71875 11.625 
Q 12.109375 9.234375 16.796875 8.0625 
Q 21.484375 6.890625 26.703125 6.890625 
Q 35.15625 6.890625 40.078125 11.328125 
Q 45.015625 15.765625 45.015625 23.390625 
Q 45.015625 31 40.078125 35.4375 
Q 35.15625 39.890625 26.703125 39.890625 
Q 22.75 39.890625 18.8125 39.015625 
Q 14.890625 38.140625 10.796875 36.28125 
z
" id="DejaVuSans-35"/>
      </defs>
      <g transform="translate(20.878125 156.289748)scale(0.1 -0.1)">
       <use xlink:href="#DejaVuSans-35"/>
       <use x="63.623047" xlink:href="#DejaVuSans-30"/>
       <use x="127.246094" xlink:href="#DejaVuSans-30"/>
      </g>
     </g>
    </g>
    <g id="ytick_4">
     <g id="line2d_4">
      <g>
       <use style="stroke:#000000;stroke-width:0.8;" x="46.965625" xlink:href="#m1b04260655" y="99.553987"/>
      </g>
     </g>
     <g id="text_4">
      <!-- 600 -->
      <defs>
       <path d="M 33.015625 40.375 
Q 26.375 40.375 22.484375 35.828125 
Q 18.609375 31.296875 18.609375 23.390625 
Q 18.609375 15.53125 22.484375 10.953125 
Q 26.375 6.390625 33.015625 6.390625 
Q 39.65625 6.390625 43.53125 10.953125 
Q 47.40625 15.53125 47.40625 23.390625 
Q 47.40625 31.296875 43.53125 35.828125 
Q 39.65625 40.375 33.015625 40.375 
z
M 52.59375 71.296875 
L 52.59375 62.3125 
Q 48.875 64.0625 45.09375 64.984375 
Q 41.3125 65.921875 37.59375 65.921875 
Q 27.828125 65.921875 22.671875 59.328125 
Q 17.53125 52.734375 16.796875 39.40625 
Q 19.671875 43.65625 24.015625 45.921875 
Q 28.375 48.1875 33.59375 48.1875 
Q 44.578125 48.1875 50.953125 41.515625 
Q 57.328125 34.859375 57.328125 23.390625 
Q 57.328125 12.15625 50.6875 5.359375 
Q 44.046875 -1.421875 33.015625 -1.421875 
Q 20.359375 -1.421875 13.671875 8.265625 
Q 6.984375 17.96875 6.984375 36.375 
Q 6.984375 53.65625 15.1875 63.9375 
Q 23.390625 74.21875 37.203125 74.21875 
Q 40.921875 74.21875 44.703125 73.484375 
Q 48.484375 72.75 52.59375 71.296875 
z
" id="DejaVuSans-36"/>
      </defs>
      <g transform="translate(20.878125 103.353206)scale(0.1 -0.1)">
       <use xlink:href="#DejaVuSans-36"/>
       <use x="63.623047" xlink:href="#DejaVuSans-30"/>
       <use x="127.246094" xlink:href="#DejaVuSans-30"/>
      </g>
     </g>
    </g>
    <g id="ytick_5">
     <g id="line2d_5">
      <g>
       <use style="stroke:#000000;stroke-width:0.8;" x="46.965625" xlink:href="#m1b04260655" y="46.617444"/>
      </g>
     </g>
     <g id="text_5">
      <!-- 700 -->
      <defs>
       <path d="M 8.203125 72.90625 
L 55.078125 72.90625 
L 55.078125 68.703125 
L 28.609375 0 
L 18.3125 0 
L 43.21875 64.59375 
L 8.203125 64.59375 
z
" id="DejaVuSans-37"/>
      </defs>
      <g transform="translate(20.878125 50.416663)scale(0.1 -0.1)">
       <use xlink:href="#DejaVuSans-37"/>
       <use x="63.623047" xlink:href="#DejaVuSans-30"/>
       <use x="127.246094" xlink:href="#DejaVuSans-30"/>
      </g>
     </g>
    </g>
    <g id="text_6">
     <!-- raw signal -->
     <defs>
      <path d="M 41.109375 46.296875 
Q 39.59375 47.171875 37.8125 47.578125 
Q 36.03125 48 33.890625 48 
Q 26.265625 48 22.1875 43.046875 
Q 18.109375 38.09375 18.109375 28.8125 
L 18.109375 0 
L 9.078125 0 
L 9.078125 54.6875 
L 18.109375 54.6875 
L 18.109375 46.1875 
Q 20.953125 51.171875 25.484375 53.578125 
Q 30.03125 56 36.53125 56 
Q 37.453125 56 38.578125 55.875 
Q 39.703125 55.765625 41.0625 55.515625 
z
" id="DejaVuSans-72"/>
      <path d="M 34.28125 27.484375 
Q 23.390625 27.484375 19.1875 25 
Q 14.984375 22.515625 14.984375 16.5 
Q 14.984375 11.71875 18.140625 8.90625 
Q 21.296875 6.109375 26.703125 6.109375 
Q 34.1875 6.109375 38.703125 11.40625 
Q 43.21875 16.703125 43.21875 25.484375 
L 43.21875 27.484375 
z
M 52.203125 31.203125 
L 52.203125 0 
L 43.21875 0 
L 43.21875 8.296875 
Q 40.140625 3.328125 35.546875 0.953125 
Q 30.953125 -1.421875 24.3125 -1.421875 
Q 15.921875 -1.421875 10.953125 3.296875 
Q 6 8.015625 6 15.921875 
Q 6 25.140625 12.171875 29.828125 
Q 18.359375 34.515625 30.609375 34.515625 
L 43.21875 34.515625 
L 43.21875 35.40625 
Q 43.21875 41.609375 39.140625 45 
Q 35.0625 48.390625 27.6875 48.390625 
Q 23 48.390625 18.546875 47.265625 
Q 14.109375 46.140625 10.015625 43.890625 
L 10.015625 52.203125 
Q 14.9375 54.109375 19.578125 55.046875 
Q 24.21875 56 28.609375 56 
Q 40.484375 56 46.34375 49.84375 
Q 52.203125 43.703125 52.203125 31.203125 
z
" id="DejaVuSans-61"/>
      <path d="M 4.203125 54.6875 
L 13.1875 54.6875 
L 24.421875 12.015625 
L 35.59375 54.6875 
L 46.1875 54.6875 
L 57.421875 12.015625 
L 68.609375 54.6875 
L 77.59375 54.6875 
L 63.28125 0 
L 52.6875 0 
L 40.921875 44.828125 
L 29.109375 0 
L 18.5 0 
z
" id="DejaVuSans-77"/>
      <path id="DejaVuSans-20"/>
      <path d="M 44.28125 53.078125 
L 44.28125 44.578125 
Q 40.484375 46.53125 36.375 47.5 
Q 32.28125 48.484375 27.875 48.484375 
Q 21.1875 48.484375 17.84375 46.4375 
Q 14.5 44.390625 14.5 40.28125 
Q 14.5 37.15625 16.890625 35.375 
Q 19.28125 33.59375 26.515625 31.984375 
L 29.59375 31.296875 
Q 39.15625 29.25 43.1875 25.515625 
Q 47.21875 21.78125 47.21875 15.09375 
Q 47.21875 7.46875 41.1875 3.015625 
Q 35.15625 -1.421875 24.609375 -1.421875 
Q 20.21875 -1.421875 15.453125 -0.5625 
Q 10.6875 0.296875 5.421875 2 
L 5.421875 11.28125 
Q 10.40625 8.6875 15.234375 7.390625 
Q 20.0625 6.109375 24.8125 6.109375 
Q 31.15625 6.109375 34.5625 8.28125 
Q 37.984375 10.453125 37.984375 14.40625 
Q 37.984375 18.0625 35.515625 20.015625 
Q 33.0625 21.96875 24.703125 23.78125 
L 21.578125 24.515625 
Q 13.234375 26.265625 9.515625 29.90625 
Q 5.8125 33.546875 5.8125 39.890625 
Q 5.8125 47.609375 11.28125 51.796875 
Q 16.75 56 26.8125 56 
Q 31.78125 56 36.171875 55.265625 
Q 40.578125 54.546875 44.28125 53.078125 
z
" id="DejaVuSans-73"/>
      <path d="M 9.421875 54.6875 
L 18.40625 54.6875 
L 18.40625 0 
L 9.421875 0 
z
M 9.421875 75.984375 
L 18.40625 75.984375 
L 18.40625 64.59375 
L 9.421875 64.59375 
z
" id="DejaVuSans-69"/>
      <path d="M 45.40625 27.984375 
Q 45.40625 37.75 41.375 43.109375 
Q 37.359375 48.484375 30.078125 48.484375 
Q 22.859375 48.484375 18.828125 43.109375 
Q 14.796875 37.75 14.796875 27.984375 
Q 14.796875 18.265625 18.828125 12.890625 
Q 22.859375 7.515625 30.078125 7.515625 
Q 37.359375 7.515625 41.375 12.890625 
Q 45.40625 18.265625 45.40625 27.984375 
z
M 54.390625 6.78125 
Q 54.390625 -7.171875 48.1875 -13.984375 
Q 42 -20.796875 29.203125 -20.796875 
Q 24.46875 -20.796875 20.265625 -20.09375 
Q 16.0625 -19.390625 12.109375 -17.921875 
L 12.109375 -9.1875 
Q 16.0625 -11.328125 19.921875 -12.34375 
Q 23.78125 -13.375 27.78125 -13.375 
Q 36.625 -13.375 41.015625 -8.765625 
Q 45.40625 -4.15625 45.40625 5.171875 
L 45.40625 9.625 
Q 42.625 4.78125 38.28125 2.390625 
Q 33.9375 0 27.875 0 
Q 17.828125 0 11.671875 7.65625 
Q 5.515625 15.328125 5.515625 27.984375 
Q 5.515625 40.671875 11.671875 48.328125 
Q 17.828125 56 27.875 56 
Q 33.9375 56 38.28125 53.609375 
Q 42.625 51.21875 45.40625 46.390625 
L 45.40625 54.6875 
L 54.390625 54.6875 
z
" id="DejaVuSans-67"/>
      <path d="M 54.890625 33.015625 
L 54.890625 0 
L 45.90625 0 
L 45.90625 32.71875 
Q 45.90625 40.484375 42.875 44.328125 
Q 39.84375 48.1875 33.796875 48.1875 
Q 26.515625 48.1875 22.3125 43.546875 
Q 18.109375 38.921875 18.109375 30.90625 
L 18.109375 0 
L 9.078125 0 
L 9.078125 54.6875 
L 18.109375 54.6875 
L 18.109375 46.1875 
Q 21.34375 51.125 25.703125 53.5625 
Q 30.078125 56 35.796875 56 
Q 45.21875 56 50.046875 50.171875 
Q 54.890625 44.34375 54.890625 33.015625 
z
" id="DejaVuSans-6e"/>
      <path d="M 9.421875 75.984375 
L 18.40625 75.984375 
L 18.40625 0 
L 9.421875 0 
z
" id="DejaVuSans-6c"/>
     </defs>
     <g transform="translate(14.798438 169.3435)rotate(-90)scale(0.1 -0.1)">
      <use xlink:href="#DejaVuSans-72"/>
      <use x="41.113281" xlink:href="#DejaVuSans-61"/>
      <use x="102.392578" xlink:href="#DejaVuSans-77"/>
      <use x="184.179688" xlink:href="#DejaVuSans-20"/>
      <use x="215.966797" xlink:href="#DejaVuSans-73"/>
      <use x="268.066406" xlink:href="#DejaVuSans-69"/>
      <use x="295.849609" xlink:href="#DejaVuSans-67"/>
      <use x="359.326172" xlink:href="#DejaVuSans-6e"/>
      <use x="422.705078" xlink:href="#DejaVuSans-61"/>
      <use x="483.984375" xlink:href="#DejaVuSans-6c"/>
     </g>
    </g>
   </g>
   <g id="line2d_6">
    <path clip-path="url(#p12f41e5650)" d="M 63.198352 174.194512 
L 64.012023 170.488954 
L 64.825693 170.488954 
L 65.639364 171.547685 
L 66.453034 174.723877 
L 67.266705 173.135781 
L 68.080376 176.841339 
L 68.894046 167.842127 
L 69.707717 175.782608 
L 70.521387 176.841339 
L 71.335058 171.547685 
L 72.962399 169.430223 
L 73.776069 163.607204 
L 74.58974 181.076263 
L 75.40341 165.724665 
L 76.217081 167.312761 
L 77.030751 169.959589 
L 77.844422 174.723877 
L 78.658093 185.311186 
L 79.471763 184.781821 
L 80.285434 191.134206 
L 81.099104 191.134206 
L 81.912775 189.016744 
L 82.726445 195.369129 
L 83.540116 194.310398 
L 84.353786 181.076263 
L 85.167457 180.546897 
L 85.981127 159.37228 
L 86.794798 157.784184 
L 87.608468 156.725453 
L 88.422139 156.196088 
L 89.23581 159.901646 
L 90.04948 153.54926 
L 90.863151 162.548473 
L 91.676821 152.49053 
L 93.304162 161.489742 
L 94.117833 157.784184 
L 94.931503 153.019895 
L 95.745174 125.492893 
L 96.558844 54.02856 
L 97.372515 45.029348 
L 98.186185 30.207116 
L 98.999856 22.796 
L 99.813527 33.383309 
L 100.627197 41.32379 
L 101.440868 43.970617 
L 102.254538 56.675387 
L 103.068209 75.203177 
L 103.881879 58.263484 
L 104.69555 50.323002 
L 105.50922 28.61902 
L 106.322891 65.6746 
L 107.136561 69.909523 
L 107.950232 44.499982 
L 108.763903 68.850792 
L 109.577573 59.322214 
L 110.391244 86.319851 
L 111.204914 86.849217 
L 112.018585 111.200026 
L 112.832255 120.728604 
L 113.645926 118.611142 
L 114.459596 135.02147 
L 115.273267 141.373856 
L 116.086937 136.609567 
L 116.900608 149.843702 
L 117.714278 213.367554 
L 118.527949 208.073899 
L 119.34162 197.486591 
L 120.15529 203.838976 
L 120.968961 222.896131 
L 121.782631 226.072324 
L 122.596302 222.896131 
L 123.409972 192.192937 
L 124.223643 231.895344 
L 125.037313 226.601689 
L 125.850984 222.896131 
L 126.664654 228.719151 
L 127.478325 222.366766 
L 128.291995 221.8374 
L 129.105666 223.425497 
L 129.919337 220.249304 
L 130.733007 224.484228 
L 131.546678 226.601689 
L 132.360348 229.777882 
L 133.174019 222.896131 
L 133.987689 228.189786 
L 134.80136 219.719939 
L 135.61503 177.370705 
L 136.428701 144.550048 
L 137.242371 153.019895 
L 138.056042 146.66751 
L 138.869712 153.019895 
L 139.683383 143.491317 
L 140.497054 147.726241 
L 141.310724 150.902433 
L 142.124395 148.255606 
L 142.938065 148.255606 
L 143.751736 139.256394 
L 144.565406 142.432586 
L 145.379077 130.786547 
L 146.192747 137.138932 
L 147.006418 139.256394 
L 147.820088 151.961164 
L 148.633759 151.431799 
L 149.44743 207.015168 
L 150.2611 205.427072 
L 151.074771 194.839764 
L 151.888441 202.780245 
L 152.702112 191.663571 
L 153.515782 210.191361 
L 154.329453 209.13263 
L 155.143123 202.25088 
L 155.956794 208.603265 
L 156.770464 201.721514 
L 157.584135 148.784972 
L 158.397805 148.255606 
L 159.211476 139.785759 
L 160.025147 152.49053 
L 160.838817 147.726241 
L 161.652488 150.902433 
L 162.466158 139.256394 
L 163.279829 153.54926 
L 164.093499 154.078626 
L 164.90717 169.430223 
L 165.72084 187.958013 
L 166.534511 174.723877 
L 167.348181 182.134993 
L 168.161852 183.193724 
L 168.975522 172.606416 
L 169.789193 160.431011 
L 171.416534 195.898495 
L 172.230205 191.134206 
L 173.043875 196.957225 
L 173.857546 187.958013 
L 174.671216 199.074687 
L 176.298557 150.373068 
L 177.112228 152.49053 
L 177.925898 153.019895 
L 178.739569 162.019107 
L 179.553239 165.1953 
L 181.180581 148.784972 
L 181.994251 157.784184 
L 182.807922 133.433374 
L 183.621592 126.551624 
L 184.435263 121.787335 
L 185.248933 121.257969 
L 186.062604 126.022258 
L 186.876274 118.611142 
L 187.689945 118.611142 
L 188.503615 126.551624 
L 189.317286 123.904796 
L 190.130957 123.904796 
L 190.944627 125.492893 
L 191.758298 130.786547 
L 192.571968 153.54926 
L 193.385639 164.665934 
L 194.199309 152.49053 
L 195.01298 148.784972 
L 195.82665 135.02147 
L 196.640321 157.784184 
L 197.453991 155.666722 
L 198.267662 154.078626 
L 199.081332 154.078626 
L 199.895003 162.019107 
L 200.708674 177.370705 
L 201.522344 186.369917 
L 202.336015 255.187422 
L 203.149685 257.834249 
L 203.963356 256.246153 
L 204.777026 256.775519 
L 205.590697 259.422346 
L 206.404367 259.951711 
L 207.218038 244.600114 
L 208.031708 165.724665 
L 208.845379 164.136569 
L 209.659049 163.607204 
L 210.47272 162.019107 
L 211.286391 171.547685 
L 212.100061 155.137357 
L 212.913732 167.312761 
L 213.727402 162.019107 
L 214.541073 159.901646 
L 215.354743 166.783396 
L 216.168414 155.666722 
L 216.982084 160.960376 
L 217.795755 159.901646 
L 218.609425 154.607991 
L 219.423096 128.669085 
L 220.236766 118.081777 
L 221.050437 116.493681 
L 221.864108 119.669873 
L 222.677778 117.023046 
L 223.491449 128.13972 
L 224.305119 121.257969 
L 225.11879 124.963527 
L 225.93246 115.964315 
L 226.746131 124.963527 
L 227.559801 119.669873 
L 228.373472 120.728604 
L 229.187142 113.317488 
L 230.000813 130.257182 
L 230.814484 130.786547 
L 231.628154 117.552411 
L 232.441825 122.3167 
L 233.255495 125.492893 
L 234.069166 119.669873 
L 234.882836 149.843702 
L 235.696507 140.84449 
L 237.323848 139.785759 
L 238.137518 139.785759 
L 238.951189 148.255606 
L 239.764859 142.432586 
L 240.57853 143.491317 
L 241.392201 140.84449 
L 242.205871 141.373856 
L 243.019542 141.373856 
L 243.833212 138.197663 
L 244.646883 128.13972 
L 245.460553 148.784972 
L 246.274224 147.196875 
L 247.087894 147.726241 
L 247.901565 151.961164 
L 248.715235 142.961952 
L 249.528906 129.727816 
L 250.342576 145.608779 
L 251.969918 154.607991 
L 252.783588 153.019895 
L 253.597259 150.902433 
L 254.410929 148.255606 
L 255.2246 154.078626 
L 256.03827 151.431799 
L 256.851941 144.550048 
L 257.665611 146.138144 
L 258.479282 150.902433 
L 259.292952 162.548473 
L 260.106623 209.661996 
L 260.920293 214.95565 
L 261.733964 223.425497 
L 262.547635 191.134206 
L 263.361305 212.308823 
L 264.174976 241.423921 
L 264.988646 249.893768 
L 265.802317 264.716 
L 266.615987 256.246153 
L 267.429658 253.599326 
L 268.243328 251.481864 
L 269.056999 254.658057 
L 269.870669 253.069961 
L 270.68434 254.658057 
L 271.498011 258.363615 
L 272.311681 260.481077 
L 273.125352 257.834249 
L 273.939022 259.951711 
L 274.752693 253.599326 
L 275.566363 252.01123 
L 277.193704 262.069173 
L 278.007375 255.187422 
L 278.821045 263.127904 
L 279.634716 256.246153 
L 280.448386 257.834249 
L 281.262057 255.187422 
L 282.075728 253.599326 
L 282.889398 257.834249 
L 283.703069 254.658057 
L 284.516739 260.481077 
L 285.33041 263.127904 
L 286.14408 250.423133 
L 286.957751 258.89298 
L 287.771421 258.363615 
L 288.585092 261.539807 
L 289.398762 262.069173 
L 290.212433 259.422346 
L 291.026103 262.598538 
L 291.839774 257.834249 
L 292.653445 256.775519 
L 293.467115 257.834249 
L 294.280786 232.424709 
L 295.094456 237.718363 
L 295.908127 261.539807 
L 296.721797 262.598538 
L 297.535468 240.36519 
L 298.349138 195.898495 
L 299.162809 195.369129 
L 299.976479 198.015956 
L 300.79015 172.07705 
L 302.417491 143.491317 
L 303.231162 149.843702 
L 304.044832 153.54926 
L 304.858503 154.078626 
L 305.672173 164.665934 
L 306.485844 159.901646 
L 307.299514 170.488954 
L 308.113185 167.312761 
L 309.740526 150.902433 
L 310.554196 149.314337 
L 311.367867 155.666722 
L 312.181538 123.375431 
L 312.995208 107.494468 
L 313.808879 111.729392 
L 314.622549 109.082565 
L 315.43622 111.729392 
L 316.24989 141.903221 
L 317.063561 188.487379 
L 317.877231 133.96274 
L 318.690902 116.493681 
L 319.504572 119.669873 
L 320.318243 111.200026 
L 321.131913 127.610354 
L 321.945584 124.963527 
L 322.759255 117.552411 
L 323.572925 132.904009 
L 324.386596 123.375431 
L 325.200266 142.432586 
L 326.827607 115.43495 
L 327.641278 118.611142 
L 328.454948 132.904009 
L 329.268619 117.552411 
L 330.082289 117.552411 
L 330.89596 122.846066 
L 331.70963 112.258757 
L 332.523301 124.963527 
L 333.336972 119.669873 
L 334.150642 122.846066 
L 334.964313 123.375431 
L 335.777983 122.846066 
L 336.591654 154.607991 
L 337.405324 135.02147 
L 338.218995 123.904796 
L 339.032665 129.727816 
L 339.846336 103.78891 
L 340.660006 119.140508 
L 341.473677 194.839764 
L 342.287347 109.082565 
L 343.101018 96.377794 
L 343.914689 120.728604 
L 344.728359 115.43495 
L 345.54203 127.080989 
L 346.3557 111.200026 
L 347.169371 111.729392 
L 347.983041 122.846066 
L 348.796712 113.846853 
L 349.610382 113.846853 
L 350.424053 129.198451 
L 351.237723 121.787335 
L 352.051394 99.553987 
L 352.865065 108.553199 
L 353.678735 133.433374 
L 354.492406 139.785759 
L 355.306076 122.846066 
L 356.119747 112.788123 
L 356.933417 111.200026 
L 357.747088 118.611142 
L 358.560758 128.13972 
L 359.374429 112.258757 
L 360.188099 109.61193 
L 361.00177 109.61193 
L 361.81544 123.375431 
L 362.629111 130.257182 
L 363.442782 113.317488 
L 364.256452 128.669085 
L 365.070123 127.610354 
L 365.883793 131.315912 
L 366.697464 123.904796 
L 367.511134 113.317488 
L 368.324805 97.965891 
L 369.138475 130.786547 
L 369.952146 137.668298 
L 370.765816 111.729392 
L 371.579487 153.54926 
L 372.393157 128.669085 
L 373.206828 120.199239 
L 374.020499 131.315912 
L 374.834169 107.494468 
L 375.64784 111.729392 
L 376.46151 120.728604 
L 377.275181 126.022258 
L 378.088851 119.140508 
L 378.902522 133.433374 
L 379.716192 120.199239 
L 380.529863 113.317488 
L 381.343533 108.553199 
L 382.157204 109.61193 
L 382.970874 141.903221 
L 383.784545 154.078626 
L 384.598216 172.07705 
L 385.411886 142.961952 
L 386.225557 125.492893 
L 387.039227 123.904796 
L 387.852898 131.315912 
L 387.852898 131.315912 
" style="fill:none;stroke:#649600;stroke-linecap:square;stroke-width:1.5;"/>
   </g>
   <g id="patch_3">
    <path d="M 46.965625 276.812 
L 46.965625 10.7 
" style="fill:none;stroke:#000000;stroke-linecap:square;stroke-linejoin:miter;stroke-width:0.8;"/>
   </g>
   <g id="patch_4">
    <path d="M 46.965625 276.812 
L 404.085625 276.812 
" style="fill:none;stroke:#000000;stroke-linecap:square;stroke-linejoin:miter;stroke-width:0.8;"/>
   </g>
  </g>
 </g>
 <defs>
  <clipPath id="p12f41e5650">
   <rect height="266.112" width="357.12" x="46.965625" y="10.7"/>
  </clipPath>
 </defs>
</svg>
